Modelsim_proj/dump.vcd
$date
	Tue Feb 04 17:22:40 2025
$end
$version
	ModelSim Version 2020.1
$end
$timescale
	1ps
$end

$scope module UART_Rx_tb $end
$var parameter 32 ! c_CLOCK_PERIOD_NS $end
$var parameter 32 " c_CLKS_PER_BIT $end
$var parameter 32 # c_BIT_PERIOD $end
$var reg 1 $ r_Clock $end
$var reg 1 % r_RX_Serial $end
$var reg 8 & w_RX_Byte [7:0] $end

$scope task UART_WRITE_BYTE $end
$var reg 8 ' i_Data [7:0] $end
$upscope $end

$scope module UART_RX_INST_l $end
$var parameter 32 ( CLKS_PER_BIT $end
$var wire 1 ) clk $end
$var wire 1 * i_RX_Serial $end
$var reg 1 + o_RX_DV $end
$var reg 8 , o_RX_Byte [7:0] $end
$var reg 3 - state_r [2:0] $end
$var reg 8 . Clock_Count_r [7:0] $end
$var reg 3 / Bit_Index_r [2:0] $end
$var reg 8 0 RX_Byte_r [7:0] $end
$var reg 1 1 RX_DV_r $end
$upscope $end
$upscope $end
$enddefinitions $end
#0
$dumpvars
0$
1%
b0 &
bx '
0+
b0 ,
b0 -
b0 .
b0 /
b0 0
01
b101000 !
b11011001 "
b10000110011000 #
b11011001 (
0)
1*
$end
#20
1$
1)
b110111 '
0%
0*
#40
0$
0)
#60
1$
1)
b1 -
#80
0$
0)
#100
1$
1)
b1 .
#120
0$
0)
#140
1$
1)
b10 .
#160
0$
0)
#180
1$
1)
b11 .
#200
0$
0)
#220
1$
1)
b100 .
#240
0$
0)
#260
1$
1)
b101 .
#280
0$
0)
#300
1$
1)
b110 .
#320
0$
0)
#340
1$
1)
b111 .
#360
0$
0)
#380
1$
1)
b1000 .
#400
0$
0)
#420
1$
1)
b1001 .
#440
0$
0)
#460
1$
1)
b1010 .
#480
0$
0)
#500
1$
1)
b1011 .
#520
0$
0)
#540
1$
1)
b1100 .
#560
0$
0)
#580
1$
1)
b1101 .
#600
0$
0)
#620
1$
1)
b1110 .
#640
0$
0)
#660
1$
1)
b1111 .
#680
0$
0)
#700
1$
1)
b10000 .
#720
0$
0)
#740
1$
1)
b10001 .
#760
0$
0)
#780
1$
1)
b10010 .
#800
0$
0)
#820
1$
1)
b10011 .
#840
0$
0)
#860
1$
1)
b10100 .
#880
0$
0)
#900
1$
1)
b10101 .
#920
0$
0)
#940
1$
1)
b10110 .
#960
0$
0)
#980
1$
1)
b10111 .
#1000
0$
0)
#1020
1$
1)
b11000 .
#1040
0$
0)
#1060
1$
1)
b11001 .
#1080
0$
0)
#1100
1$
1)
b11010 .
#1120
0$
0)
#1140
1$
1)
b11011 .
#1160
0$
0)
#1180
1$
1)
b11100 .
#1200
0$
0)
#1220
1$
1)
b11101 .
#1240
0$
0)
#1260
1$
1)
b11110 .
#1280
0$
0)
#1300
1$
1)
b11111 .
#1320
0$
0)
#1340
1$
1)
b100000 .
#1360
0$
0)
#1380
1$
1)
b100001 .
#1400
0$
0)
#1420
1$
1)
b100010 .
#1440
0$
0)
#1460
1$
1)
b100011 .
#1480
0$
0)
#1500
1$
1)
b100100 .
#1520
0$
0)
#1540
1$
1)
b100101 .
#1560
0$
0)
#1580
1$
1)
b100110 .
#1600
0$
0)
#1620
1$
1)
b100111 .
#1640
0$
0)
#1660
1$
1)
b101000 .
#1680
0$
0)
#1700
1$
1)
b101001 .
#1720
0$
0)
#1740
1$
1)
b101010 .
#1760
0$
0)
#1780
1$
1)
b101011 .
#1800
0$
0)
#1820
1$
1)
b101100 .
#1840
0$
0)
#1860
1$
1)
b101101 .
#1880
0$
0)
#1900
1$
1)
b101110 .
#1920
0$
0)
#1940
1$
1)
b101111 .
#1960
0$
0)
#1980
1$
1)
b110000 .
#2000
0$
0)
#2020
1$
1)
b110001 .
#2040
0$
0)
#2060
1$
1)
b110010 .
#2080
0$
0)
#2100
1$
1)
b110011 .
#2120
0$
0)
#2140
1$
1)
b110100 .
#2160
0$
0)
#2180
1$
1)
b110101 .
#2200
0$
0)
#2220
1$
1)
b110110 .
#2240
0$
0)
#2260
1$
1)
b110111 .
#2280
0$
0)
#2300
1$
1)
b111000 .
#2320
0$
0)
#2340
1$
1)
b111001 .
#2360
0$
0)
#2380
1$
1)
b111010 .
#2400
0$
0)
#2420
1$
1)
b111011 .
#2440
0$
0)
#2460
1$
1)
b111100 .
#2480
0$
0)
#2500
1$
1)
b111101 .
#2520
0$
0)
#2540
1$
1)
b111110 .
#2560
0$
0)
#2580
1$
1)
b111111 .
#2600
0$
0)
#2620
1$
1)
b1000000 .
#2640
0$
0)
#2660
1$
1)
b1000001 .
#2680
0$
0)
#2700
1$
1)
b1000010 .
#2720
0$
0)
#2740
1$
1)
b1000011 .
#2760
0$
0)
#2780
1$
1)
b1000100 .
#2800
0$
0)
#2820
1$
1)
b1000101 .
#2840
0$
0)
#2860
1$
1)
b1000110 .
#2880
0$
0)
#2900
1$
1)
b1000111 .
#2920
0$
0)
#2940
1$
1)
b1001000 .
#2960
0$
0)
#2980
1$
1)
b1001001 .
#3000
0$
0)
#3020
1$
1)
b1001010 .
#3040
0$
0)
#3060
1$
1)
b1001011 .
#3080
0$
0)
#3100
1$
1)
b1001100 .
#3120
0$
0)
#3140
1$
1)
b1001101 .
#3160
0$
0)
#3180
1$
1)
b1001110 .
#3200
0$
0)
#3220
1$
1)
b1001111 .
#3240
0$
0)
#3260
1$
1)
b1010000 .
#3280
0$
0)
#3300
1$
1)
b1010001 .
#3320
0$
0)
#3340
1$
1)
b1010010 .
#3360
0$
0)
#3380
1$
1)
b1010011 .
#3400
0$
0)
#3420
1$
1)
b1010100 .
#3440
0$
0)
#3460
1$
1)
b1010101 .
#3480
0$
0)
#3500
1$
1)
b1010110 .
#3520
0$
0)
#3540
1$
1)
b1010111 .
#3560
0$
0)
#3580
1$
1)
b1011000 .
#3600
0$
0)
#3620
1$
1)
b1011001 .
#3640
0$
0)
#3660
1$
1)
b1011010 .
#3680
0$
0)
#3700
1$
1)
b1011011 .
#3720
0$
0)
#3740
1$
1)
b1011100 .
#3760
0$
0)
#3780
1$
1)
b1011101 .
#3800
0$
0)
#3820
1$
1)
b1011110 .
#3840
0$
0)
#3860
1$
1)
b1011111 .
#3880
0$
0)
#3900
1$
1)
b1100000 .
#3920
0$
0)
#3940
1$
1)
b1100001 .
#3960
0$
0)
#3980
1$
1)
b1100010 .
#4000
0$
0)
#4020
1$
1)
b1100011 .
#4040
0$
0)
#4060
1$
1)
b1100100 .
#4080
0$
0)
#4100
1$
1)
b1100101 .
#4120
0$
0)
#4140
1$
1)
b1100110 .
#4160
0$
0)
#4180
1$
1)
b1100111 .
#4200
0$
0)
#4220
1$
1)
b1101000 .
#4240
0$
0)
#4260
1$
1)
b1101001 .
#4280
0$
0)
#4300
1$
1)
b1101010 .
#4320
0$
0)
#4340
1$
1)
b1101011 .
#4360
0$
0)
#4380
1$
1)
b1101100 .
#4400
0$
0)
#4420
1$
1)
b0 .
b10 -
#4440
0$
0)
#4460
1$
1)
b1 .
#4480
0$
0)
#4500
1$
1)
b10 .
#4520
0$
0)
#4540
1$
1)
b11 .
#4560
0$
0)
#4580
1$
1)
b100 .
#4600
0$
0)
#4620
1$
1)
b101 .
#4640
0$
0)
#4660
1$
1)
b110 .
#4680
0$
0)
#4700
1$
1)
b111 .
#4720
0$
0)
#4740
1$
1)
b1000 .
#4760
0$
0)
#4780
1$
1)
b1001 .
#4800
0$
0)
#4820
1$
1)
b1010 .
#4840
0$
0)
#4860
1$
1)
b1011 .
#4880
0$
0)
#4900
1$
1)
b1100 .
#4920
0$
0)
#4940
1$
1)
b1101 .
#4960
0$
0)
#4980
1$
1)
b1110 .
#5000
0$
0)
#5020
1$
1)
b1111 .
#5040
0$
0)
#5060
1$
1)
b10000 .
#5080
0$
0)
#5100
1$
1)
b10001 .
#5120
0$
0)
#5140
1$
1)
b10010 .
#5160
0$
0)
#5180
1$
1)
b10011 .
#5200
0$
0)
#5220
1$
1)
b10100 .
#5240
0$
0)
#5260
1$
1)
b10101 .
#5280
0$
0)
#5300
1$
1)
b10110 .
#5320
0$
0)
#5340
1$
1)
b10111 .
#5360
0$
0)
#5380
1$
1)
b11000 .
#5400
0$
0)
#5420
1$
1)
b11001 .
#5440
0$
0)
#5460
1$
1)
b11010 .
#5480
0$
0)
#5500
1$
1)
b11011 .
#5520
0$
0)
#5540
1$
1)
b11100 .
#5560
0$
0)
#5580
1$
1)
b11101 .
#5600
0$
0)
#5620
1$
1)
b11110 .
#5640
0$
0)
#5660
1$
1)
b11111 .
#5680
0$
0)
#5700
1$
1)
b100000 .
#5720
0$
0)
#5740
1$
1)
b100001 .
#5760
0$
0)
#5780
1$
1)
b100010 .
#5800
0$
0)
#5820
1$
1)
b100011 .
#5840
0$
0)
#5860
1$
1)
b100100 .
#5880
0$
0)
#5900
1$
1)
b100101 .
#5920
0$
0)
#5940
1$
1)
b100110 .
#5960
0$
0)
#5980
1$
1)
b100111 .
#6000
0$
0)
#6020
1$
1)
b101000 .
#6040
0$
0)
#6060
1$
1)
b101001 .
#6080
0$
0)
#6100
1$
1)
b101010 .
#6120
0$
0)
#6140
1$
1)
b101011 .
#6160
0$
0)
#6180
1$
1)
b101100 .
#6200
0$
0)
#6220
1$
1)
b101101 .
#6240
0$
0)
#6260
1$
1)
b101110 .
#6280
0$
0)
#6300
1$
1)
b101111 .
#6320
0$
0)
#6340
1$
1)
b110000 .
#6360
0$
0)
#6380
1$
1)
b110001 .
#6400
0$
0)
#6420
1$
1)
b110010 .
#6440
0$
0)
#6460
1$
1)
b110011 .
#6480
0$
0)
#6500
1$
1)
b110100 .
#6520
0$
0)
#6540
1$
1)
b110101 .
#6560
0$
0)
#6580
1$
1)
b110110 .
#6600
0$
0)
#6620
1$
1)
b110111 .
#6640
0$
0)
#6660
1$
1)
b111000 .
#6680
0$
0)
#6700
1$
1)
b111001 .
#6720
0$
0)
#6740
1$
1)
b111010 .
#6760
0$
0)
#6780
1$
1)
b111011 .
#6800
0$
0)
#6820
1$
1)
b111100 .
#6840
0$
0)
#6860
1$
1)
b111101 .
#6880
0$
0)
#6900
1$
1)
b111110 .
#6920
0$
0)
#6940
1$
1)
b111111 .
#6960
0$
0)
#6980
1$
1)
b1000000 .
#7000
0$
0)
#7020
1$
1)
b1000001 .
#7040
0$
0)
#7060
1$
1)
b1000010 .
#7080
0$
0)
#7100
1$
1)
b1000011 .
#7120
0$
0)
#7140
1$
1)
b1000100 .
#7160
0$
0)
#7180
1$
1)
b1000101 .
#7200
0$
0)
#7220
1$
1)
b1000110 .
#7240
0$
0)
#7260
1$
1)
b1000111 .
#7280
0$
0)
#7300
1$
1)
b1001000 .
#7320
0$
0)
#7340
1$
1)
b1001001 .
#7360
0$
0)
#7380
1$
1)
b1001010 .
#7400
0$
0)
#7420
1$
1)
b1001011 .
#7440
0$
0)
#7460
1$
1)
b1001100 .
#7480
0$
0)
#7500
1$
1)
b1001101 .
#7520
0$
0)
#7540
1$
1)
b1001110 .
#7560
0$
0)
#7580
1$
1)
b1001111 .
#7600
0$
0)
#7620
1$
1)
b1010000 .
#7640
0$
0)
#7660
1$
1)
b1010001 .
#7680
0$
0)
#7700
1$
1)
b1010010 .
#7720
0$
0)
#7740
1$
1)
b1010011 .
#7760
0$
0)
#7780
1$
1)
b1010100 .
#7800
0$
0)
#7820
1$
1)
b1010101 .
#7840
0$
0)
#7860
1$
1)
b1010110 .
#7880
0$
0)
#7900
1$
1)
b1010111 .
#7920
0$
0)
#7940
1$
1)
b1011000 .
#7960
0$
0)
#7980
1$
1)
b1011001 .
#8000
0$
0)
#8020
1$
1)
b1011010 .
#8040
0$
0)
#8060
1$
1)
b1011011 .
#8080
0$
0)
#8100
1$
1)
b1011100 .
#8120
0$
0)
#8140
1$
1)
b1011101 .
#8160
0$
0)
#8180
1$
1)
b1011110 .
#8200
0$
0)
#8220
1$
1)
b1011111 .
#8240
0$
0)
#8260
1$
1)
b1100000 .
#8280
0$
0)
#8300
1$
1)
b1100001 .
#8320
0$
0)
#8340
1$
1)
b1100010 .
#8360
0$
0)
#8380
1$
1)
b1100011 .
#8400
0$
0)
#8420
1$
1)
b1100100 .
#8440
0$
0)
#8460
1$
1)
b1100101 .
#8480
0$
0)
#8500
1$
1)
b1100110 .
#8520
0$
0)
#8540
1$
1)
b1100111 .
#8560
0$
0)
#8580
1$
1)
b1101000 .
#8600
0$
0)
#8620
1$
1)
b1101001 .
#8640
0$
0)
#8660
1$
1)
b1101010 .
#8680
0$
0)
#8700
1$
1)
b1101011 .
#8720
0$
0)
#8740
1$
1)
b1101100 .
#8760
0$
0)
#8780
1$
1)
b1101101 .
#8800
0$
0)
#8820
1$
1)
b1101110 .
#8840
0$
0)
#8860
1$
1)
b1101111 .
#8880
0$
0)
#8900
1$
1)
b1110000 .
#8920
0$
0)
#8940
1$
1)
b1110001 .
#8960
0$
0)
#8980
1$
1)
b1110010 .
#9000
0$
0)
#9020
1$
1)
b1110011 .
#9040
0$
0)
#9060
1$
1)
b1110100 .
#9080
0$
0)
#9100
1$
1)
b1110101 .
#9120
0$
0)
#9140
1$
1)
b1110110 .
#9160
0$
0)
#9180
1$
1)
b1110111 .
#9200
0$
0)
#9220
1$
1)
b1111000 .
#9240
0$
0)
#9260
1$
1)
b1111001 .
#9280
0$
0)
#9300
1$
1)
b1111010 .
#9320
0$
0)
#9340
1$
1)
b1111011 .
#9360
0$
0)
#9380
1$
1)
b1111100 .
#9400
0$
0)
#9420
1$
1)
b1111101 .
#9440
0$
0)
#9460
1$
1)
b1111110 .
#9480
0$
0)
#9500
1$
1)
b1111111 .
#9520
0$
0)
#9540
1$
1)
b10000000 .
#9560
0$
0)
#9580
1$
1)
b10000001 .
#9600
0$
0)
#9620
1%
1$
1*
1)
b10000010 .
#9640
0$
0)
#9660
1$
1)
b10000011 .
#9680
0$
0)
#9700
1$
1)
b10000100 .
#9720
0$
0)
#9740
1$
1)
b10000101 .
#9760
0$
0)
#9780
1$
1)
b10000110 .
#9800
0$
0)
#9820
1$
1)
b10000111 .
#9840
0$
0)
#9860
1$
1)
b10001000 .
#9880
0$
0)
#9900
1$
1)
b10001001 .
#9920
0$
0)
#9940
1$
1)
b10001010 .
#9960
0$
0)
#9980
1$
1)
b10001011 .
#10000
0$
0)
#10020
1$
1)
b10001100 .
#10040
0$
0)
#10060
1$
1)
b10001101 .
#10080
0$
0)
#10100
1$
1)
b10001110 .
#10120
0$
0)
#10140
1$
1)
b10001111 .
#10160
0$
0)
#10180
1$
1)
b10010000 .
#10200
0$
0)
#10220
1$
1)
b10010001 .
#10240
0$
0)
#10260
1$
1)
b10010010 .
#10280
0$
0)
#10300
1$
1)
b10010011 .
#10320
0$
0)
#10340
1$
1)
b10010100 .
#10360
0$
0)
#10380
1$
1)
b10010101 .
#10400
0$
0)
#10420
1$
1)
b10010110 .
#10440
0$
0)
#10460
1$
1)
b10010111 .
#10480
0$
0)
#10500
1$
1)
b10011000 .
#10520
0$
0)
#10540
1$
1)
b10011001 .
#10560
0$
0)
#10580
1$
1)
b10011010 .
#10600
0$
0)
#10620
1$
1)
b10011011 .
#10640
0$
0)
#10660
1$
1)
b10011100 .
#10680
0$
0)
#10700
1$
1)
b10011101 .
#10720
0$
0)
#10740
1$
1)
b10011110 .
#10760
0$
0)
#10780
1$
1)
b10011111 .
#10800
0$
0)
#10820
1$
1)
b10100000 .
#10840
0$
0)
#10860
1$
1)
b10100001 .
#10880
0$
0)
#10900
1$
1)
b10100010 .
#10920
0$
0)
#10940
1$
1)
b10100011 .
#10960
0$
0)
#10980
1$
1)
b10100100 .
#11000
0$
0)
#11020
1$
1)
b10100101 .
#11040
0$
0)
#11060
1$
1)
b10100110 .
#11080
0$
0)
#11100
1$
1)
b10100111 .
#11120
0$
0)
#11140
1$
1)
b10101000 .
#11160
0$
0)
#11180
1$
1)
b10101001 .
#11200
0$
0)
#11220
1$
1)
b10101010 .
#11240
0$
0)
#11260
1$
1)
b10101011 .
#11280
0$
0)
#11300
1$
1)
b10101100 .
#11320
0$
0)
#11340
1$
1)
b10101101 .
#11360
0$
0)
#11380
1$
1)
b10101110 .
#11400
0$
0)
#11420
1$
1)
b10101111 .
#11440
0$
0)
#11460
1$
1)
b10110000 .
#11480
0$
0)
#11500
1$
1)
b10110001 .
#11520
0$
0)
#11540
1$
1)
b10110010 .
#11560
0$
0)
#11580
1$
1)
b10110011 .
#11600
0$
0)
#11620
1$
1)
b10110100 .
#11640
0$
0)
#11660
1$
1)
b10110101 .
#11680
0$
0)
#11700
1$
1)
b10110110 .
#11720
0$
0)
#11740
1$
1)
b10110111 .
#11760
0$
0)
#11780
1$
1)
b10111000 .
#11800
0$
0)
#11820
1$
1)
b10111001 .
#11840
0$
0)
#11860
1$
1)
b10111010 .
#11880
0$
0)
#11900
1$
1)
b10111011 .
#11920
0$
0)
#11940
1$
1)
b10111100 .
#11960
0$
0)
#11980
1$
1)
b10111101 .
#12000
0$
0)
#12020
1$
1)
b10111110 .
#12040
0$
0)
#12060
1$
1)
b10111111 .
#12080
0$
0)
#12100
1$
1)
b11000000 .
#12120
0$
0)
#12140
1$
1)
b11000001 .
#12160
0$
0)
#12180
1$
1)
b11000010 .
#12200
0$
0)
#12220
1$
1)
b11000011 .
#12240
0$
0)
#12260
1$
1)
b11000100 .
#12280
0$
0)
#12300
1$
1)
b11000101 .
#12320
0$
0)
#12340
1$
1)
b11000110 .
#12360
0$
0)
#12380
1$
1)
b11000111 .
#12400
0$
0)
#12420
1$
1)
b11001000 .
#12440
0$
0)
#12460
1$
1)
b11001001 .
#12480
0$
0)
#12500
1$
1)
b11001010 .
#12520
0$
0)
#12540
1$
1)
b11001011 .
#12560
0$
0)
#12580
1$
1)
b11001100 .
#12600
0$
0)
#12620
1$
1)
b11001101 .
#12640
0$
0)
#12660
1$
1)
b11001110 .
#12680
0$
0)
#12700
1$
1)
b11001111 .
#12720
0$
0)
#12740
1$
1)
b11010000 .
#12760
0$
0)
#12780
1$
1)
b11010001 .
#12800
0$
0)
#12820
1$
1)
b11010010 .
#12840
0$
0)
#12860
1$
1)
b11010011 .
#12880
0$
0)
#12900
1$
1)
b11010100 .
#12920
0$
0)
#12940
1$
1)
b11010101 .
#12960
0$
0)
#12980
1$
1)
b11010110 .
#13000
0$
0)
#13020
1$
1)
b11010111 .
#13040
0$
0)
#13060
1$
1)
b11011000 .
#13080
0$
0)
#13100
1$
1)
b0 .
b1 0
b1 /
b1 ,
b1 &
#13120
0$
0)
#13140
1$
1)
b1 .
#13160
0$
0)
#13180
1$
1)
b10 .
#13200
0$
0)
#13220
1$
1)
b11 .
#13240
0$
0)
#13260
1$
1)
b100 .
#13280
0$
0)
#13300
1$
1)
b101 .
#13320
0$
0)
#13340
1$
1)
b110 .
#13360
0$
0)
#13380
1$
1)
b111 .
#13400
0$
0)
#13420
1$
1)
b1000 .
#13440
0$
0)
#13460
1$
1)
b1001 .
#13480
0$
0)
#13500
1$
1)
b1010 .
#13520
0$
0)
#13540
1$
1)
b1011 .
#13560
0$
0)
#13580
1$
1)
b1100 .
#13600
0$
0)
#13620
1$
1)
b1101 .
#13640
0$
0)
#13660
1$
1)
b1110 .
#13680
0$
0)
#13700
1$
1)
b1111 .
#13720
0$
0)
#13740
1$
1)
b10000 .
#13760
0$
0)
#13780
1$
1)
b10001 .
#13800
0$
0)
#13820
1$
1)
b10010 .
#13840
0$
0)
#13860
1$
1)
b10011 .
#13880
0$
0)
#13900
1$
1)
b10100 .
#13920
0$
0)
#13940
1$
1)
b10101 .
#13960
0$
0)
#13980
1$
1)
b10110 .
#14000
0$
0)
#14020
1$
1)
b10111 .
#14040
0$
0)
#14060
1$
1)
b11000 .
#14080
0$
0)
#14100
1$
1)
b11001 .
#14120
0$
0)
#14140
1$
1)
b11010 .
#14160
0$
0)
#14180
1$
1)
b11011 .
#14200
0$
0)
#14220
1$
1)
b11100 .
#14240
0$
0)
#14260
1$
1)
b11101 .
#14280
0$
0)
#14300
1$
1)
b11110 .
#14320
0$
0)
#14340
1$
1)
b11111 .
#14360
0$
0)
#14380
1$
1)
b100000 .
#14400
0$
0)
#14420
1$
1)
b100001 .
#14440
0$
0)
#14460
1$
1)
b100010 .
#14480
0$
0)
#14500
1$
1)
b100011 .
#14520
0$
0)
#14540
1$
1)
b100100 .
#14560
0$
0)
#14580
1$
1)
b100101 .
#14600
0$
0)
#14620
1$
1)
b100110 .
#14640
0$
0)
#14660
1$
1)
b100111 .
#14680
0$
0)
#14700
1$
1)
b101000 .
#14720
0$
0)
#14740
1$
1)
b101001 .
#14760
0$
0)
#14780
1$
1)
b101010 .
#14800
0$
0)
#14820
1$
1)
b101011 .
#14840
0$
0)
#14860
1$
1)
b101100 .
#14880
0$
0)
#14900
1$
1)
b101101 .
#14920
0$
0)
#14940
1$
1)
b101110 .
#14960
0$
0)
#14980
1$
1)
b101111 .
#15000
0$
0)
#15020
1$
1)
b110000 .
#15040
0$
0)
#15060
1$
1)
b110001 .
#15080
0$
0)
#15100
1$
1)
b110010 .
#15120
0$
0)
#15140
1$
1)
b110011 .
#15160
0$
0)
#15180
1$
1)
b110100 .
#15200
0$
0)
#15220
1$
1)
b110101 .
#15240
0$
0)
#15260
1$
1)
b110110 .
#15280
0$
0)
#15300
1$
1)
b110111 .
#15320
0$
0)
#15340
1$
1)
b111000 .
#15360
0$
0)
#15380
1$
1)
b111001 .
#15400
0$
0)
#15420
1$
1)
b111010 .
#15440
0$
0)
#15460
1$
1)
b111011 .
#15480
0$
0)
#15500
1$
1)
b111100 .
#15520
0$
0)
#15540
1$
1)
b111101 .
#15560
0$
0)
#15580
1$
1)
b111110 .
#15600
0$
0)
#15620
1$
1)
b111111 .
#15640
0$
0)
#15660
1$
1)
b1000000 .
#15680
0$
0)
#15700
1$
1)
b1000001 .
#15720
0$
0)
#15740
1$
1)
b1000010 .
#15760
0$
0)
#15780
1$
1)
b1000011 .
#15800
0$
0)
#15820
1$
1)
b1000100 .
#15840
0$
0)
#15860
1$
1)
b1000101 .
#15880
0$
0)
#15900
1$
1)
b1000110 .
#15920
0$
0)
#15940
1$
1)
b1000111 .
#15960
0$
0)
#15980
1$
1)
b1001000 .
#16000
0$
0)
#16020
1$
1)
b1001001 .
#16040
0$
0)
#16060
1$
1)
b1001010 .
#16080
0$
0)
#16100
1$
1)
b1001011 .
#16120
0$
0)
#16140
1$
1)
b1001100 .
#16160
0$
0)
#16180
1$
1)
b1001101 .
#16200
0$
0)
#16220
1$
1)
b1001110 .
#16240
0$
0)
#16260
1$
1)
b1001111 .
#16280
0$
0)
#16300
1$
1)
b1010000 .
#16320
0$
0)
#16340
1$
1)
b1010001 .
#16360
0$
0)
#16380
1$
1)
b1010010 .
#16400
0$
0)
#16420
1$
1)
b1010011 .
#16440
0$
0)
#16460
1$
1)
b1010100 .
#16480
0$
0)
#16500
1$
1)
b1010101 .
#16520
0$
0)
#16540
1$
1)
b1010110 .
#16560
0$
0)
#16580
1$
1)
b1010111 .
#16600
0$
0)
#16620
1$
1)
b1011000 .
#16640
0$
0)
#16660
1$
1)
b1011001 .
#16680
0$
0)
#16700
1$
1)
b1011010 .
#16720
0$
0)
#16740
1$
1)
b1011011 .
#16760
0$
0)
#16780
1$
1)
b1011100 .
#16800
0$
0)
#16820
1$
1)
b1011101 .
#16840
0$
0)
#16860
1$
1)
b1011110 .
#16880
0$
0)
#16900
1$
1)
b1011111 .
#16920
0$
0)
#16940
1$
1)
b1100000 .
#16960
0$
0)
#16980
1$
1)
b1100001 .
#17000
0$
0)
#17020
1$
1)
b1100010 .
#17040
0$
0)
#17060
1$
1)
b1100011 .
#17080
0$
0)
#17100
1$
1)
b1100100 .
#17120
0$
0)
#17140
1$
1)
b1100101 .
#17160
0$
0)
#17180
1$
1)
b1100110 .
#17200
0$
0)
#17220
1$
1)
b1100111 .
#17240
0$
0)
#17260
1$
1)
b1101000 .
#17280
0$
0)
#17300
1$
1)
b1101001 .
#17320
0$
0)
#17340
1$
1)
b1101010 .
#17360
0$
0)
#17380
1$
1)
b1101011 .
#17400
0$
0)
#17420
1$
1)
b1101100 .
#17440
0$
0)
#17460
1$
1)
b1101101 .
#17480
0$
0)
#17500
1$
1)
b1101110 .
#17520
0$
0)
#17540
1$
1)
b1101111 .
#17560
0$
0)
#17580
1$
1)
b1110000 .
#17600
0$
0)
#17620
1$
1)
b1110001 .
#17640
0$
0)
#17660
1$
1)
b1110010 .
#17680
0$
0)
#17700
1$
1)
b1110011 .
#17720
0$
0)
#17740
1$
1)
b1110100 .
#17760
0$
0)
#17780
1$
1)
b1110101 .
#17800
0$
0)
#17820
1$
1)
b1110110 .
#17840
0$
0)
#17860
1$
1)
b1110111 .
#17880
0$
0)
#17900
1$
1)
b1111000 .
#17920
0$
0)
#17940
1$
1)
b1111001 .
#17960
0$
0)
#17980
1$
1)
b1111010 .
#18000
0$
0)
#18020
1$
1)
b1111011 .
#18040
0$
0)
#18060
1$
1)
b1111100 .
#18080
0$
0)
#18100
1$
1)
b1111101 .
#18120
0$
0)
#18140
1$
1)
b1111110 .
#18160
0$
0)
#18180
1$
1)
b1111111 .
#18200
0$
0)
#18220
1$
1)
b10000000 .
#18240
0$
0)
#18260
1$
1)
b10000001 .
#18280
0$
0)
#18300
1$
1)
b10000010 .
#18320
0$
0)
#18340
1$
1)
b10000011 .
#18360
0$
0)
#18380
1$
1)
b10000100 .
#18400
0$
0)
#18420
1$
1)
b10000101 .
#18440
0$
0)
#18460
1$
1)
b10000110 .
#18480
0$
0)
#18500
1$
1)
b10000111 .
#18520
0$
0)
#18540
1$
1)
b10001000 .
#18560
0$
0)
#18580
1$
1)
b10001001 .
#18600
0$
0)
#18620
1$
1)
b10001010 .
#18640
0$
0)
#18660
1$
1)
b10001011 .
#18680
0$
0)
#18700
1$
1)
b10001100 .
#18720
0$
0)
#18740
1$
1)
b10001101 .
#18760
0$
0)
#18780
1$
1)
b10001110 .
#18800
0$
0)
#18820
1$
1)
b10001111 .
#18840
0$
0)
#18860
1$
1)
b10010000 .
#18880
0$
0)
#18900
1$
1)
b10010001 .
#18920
0$
0)
#18940
1$
1)
b10010010 .
#18960
0$
0)
#18980
1$
1)
b10010011 .
#19000
0$
0)
#19020
1$
1)
b10010100 .
#19040
0$
0)
#19060
1$
1)
b10010101 .
#19080
0$
0)
#19100
1$
1)
b10010110 .
#19120
0$
0)
#19140
1$
1)
b10010111 .
#19160
0$
0)
#19180
1$
1)
b10011000 .
#19200
0$
0)
#19220
1$
1)
b10011001 .
#19240
0$
0)
#19260
1$
1)
b10011010 .
#19280
0$
0)
#19300
1$
1)
b10011011 .
#19320
0$
0)
#19340
1$
1)
b10011100 .
#19360
0$
0)
#19380
1$
1)
b10011101 .
#19400
0$
0)
#19420
1$
1)
b10011110 .
#19440
0$
0)
#19460
1$
1)
b10011111 .
#19480
0$
0)
#19500
1$
1)
b10100000 .
#19520
0$
0)
#19540
1$
1)
b10100001 .
#19560
0$
0)
#19580
1$
1)
b10100010 .
#19600
0$
0)
#19620
1$
1)
b10100011 .
#19640
0$
0)
#19660
1$
1)
b10100100 .
#19680
0$
0)
#19700
1$
1)
b10100101 .
#19720
0$
0)
#19740
1$
1)
b10100110 .
#19760
0$
0)
#19780
1$
1)
b10100111 .
#19800
0$
0)
#19820
1$
1)
b10101000 .
#19840
0$
0)
#19860
1$
1)
b10101001 .
#19880
0$
0)
#19900
1$
1)
b10101010 .
#19920
0$
0)
#19940
1$
1)
b10101011 .
#19960
0$
0)
#19980
1$
1)
b10101100 .
#20000
0$
0)
#20020
1$
1)
b10101101 .
#20040
0$
0)
#20060
1$
1)
b10101110 .
#20080
0$
0)
#20100
1$
1)
b10101111 .
#20120
0$
0)
#20140
1$
1)
b10110000 .
#20160
0$
0)
#20180
1$
1)
b10110001 .
#20200
0$
0)
#20220
1$
1)
b10110010 .
#20240
0$
0)
#20260
1$
1)
b10110011 .
#20280
0$
0)
#20300
1$
1)
b10110100 .
#20320
0$
0)
#20340
1$
1)
b10110101 .
#20360
0$
0)
#20380
1$
1)
b10110110 .
#20400
0$
0)
#20420
1$
1)
b10110111 .
#20440
0$
0)
#20460
1$
1)
b10111000 .
#20480
0$
0)
#20500
1$
1)
b10111001 .
#20520
0$
0)
#20540
1$
1)
b10111010 .
#20560
0$
0)
#20580
1$
1)
b10111011 .
#20600
0$
0)
#20620
1$
1)
b10111100 .
#20640
0$
0)
#20660
1$
1)
b10111101 .
#20680
0$
0)
#20700
1$
1)
b10111110 .
#20720
0$
0)
#20740
1$
1)
b10111111 .
#20760
0$
0)
#20780
1$
1)
b11000000 .
#20800
0$
0)
#20820
1$
1)
b11000001 .
#20840
0$
0)
#20860
1$
1)
b11000010 .
#20880
0$
0)
#20900
1$
1)
b11000011 .
#20920
0$
0)
#20940
1$
1)
b11000100 .
#20960
0$
0)
#20980
1$
1)
b11000101 .
#21000
0$
0)
#21020
1$
1)
b11000110 .
#21040
0$
0)
#21060
1$
1)
b11000111 .
#21080
0$
0)
#21100
1$
1)
b11001000 .
#21120
0$
0)
#21140
1$
1)
b11001001 .
#21160
0$
0)
#21180
1$
1)
b11001010 .
#21200
0$
0)
#21220
1$
1)
b11001011 .
#21240
0$
0)
#21260
1$
1)
b11001100 .
#21280
0$
0)
#21300
1$
1)
b11001101 .
#21320
0$
0)
#21340
1$
1)
b11001110 .
#21360
0$
0)
#21380
1$
1)
b11001111 .
#21400
0$
0)
#21420
1$
1)
b11010000 .
#21440
0$
0)
#21460
1$
1)
b11010001 .
#21480
0$
0)
#21500
1$
1)
b11010010 .
#21520
0$
0)
#21540
1$
1)
b11010011 .
#21560
0$
0)
#21580
1$
1)
b11010100 .
#21600
0$
0)
#21620
1$
1)
b11010101 .
#21640
0$
0)
