SPI/SPI_modelsim_proj/dump.vcd
$date
	Mon Feb 17 10:03:06 2025
$end
$version
	ModelSim Version 2020.1
$end
$timescale
	1ps
$end

$scope module SPI_Master_TB $end
$var parameter 32 ! SPI_MODE $end
$var parameter 32 " CLKS_PER_HALF_BIT $end
$var parameter 32 # MAIN_CLK_DELAY $end
$var reg 1 $ r_Rst_L $end
$var reg 1 % w_SPI_Clk $end
$var reg 1 & r_Clk $end
$var reg 1 ' w_SPI_MOSI $end
$var reg 8 ( r_Master_TX_Byte [7:0] $end
$var reg 1 ) r_Master_TX_DV $end
$var reg 1 * w_Master_TX_Ready $end
$var reg 1 + r_Master_RX_DV $end
$var reg 8 , r_Master_RX_Byte [7:0] $end

$scope task SendSingleByte $end
$var reg 8 - data [7:0] $end
$upscope $end

$scope module SPI_Master_UUT $end
$var parameter 32 . SPI_MODE $end
$var parameter 32 / CLKS_PER_HALF_BIT $end
$var wire 1 0 i_Rst_L $end
$var wire 1 1 i_Clk $end
$var wire 1 2 i_TX_Byte [7] $end
$var wire 1 3 i_TX_Byte [6] $end
$var wire 1 4 i_TX_Byte [5] $end
$var wire 1 5 i_TX_Byte [4] $end
$var wire 1 6 i_TX_Byte [3] $end
$var wire 1 7 i_TX_Byte [2] $end
$var wire 1 8 i_TX_Byte [1] $end
$var wire 1 9 i_TX_Byte [0] $end
$var wire 1 : i_TX_DV $end
$var reg 1 ; o_TX_Ready $end
$var reg 1 < o_RX_DV $end
$var reg 8 = o_RX_Byte [7:0] $end
$var reg 1 > o_SPI_Clk $end
$var wire 1 ? i_SPI_MISO $end
$var reg 1 @ o_SPI_MOSI $end
$var wire 1 A w_CPOL $end
$var wire 1 B w_CPHA $end
$var reg 3 C r_SPI_Clk_Count [2:0] $end
$var reg 1 D r_SPI_Clk $end
$var reg 5 E r_SPI_Clk_Edges [4:0] $end
$var reg 1 F r_Leading_Edge $end
$var reg 1 G r_Trailing_Edge $end
$var reg 1 H r_TX_DV $end
$var reg 8 I r_TX_Byte [7:0] $end
$var reg 3 J r_RX_Bit_Count [2:0] $end
$var reg 3 K r_TX_Bit_Count [2:0] $end
$upscope $end
$upscope $end

$scope begin std $end
$upscope $end
$enddefinitions $end
#0
$dumpvars
0$
1%
0&
0'
b0 (
0)
0*
0+
b0 ,
0;
0<
b0 =
1>
0@
b0 C
1D
b0 E
0F
0G
0H
b0 I
b111 J
b111 K
bx -
b11 !
b100 "
b10 #
b11 .
b100 /
1A
1B
00
01
09
08
07
06
05
04
03
02
0:
0?
$end
#2
1&
11
#4
0&
01
#6
1&
11
#8
0&
01
#10
1&
11
#12
0&
01
#14
1&
11
#16
0&
01
#18
1&
11
#20
0&
01
#22
1&
11
#24
0&
01
#26
1&
11
#28
0&
01
#30
1&
11
#32
0&
01
#34
1&
11
#36
0&
01
#38
1&
11
#40
0&
01
#42
1&
11
#44
0&
01
#46
1&
11
#48
0&
01
#50
1&
11
#52
0&
01
#54
1&
11
#56
0&
01
#58
1&
11
#60
0&
01
#62
1&
11
#64
0&
01
#66
1&
11
#68
0&
01
#70
1&
11
#72
0&
01
#74
1&
11
#76
0&
01
#78
1&
11
1$
b11000001 -
10
#80
0&
01
#82
1&
11
1;
b11000001 (
1)
1*
19
13
12
1:
#84
0&
01
#86
1&
11
0;
b10000 E
1H
b11000001 I
0)
0*
0:
#88
0&
01
#90
1&
11
b1 C
0H
#92
0&
01
#94
1&
11
b10 C
#96
0&
01
#98
1&
11
b11 C
#100
0&
01
#102
1&
11
b1111 E
1F
b100 C
0D
#104
0&
01
#106
1&
11
0F
b101 C
b110 K
1@
0>
0%
1'
1?
#108
0&
01
#110
1&
11
b110 C
#112
0&
01
#114
1&
11
b111 C
#116
0&
01
#118
1&
11
b1110 E
1G
b0 C
1D
#120
0&
01
#122
1&
11
0G
b1 C
b10000000 =
b110 J
1>
1%
b10000000 ,
#124
0&
01
#126
1&
11
b10 C
#128
0&
01
#130
1&
11
b11 C
#132
0&
01
#134
1&
11
b1101 E
1F
b100 C
0D
#136
0&
01
#138
1&
11
0F
b101 C
b101 K
0>
0%
#140
0&
01
#142
1&
11
b110 C
#144
0&
01
#146
1&
11
b111 C
#148
0&
01
#150
1&
11
b1100 E
1G
b0 C
1D
#152
0&
01
#154
1&
11
0G
b1 C
b11000000 =
b101 J
1>
1%
b11000000 ,
#156
0&
01
#158
1&
11
b10 C
#160
0&
01
#162
1&
11
b11 C
#164
0&
01
#166
1&
11
b1011 E
1F
b100 C
0D
#168
0&
01
#170
1&
11
0F
b101 C
b100 K
0@
0>
0%
0'
0?
#172
0&
01
#174
1&
11
b110 C
#176
0&
01
#178
1&
11
b111 C
#180
0&
01
#182
1&
11
b1010 E
1G
b0 C
1D
#184
0&
01
#186
1&
11
0G
b1 C
b100 J
1>
1%
#188
0&
01
#190
1&
11
b10 C
#192
0&
01
#194
1&
11
b11 C
#196
0&
01
#198
1&
11
b1001 E
1F
b100 C
0D
#200
0&
01
#202
1&
11
0F
b101 C
b11 K
0>
0%
#204
0&
01
#206
1&
11
b110 C
#208
0&
01
#210
1&
11
b111 C
#212
0&
01
#214
1&
11
b1000 E
1G
b0 C
1D
#216
0&
01
#218
1&
11
0G
b1 C
b11 J
1>
1%
#220
0&
01
#222
1&
11
b10 C
#224
0&
01
#226
1&
11
b11 C
#228
0&
01
#230
1&
11
b111 E
1F
b100 C
0D
#232
0&
01
#234
1&
11
0F
b101 C
b10 K
0>
0%
#236
0&
01
#238
1&
11
b110 C
#240
0&
01
#242
1&
11
b111 C
#244
0&
01
#246
1&
11
b110 E
1G
b0 C
1D
#248
0&
01
#250
1&
11
0G
b1 C
b10 J
1>
1%
#252
0&
01
#254
1&
11
b10 C
#256
0&
01
#258
1&
11
b11 C
#260
0&
01
#262
1&
11
b101 E
1F
b100 C
0D
#264
0&
01
#266
1&
11
0F
b101 C
b1 K
0>
0%
#268
0&
01
#270
1&
11
b110 C
#272
0&
01
#274
1&
11
b111 C
#276
0&
01
#278
1&
11
b100 E
1G
b0 C
1D
#280
0&
01
#282
1&
11
0G
b1 C
b1 J
1>
1%
#284
0&
01
#286
1&
11
b10 C
#288
0&
01
#290
1&
11
b11 C
#292
0&
01
#294
1&
11
b11 E
1F
b100 C
0D
#296
0&
01
#298
1&
11
0F
b101 C
b0 K
0>
0%
#300
0&
01
#302
1&
11
b110 C
#304
0&
01
#306
1&
11
b111 C
#308
0&
01
#310
1&
11
b10 E
1G
b0 C
1D
#312
0&
01
#314
1&
11
0G
b1 C
b0 J
1>
1%
#316
0&
01
#318
1&
11
b10 C
#320
0&
01
#322
1&
11
b11 C
#324
0&
01
#326
1&
11
b1 E
1F
b100 C
0D
#328
0&
01
#330
1&
11
0F
b101 C
b111 K
1@
0>
0%
1'
1?
#332
0&
01
#334
1&
11
b110 C
#336
0&
01
#338
1&
11
b111 C
#340
0&
01
#342
1&
11
b0 E
1G
b0 C
1D
#344
0&
01
#346
1&
11
0G
1;
b11000001 =
b111 J
1<
1>
1%
1+
b11000001 ,
1*
b10111110 -
#348
0&
01
#350
1&
11
0<
b10111110 (
1)
0+
09
18
17
16
15
14
03
1:
#352
0&
01
#354
1&
11
0;
b10000 E
1H
b10111110 I
0)
0*
0:
#356
0&
01
#358
1&
11
b1 C
0H
#360
0&
01
#362
1&
11
b10 C
#364
0&
01
#366
1&
11
b11 C
#368
0&
01
#370
1&
11
b1111 E
1F
b100 C
0D
#372
0&
01
#374
1&
11
0F
b101 C
b110 K
0>
0%
#376
0&
01
#378
1&
11
b110 C
#380
0&
01
#382
1&
11
b111 C
#384
0&
01
#386
1&
11
b1110 E
1G
b0 C
1D
#388
0&
01
#390
1&
11
0G
b1 C
b110 J
1>
1%
#392
0&
01
#394
1&
11
b10 C
#396
0&
01
#398
1&
11
b11 C
#400
0&
01
#402
1&
11
b1101 E
1F
b100 C
0D
#404
0&
01
#406
1&
11
0F
b101 C
b101 K
0@
0>
0%
0'
0?
#408
0&
01
#410
1&
11
b110 C
#412
0&
01
#414
1&
11
b111 C
#416
0&
01
#418
1&
11
b1100 E
1G
b0 C
1D
#420
0&
01
#422
1&
11
0G
b1 C
b10000001 =
b101 J
1>
1%
b10000001 ,
#424
0&
01
#426
1&
11
b10 C
#428
0&
01
#430
1&
11
b11 C
#432
0&
01
#434
1&
11
b1011 E
1F
b100 C
0D
#436
0&
01
#438
1&
11
0F
b101 C
b100 K
1@
0>
0%
1'
1?
#440
0&
01
#442
1&
11
b110 C
#444
0&
01
#446
1&
11
b111 C
#448
0&
01
#450
1&
11
b1010 E
1G
b0 C
1D
#452
0&
01
#454
1&
11
0G
b1 C
b10100001 =
b100 J
1>
1%
b10100001 ,
#456
0&
01
#458
1&
11
b10 C
#460
0&
01
#462
1&
11
b11 C
#464
0&
01
#466
1&
11
b1001 E
1F
b100 C
0D
#468
0&
01
#470
1&
11
0F
b101 C
b11 K
0>
0%
#472
0&
01
#474
1&
11
b110 C
#476
0&
01
#478
1&
11
b111 C
#480
0&
01
#482
1&
11
b1000 E
1G
b0 C
1D
#484
0&
01
#486
1&
11
0G
b1 C
b10110001 =
b11 J
1>
1%
b10110001 ,
#488
0&
01
#490
1&
11
b10 C
#492
0&
01
#494
1&
11
b11 C
#496
0&
01
#498
1&
11
b111 E
1F
b100 C
0D
#500
0&
01
#502
1&
11
0F
b101 C
b10 K
0>
0%
#504
0&
01
#506
1&
11
b110 C
#508
0&
01
#510
1&
11
b111 C
#512
0&
01
#514
1&
11
b110 E
1G
b0 C
1D
#516
0&
01
#518
1&
11
0G
b1 C
b10111001 =
b10 J
1>
1%
b10111001 ,
#520
0&
01
#522
1&
11
b10 C
#524
0&
01
#526
1&
11
b11 C
#528
0&
01
#530
1&
11
b101 E
1F
b100 C
0D
#532
0&
01
#534
1&
11
0F
b101 C
b1 K
0>
0%
#536
0&
01
#538
1&
11
b110 C
#540
0&
01
#542
1&
11
b111 C
#544
0&
01
#546
1&
11
b100 E
1G
b0 C
1D
#548
0&
01
#550
1&
11
0G
b1 C
b10111101 =
b1 J
1>
1%
b10111101 ,
#552
0&
01
#554
1&
11
b10 C
#556
0&
01
#558
1&
11
b11 C
#560
0&
01
#562
1&
11
b11 E
1F
b100 C
0D
#564
0&
01
#566
1&
11
0F
b101 C
b0 K
0>
0%
#568
0&
01
#570
1&
11
b110 C
#572
0&
01
#574
1&
11
b111 C
#576
0&
01
#578
1&
11
b10 E
1G
b0 C
1D
#580
0&
01
#582
1&
11
0G
b1 C
b10111111 =
b0 J
1>
1%
b10111111 ,
#584
0&
01
#586
1&
11
b10 C
#588
0&
01
#590
1&
11
b11 C
#592
0&
01
#594
1&
11
b1 E
1F
b100 C
0D
#596
0&
01
#598
1&
11
0F
b101 C
b111 K
0@
0>
0%
0'
0?
#600
0&
01
#602
1&
11
b110 C
#604
0&
01
#606
1&
11
b111 C
#608
0&
01
#610
1&
11
b0 E
1G
b0 C
1D
#612
0&
01
#614
1&
11
0G
1;
b10111110 =
b111 J
1<
1>
1%
1+
b10111110 ,
1*
b11101111 -
#616
0&
01
#618
1&
11
0<
b11101111 (
1)
0+
19
05
13
1:
#620
0&
01
#622
1&
11
0;
b10000 E
1H
b11101111 I
0)
0*
0:
#624
0&
01
#626
1&
11
b1 C
0H
#628
0&
01
#630
1&
11
b10 C
#632
0&
01
#634
1&
11
b11 C
#636
0&
01
#638
1&
11
b1111 E
1F
b100 C
0D
#640
0&
01
#642
1&
11
0F
b101 C
b110 K
1@
0>
0%
1'
1?
#644
0&
01
#646
1&
11
b110 C
#648
0&
01
#650
1&
11
b111 C
#652
0&
01
#654
1&
11
b1110 E
1G
b0 C
1D
#656
0&
01
#658
1&
11
0G
b1 C
b110 J
1>
1%
#660
0&
01
#662
1&
11
b10 C
#664
0&
01
#666
1&
11
b11 C
#668
0&
01
#670
1&
11
b1101 E
1F
b100 C
0D
#672
0&
01
#674
1&
11
0F
b101 C
b101 K
0>
0%
#676
0&
01
#678
1&
11
b110 C
#680
0&
01
#682
1&
11
b111 C
#684
0&
01
#686
1&
11
b1100 E
1G
b0 C
1D
#688
0&
01
#690
1&
11
0G
b1 C
b11111110 =
b101 J
1>
1%
b11111110 ,
#692
0&
01
#694
1&
11
b10 C
#696
0&
01
#698
1&
11
b11 C
#700
0&
01
#702
1&
11
b1011 E
1F
b100 C
0D
#704
0&
01
#706
1&
11
0F
b101 C
b100 K
0>
0%
#708
0&
01
#710
1&
11
b110 C
#712
0&
01
#714
1&
11
b111 C
#716
0&
01
#718
1&
11
b1010 E
1G
b0 C
1D
#720
0&
01
#722
1&
11
0G
b1 C
b100 J
1>
1%
#724
0&
01
#726
1&
11
b10 C
#728
0&
01
#730
1&
11
b11 C
#732
0&
01
#734
1&
11
b1001 E
1F
b100 C
0D
#736
0&
01
#738
1&
11
0F
b101 C
b11 K
0@
0>
0%
0'
0?
#740
0&
01
#742
1&
11
b110 C
#744
0&
01
#746
1&
11
b111 C
#748
0&
01
#750
1&
11
b1000 E
1G
b0 C
1D
#752
0&
01
#754
1&
11
0G
b1 C
b11101110 =
b11 J
1>
1%
b11101110 ,
#756
0&
01
#758
1&
11
b10 C
#760
0&
01
#762
1&
11
b11 C
#764
0&
01
#766
1&
11
b111 E
1F
b100 C
0D
#768
0&
01
#770
1&
11
0F
b101 C
b10 K
1@
0>
0%
1'
1?
#772
0&
01
#774
1&
11
b110 C
#776
0&
01
#778
1&
11
b111 C
#780
0&
01
#782
1&
11
b110 E
1G
b0 C
1D
#784
0&
01
#786
1&
11
0G
b1 C
b10 J
1>
1%
#788
0&
01
#790
1&
11
b10 C
#792
0&
01
#794
1&
11
b11 C
#796
0&
01
#798
1&
11
b101 E
1F
b100 C
0D
#800
0&
01
#802
1&
11
0F
b101 C
b1 K
0>
0%
#804
0&
01
#806
1&
11
b110 C
#808
0&
01
#810
1&
11
b111 C
#812
0&
01
#814
1&
11
b100 E
1G
b0 C
1D
#816
0&
01
#818
1&
11
0G
b1 C
b1 J
1>
1%
#820
0&
01
#822
1&
11
b10 C
#824
0&
01
#826
1&
11
b11 C
#828
0&
01
#830
1&
11
b11 E
1F
b100 C
0D
#832
0&
01
#834
1&
11
0F
b101 C
b0 K
0>
0%
#836
0&
01
#838
1&
11
b110 C
#840
0&
01
#842
1&
11
b111 C
#844
0&
01
#846
1&
11
b10 E
1G
b0 C
1D
#848
0&
01
#850
1&
11
0G
b1 C
b0 J
1>
1%
#852
0&
01
#854
1&
11
b10 C
#856
0&
01
#858
1&
11
b11 C
#860
0&
01
#862
1&
11
b1 E
1F
b100 C
0D
#864
0&
01
#866
1&
11
0F
b101 C
b111 K
0>
0%
#868
0&
01
#870
1&
11
b110 C
#872
0&
01
#874
1&
11
b111 C
#876
0&
01
#878
1&
11
b0 E
1G
b0 C
1D
#880
0&
01
#882
1&
11
0G
1;
b11101111 =
b111 J
1<
1>
1%
1+
b11101111 ,
1*
#884
0&
01
#886
1&
11
0<
0+
