UART/UART_modelsim_proj/dump.vcd
$date
	Wed Mar 05 19:09:59 2025
$end
$version
	ModelSim Version 2020.1
$end
$timescale
	10ps
$end

$scope module UART_Rx_tb $end
$var parameter 32 ! c_FPGA_clk_freq $end
$var parameter 32 " c_baudrate $end
$var parameter 32 # c_CLOCK_PERIOD_NS $end
$var parameter 32 $ c_BIT_PERIOD $end
$var reg 1 % Clock_r $end
$var reg 1 & RX_Serial_r $end
$var reg 1 ' RX_DV $end
$var reg 8 ( RX_Byte [7:0] $end

$scope task UART_WRITE_BYTE $end
$var reg 8 ) i_Data [7:0] $end
$upscope $end

$scope module UART_RX_INST_l $end
$var parameter 32 * FPGA_clk_freq $end
$var parameter 32 + baudrate $end
$var parameter 32 , CLKS_PER_BIT $end
$var wire 1 - clk $end
$var wire 1 . rst $end
$var wire 1 / i_RX_Serial $end
$var reg 1 0 o_RX_DV $end
$var reg 8 1 o_RX_Byte [7:0] $end
$var reg 3 2 state_r [2:0] $end
$var reg 10 3 Clock_Count_r [9:0] $end
$var reg 3 4 Bit_Index_r [2:0] $end
$var reg 8 5 RX_Byte_r [7:0] $end
$var reg 1 6 RX_DV_r $end
$upscope $end
$upscope $end
$enddefinitions $end
#0
$dumpvars
0%
1&
0'
b0 (
bx )
00
b0 1
b0 2
b0 3
b0 4
b0 5
06
b10111110101111000010000000 !
b11100001000000000 "
b10100 #
b10000111101000 $
b10111110101111000010000000 *
b11100001000000000 +
b110110010 ,
0-
1/
z.
$end
#1000
1%
1-
b110111 )
0&
0/
#2000
0%
0-
#3000
1%
1-
b1 2
#4000
0%
0-
#5000
1%
1-
b1 3
#6000
0%
0-
#7000
1%
1-
b10 3
#8000
0%
0-
#9000
1%
1-
b11 3
#10000
0%
0-
#11000
1%
1-
b100 3
#12000
0%
0-
#13000
1%
1-
b101 3
#14000
0%
0-
#15000
1%
1-
b110 3
#16000
0%
0-
#17000
1%
1-
b111 3
#18000
0%
0-
#19000
1%
1-
b1000 3
#20000
0%
0-
#21000
1%
1-
b1001 3
#22000
0%
0-
#23000
1%
1-
b1010 3
#24000
0%
0-
#25000
1%
1-
b1011 3
#26000
0%
0-
#27000
1%
1-
b1100 3
#28000
0%
0-
#29000
1%
1-
b1101 3
#30000
0%
0-
#31000
1%
1-
b1110 3
#32000
0%
0-
#33000
1%
1-
b1111 3
#34000
0%
0-
#35000
1%
1-
b10000 3
#36000
0%
0-
#37000
1%
1-
b10001 3
#38000
0%
0-
#39000
1%
1-
b10010 3
#40000
0%
0-
#41000
1%
1-
b10011 3
#42000
0%
0-
#43000
1%
1-
b10100 3
#44000
0%
0-
#45000
1%
1-
b10101 3
#46000
0%
0-
#47000
1%
1-
b10110 3
#48000
0%
0-
#49000
1%
1-
b10111 3
#50000
0%
0-
#51000
1%
1-
b11000 3
#52000
0%
0-
#53000
1%
1-
b11001 3
#54000
0%
0-
#55000
1%
1-
b11010 3
#56000
0%
0-
#57000
1%
1-
b11011 3
#58000
0%
0-
#59000
1%
1-
b11100 3
#60000
0%
0-
#61000
1%
1-
b11101 3
#62000
0%
0-
#63000
1%
1-
b11110 3
#64000
0%
0-
#65000
1%
1-
b11111 3
#66000
0%
0-
#67000
1%
1-
b100000 3
#68000
0%
0-
#69000
1%
1-
b100001 3
#70000
0%
0-
#71000
1%
1-
b100010 3
#72000
0%
0-
#73000
1%
1-
b100011 3
#74000
0%
0-
#75000
1%
1-
b100100 3
#76000
0%
0-
#77000
1%
1-
b100101 3
#78000
0%
0-
#79000
1%
1-
b100110 3
#80000
0%
0-
#81000
1%
1-
b100111 3
#82000
0%
0-
#83000
1%
1-
b101000 3
#84000
0%
0-
#85000
1%
1-
b101001 3
#86000
0%
0-
#87000
1%
1-
b101010 3
#88000
0%
0-
#89000
1%
1-
b101011 3
#90000
0%
0-
#91000
1%
1-
b101100 3
#92000
0%
0-
#93000
1%
1-
b101101 3
#94000
0%
0-
#95000
1%
1-
b101110 3
#96000
0%
0-
#97000
1%
1-
b101111 3
#98000
0%
0-
#99000
1%
1-
b110000 3
#100000
0%
0-
#101000
1%
1-
b110001 3
#102000
0%
0-
#103000
1%
1-
b110010 3
#104000
0%
0-
#105000
1%
1-
b110011 3
#106000
0%
0-
#107000
1%
1-
b110100 3
#108000
0%
0-
#109000
1%
1-
b110101 3
#110000
0%
0-
#111000
1%
1-
b110110 3
#112000
0%
0-
#113000
1%
1-
b110111 3
#114000
0%
0-
#115000
1%
1-
b111000 3
#116000
0%
0-
#117000
1%
1-
b111001 3
#118000
0%
0-
#119000
1%
1-
b111010 3
#120000
0%
0-
#121000
1%
1-
b111011 3
#122000
0%
0-
#123000
1%
1-
b111100 3
#124000
0%
0-
#125000
1%
1-
b111101 3
#126000
0%
0-
#127000
1%
1-
b111110 3
#128000
0%
0-
#129000
1%
1-
b111111 3
#130000
0%
0-
#131000
1%
1-
b1000000 3
#132000
0%
0-
#133000
1%
1-
b1000001 3
#134000
0%
0-
#135000
1%
1-
b1000010 3
#136000
0%
0-
#137000
1%
1-
b1000011 3
#138000
0%
0-
#139000
1%
1-
b1000100 3
#140000
0%
0-
#141000
1%
1-
b1000101 3
#142000
0%
0-
#143000
1%
1-
b1000110 3
#144000
0%
0-
#145000
1%
1-
b1000111 3
#146000
0%
0-
#147000
1%
1-
b1001000 3
#148000
0%
0-
#149000
1%
1-
b1001001 3
#150000
0%
0-
#151000
1%
1-
b1001010 3
#152000
0%
0-
#153000
1%
1-
b1001011 3
#154000
0%
0-
#155000
1%
1-
b1001100 3
#156000
0%
0-
#157000
1%
1-
b1001101 3
#158000
0%
0-
#159000
1%
1-
b1001110 3
#160000
0%
0-
#161000
1%
1-
b1001111 3
#162000
0%
0-
#163000
1%
1-
b1010000 3
#164000
0%
0-
#165000
1%
1-
b1010001 3
#166000
0%
0-
#167000
1%
1-
b1010010 3
#168000
0%
0-
#169000
1%
1-
b1010011 3
#170000
0%
0-
#171000
1%
1-
b1010100 3
#172000
0%
0-
#173000
1%
1-
b1010101 3
#174000
0%
0-
#175000
1%
1-
b1010110 3
#176000
0%
0-
#177000
1%
1-
b1010111 3
#178000
0%
0-
#179000
1%
1-
b1011000 3
#180000
0%
0-
#181000
1%
1-
b1011001 3
#182000
0%
0-
#183000
1%
1-
b1011010 3
#184000
0%
0-
#185000
1%
1-
b1011011 3
#186000
0%
0-
#187000
1%
1-
b1011100 3
#188000
0%
0-
#189000
1%
1-
b1011101 3
#190000
0%
0-
#191000
1%
1-
b1011110 3
#192000
0%
0-
#193000
1%
1-
b1011111 3
#194000
0%
0-
#195000
1%
1-
b1100000 3
#196000
0%
0-
#197000
1%
1-
b1100001 3
#198000
0%
0-
#199000
1%
1-
b1100010 3
#200000
0%
0-
#201000
1%
1-
b1100011 3
#202000
0%
0-
#203000
1%
1-
b1100100 3
#204000
0%
0-
#205000
1%
1-
b1100101 3
#206000
0%
0-
#207000
1%
1-
b1100110 3
#208000
0%
0-
#209000
1%
1-
b1100111 3
#210000
0%
0-
#211000
1%
1-
b1101000 3
#212000
0%
0-
#213000
1%
1-
b1101001 3
#214000
0%
0-
#215000
1%
1-
b1101010 3
#216000
0%
0-
#217000
1%
1-
b1101011 3
#218000
0%
0-
#219000
1%
1-
b1101100 3
#220000
0%
0-
#221000
1%
1-
b1101101 3
#222000
0%
0-
#223000
1%
1-
b1101110 3
#224000
0%
0-
#225000
1%
1-
b1101111 3
#226000
0%
0-
#227000
1%
1-
b1110000 3
#228000
0%
0-
#229000
1%
1-
b1110001 3
#230000
0%
0-
#231000
1%
1-
b1110010 3
#232000
0%
0-
#233000
1%
1-
b1110011 3
#234000
0%
0-
#235000
1%
1-
b1110100 3
#236000
0%
0-
#237000
1%
1-
b1110101 3
#238000
0%
0-
#239000
1%
1-
b1110110 3
#240000
0%
0-
#241000
1%
1-
b1110111 3
#242000
0%
0-
#243000
1%
1-
b1111000 3
#244000
0%
0-
#245000
1%
1-
b1111001 3
#246000
0%
0-
#247000
1%
1-
b1111010 3
#248000
0%
0-
#249000
1%
1-
b1111011 3
#250000
0%
0-
#251000
1%
1-
b1111100 3
#252000
0%
0-
#253000
1%
1-
b1111101 3
#254000
0%
0-
#255000
1%
1-
b1111110 3
#256000
0%
0-
#257000
1%
1-
b1111111 3
#258000
0%
0-
#259000
1%
1-
b10000000 3
#260000
0%
0-
#261000
1%
1-
b10000001 3
#262000
0%
0-
#263000
1%
1-
b10000010 3
#264000
0%
0-
#265000
1%
1-
b10000011 3
#266000
0%
0-
#267000
1%
1-
b10000100 3
#268000
0%
0-
#269000
1%
1-
b10000101 3
#270000
0%
0-
#271000
1%
1-
b10000110 3
#272000
0%
0-
#273000
1%
1-
b10000111 3
#274000
0%
0-
#275000
1%
1-
b10001000 3
#276000
0%
0-
#277000
1%
1-
b10001001 3
#278000
0%
0-
#279000
1%
1-
b10001010 3
#280000
0%
0-
#281000
1%
1-
b10001011 3
#282000
0%
0-
#283000
1%
1-
b10001100 3
#284000
0%
0-
#285000
1%
1-
b10001101 3
#286000
0%
0-
#287000
1%
1-
b10001110 3
#288000
0%
0-
#289000
1%
1-
b10001111 3
#290000
0%
0-
#291000
1%
1-
b10010000 3
#292000
0%
0-
#293000
1%
1-
b10010001 3
#294000
0%
0-
#295000
1%
1-
b10010010 3
#296000
0%
0-
#297000
1%
1-
b10010011 3
#298000
0%
0-
#299000
1%
1-
b10010100 3
#300000
0%
0-
#301000
1%
1-
b10010101 3
#302000
0%
0-
#303000
1%
1-
b10010110 3
#304000
0%
0-
#305000
1%
1-
b10010111 3
#306000
0%
0-
#307000
1%
1-
b10011000 3
#308000
0%
0-
#309000
1%
1-
b10011001 3
#310000
0%
0-
#311000
1%
1-
b10011010 3
#312000
0%
0-
#313000
1%
1-
b10011011 3
#314000
0%
0-
#315000
1%
1-
b10011100 3
#316000
0%
0-
#317000
1%
1-
b10011101 3
#318000
0%
0-
#319000
1%
1-
b10011110 3
#320000
0%
0-
#321000
1%
1-
b10011111 3
#322000
0%
0-
#323000
1%
1-
b10100000 3
#324000
0%
0-
#325000
1%
1-
b10100001 3
#326000
0%
0-
#327000
1%
1-
b10100010 3
#328000
0%
0-
#329000
1%
1-
b10100011 3
#330000
0%
0-
#331000
1%
1-
b10100100 3
#332000
0%
0-
#333000
1%
1-
b10100101 3
#334000
0%
0-
#335000
1%
1-
b10100110 3
#336000
0%
0-
#337000
1%
1-
b10100111 3
#338000
0%
0-
#339000
1%
1-
b10101000 3
#340000
0%
0-
#341000
1%
1-
b10101001 3
#342000
0%
0-
#343000
1%
1-
b10101010 3
#344000
0%
0-
#345000
1%
1-
b10101011 3
#346000
0%
0-
#347000
1%
1-
b10101100 3
#348000
0%
0-
#349000
1%
1-
b10101101 3
#350000
0%
0-
#351000
1%
1-
b10101110 3
#352000
0%
0-
#353000
1%
1-
b10101111 3
#354000
0%
0-
#355000
1%
1-
b10110000 3
#356000
0%
0-
#357000
1%
1-
b10110001 3
#358000
0%
0-
#359000
1%
1-
b10110010 3
#360000
0%
0-
#361000
1%
1-
b10110011 3
#362000
0%
0-
#363000
1%
1-
b10110100 3
#364000
0%
0-
#365000
1%
1-
b10110101 3
#366000
0%
0-
#367000
1%
1-
b10110110 3
#368000
0%
0-
#369000
1%
1-
b10110111 3
#370000
0%
0-
#371000
1%
1-
b10111000 3
#372000
0%
0-
#373000
1%
1-
b10111001 3
#374000
0%
0-
#375000
1%
1-
b10111010 3
#376000
0%
0-
#377000
1%
1-
b10111011 3
#378000
0%
0-
#379000
1%
1-
b10111100 3
#380000
0%
0-
#381000
1%
1-
b10111101 3
#382000
0%
0-
#383000
1%
1-
b10111110 3
#384000
0%
0-
#385000
1%
1-
b10111111 3
#386000
0%
0-
#387000
1%
1-
b11000000 3
#388000
0%
0-
#389000
1%
1-
b11000001 3
#390000
0%
0-
#391000
1%
1-
b11000010 3
#392000
0%
0-
#393000
1%
1-
b11000011 3
#394000
0%
0-
#395000
1%
1-
b11000100 3
#396000
0%
0-
#397000
1%
1-
b11000101 3
#398000
0%
0-
#399000
1%
1-
b11000110 3
#400000
0%
0-
#401000
1%
1-
b11000111 3
#402000
0%
0-
#403000
1%
1-
b11001000 3
#404000
0%
0-
#405000
1%
1-
b11001001 3
#406000
0%
0-
#407000
1%
1-
b11001010 3
#408000
0%
0-
#409000
1%
1-
b11001011 3
#410000
0%
0-
#411000
1%
1-
b11001100 3
#412000
0%
0-
#413000
1%
1-
b11001101 3
#414000
0%
0-
#415000
1%
1-
b11001110 3
#416000
0%
0-
#417000
1%
1-
b11001111 3
#418000
0%
0-
#419000
1%
1-
b11010000 3
#420000
0%
0-
#421000
1%
1-
b11010001 3
#422000
0%
0-
#423000
1%
1-
b11010010 3
#424000
0%
0-
#425000
1%
1-
b11010011 3
#426000
0%
0-
#427000
1%
1-
b11010100 3
#428000
0%
0-
#429000
1%
1-
b11010101 3
#430000
0%
0-
#431000
1%
1-
b11010110 3
#432000
0%
0-
#433000
1%
1-
b11010111 3
#434000
0%
0-
#435000
1%
1-
b11011000 3
#436000
0%
0-
#437000
1%
1-
b0 3
b10 2
#438000
0%
0-
#439000
1%
1-
b1 3
#440000
0%
0-
#441000
1%
1-
b10 3
#442000
0%
0-
#443000
1%
1-
b11 3
#444000
0%
0-
#445000
1%
1-
b100 3
#446000
0%
0-
#447000
1%
1-
b101 3
#448000
0%
0-
#449000
1%
1-
b110 3
#450000
0%
0-
#451000
1%
1-
b111 3
#452000
0%
0-
#453000
1%
1-
b1000 3
#454000
0%
0-
#455000
1%
1-
b1001 3
#456000
0%
0-
#457000
1%
1-
b1010 3
#458000
0%
0-
#459000
1%
1-
b1011 3
#460000
0%
0-
#461000
1%
1-
b1100 3
#462000
0%
0-
#463000
1%
1-
b1101 3
#464000
0%
0-
#465000
1%
1-
b1110 3
#466000
0%
0-
#467000
1%
1-
b1111 3
#468000
0%
0-
#469000
1%
1-
b10000 3
#470000
0%
0-
#471000
1%
1-
b10001 3
#472000
0%
0-
#473000
1%
1-
b10010 3
#474000
0%
0-
#475000
1%
1-
b10011 3
#476000
0%
0-
#477000
1%
1-
b10100 3
#478000
0%
0-
#479000
1%
1-
b10101 3
#480000
0%
0-
#481000
1%
1-
b10110 3
#482000
0%
0-
#483000
1%
1-
b10111 3
#484000
0%
0-
#485000
1%
1-
b11000 3
#486000
0%
0-
#487000
1%
1-
b11001 3
#488000
0%
0-
#489000
1%
1-
b11010 3
#490000
0%
0-
#491000
1%
1-
b11011 3
#492000
0%
0-
#493000
1%
1-
b11100 3
#494000
0%
0-
#495000
1%
1-
b11101 3
#496000
0%
0-
#497000
1%
1-
b11110 3
#498000
0%
0-
#499000
1%
1-
b11111 3
#500000
0%
0-
#501000
1%
1-
b100000 3
#502000
0%
0-
#503000
1%
1-
b100001 3
#504000
0%
0-
#505000
1%
1-
b100010 3
#506000
0%
0-
#507000
1%
1-
b100011 3
#508000
0%
0-
#509000
1%
1-
b100100 3
#510000
0%
0-
#511000
1%
1-
b100101 3
#512000
0%
0-
#513000
1%
1-
b100110 3
#514000
0%
0-
#515000
1%
1-
b100111 3
#516000
0%
0-
#517000
1%
1-
b101000 3
#518000
0%
0-
#519000
1%
1-
b101001 3
#520000
0%
0-
#521000
1%
1-
b101010 3
#522000
0%
0-
#523000
1%
1-
b101011 3
#524000
0%
0-
#525000
1%
1-
b101100 3
#526000
0%
0-
#527000
1%
1-
b101101 3
#528000
0%
0-
#529000
1%
1-
b101110 3
#530000
0%
0-
#531000
1%
1-
b101111 3
#532000
0%
0-
#533000
1%
1-
b110000 3
#534000
0%
0-
#535000
1%
1-
b110001 3
#536000
0%
0-
#537000
1%
1-
b110010 3
#538000
0%
0-
#539000
1%
1-
b110011 3
#540000
0%
0-
#541000
1%
1-
b110100 3
#542000
0%
0-
#543000
1%
1-
b110101 3
#544000
0%
0-
#545000
1%
1-
b110110 3
#546000
0%
0-
#547000
1%
1-
b110111 3
#548000
0%
0-
#549000
1%
1-
b111000 3
#550000
0%
0-
#551000
1%
1-
b111001 3
#552000
0%
0-
#553000
1%
1-
b111010 3
#554000
0%
0-
#555000
1%
1-
b111011 3
#556000
0%
0-
#557000
1%
1-
b111100 3
#558000
0%
0-
#559000
1%
1-
b111101 3
#560000
0%
0-
#561000
1%
1-
b111110 3
#562000
0%
0-
#563000
1%
1-
b111111 3
#564000
0%
0-
#565000
1%
1-
b1000000 3
#566000
0%
0-
#567000
1%
1-
b1000001 3
#568000
0%
0-
#569000
1%
1-
b1000010 3
#570000
0%
0-
#571000
1%
1-
b1000011 3
#572000
0%
0-
#573000
1%
1-
b1000100 3
#574000
0%
0-
#575000
1%
1-
b1000101 3
#576000
0%
0-
#577000
1%
1-
b1000110 3
#578000
0%
0-
#579000
1%
1-
b1000111 3
#580000
0%
0-
#581000
1%
1-
b1001000 3
#582000
0%
0-
#583000
1%
1-
b1001001 3
#584000
0%
0-
#585000
1%
1-
b1001010 3
#586000
0%
0-
#587000
1%
1-
b1001011 3
#588000
0%
0-
#589000
1%
1-
b1001100 3
#590000
0%
0-
#591000
1%
1-
b1001101 3
#592000
0%
0-
#593000
1%
1-
b1001110 3
#594000
0%
0-
#595000
1%
1-
b1001111 3
#596000
0%
0-
#597000
1%
1-
b1010000 3
#598000
0%
0-
#599000
1%
1-
b1010001 3
#600000
0%
0-
#601000
1%
1-
b1010010 3
#602000
0%
0-
#603000
1%
1-
b1010011 3
#604000
0%
0-
#605000
1%
1-
b1010100 3
#606000
0%
0-
#607000
1%
1-
b1010101 3
#608000
0%
0-
#609000
1%
1-
b1010110 3
#610000
0%
0-
#611000
1%
1-
b1010111 3
#612000
0%
0-
#613000
1%
1-
b1011000 3
#614000
0%
0-
#615000
1%
1-
b1011001 3
#616000
0%
0-
#617000
1%
1-
b1011010 3
#618000
0%
0-
#619000
1%
1-
b1011011 3
#620000
0%
0-
#621000
1%
1-
b1011100 3
#622000
0%
0-
#623000
1%
1-
b1011101 3
#624000
0%
0-
#625000
1%
1-
b1011110 3
#626000
0%
0-
#627000
1%
1-
b1011111 3
#628000
0%
0-
#629000
1%
1-
b1100000 3
#630000
0%
0-
#631000
1%
1-
b1100001 3
#632000
0%
0-
#633000
1%
1-
b1100010 3
#634000
0%
0-
#635000
1%
1-
b1100011 3
#636000
0%
0-
#637000
1%
1-
b1100100 3
#638000
0%
0-
#639000
1%
1-
b1100101 3
#640000
0%
0-
#641000
1%
1-
b1100110 3
#642000
0%
0-
#643000
1%
1-
b1100111 3
#644000
0%
0-
#645000
1%
1-
b1101000 3
#646000
0%
0-
#647000
1%
1-
b1101001 3
#648000
0%
0-
#649000
1%
1-
b1101010 3
#650000
0%
0-
#651000
1%
1-
b1101011 3
#652000
0%
0-
#653000
1%
1-
b1101100 3
#654000
0%
0-
#655000
1%
1-
b1101101 3
#656000
0%
0-
#657000
1%
1-
b1101110 3
#658000
0%
0-
#659000
1%
1-
b1101111 3
#660000
0%
0-
#661000
1%
1-
b1110000 3
#662000
0%
0-
#663000
1%
1-
b1110001 3
#664000
0%
0-
#665000
1%
1-
b1110010 3
#666000
0%
0-
#667000
1%
1-
b1110011 3
#668000
0%
0-
#669000
1%
1-
b1110100 3
#670000
0%
0-
#671000
1%
1-
b1110101 3
#672000
0%
0-
#673000
1%
1-
b1110110 3
#674000
0%
0-
#675000
1%
1-
b1110111 3
#676000
0%
0-
#677000
1%
1-
b1111000 3
#678000
0%
0-
#679000
1%
1-
b1111001 3
#680000
0%
0-
#681000
1%
1-
b1111010 3
#682000
0%
0-
#683000
1%
1-
b1111011 3
#684000
0%
0-
#685000
1%
1-
b1111100 3
#686000
0%
0-
#687000
1%
1-
b1111101 3
#688000
0%
0-
#689000
1%
1-
b1111110 3
#690000
0%
0-
#691000
1%
1-
b1111111 3
#692000
0%
0-
#693000
1%
1-
b10000000 3
#694000
0%
0-
#695000
1%
1-
b10000001 3
#696000
0%
0-
#697000
1%
1-
b10000010 3
#698000
0%
0-
#699000
1%
1-
b10000011 3
#700000
0%
0-
#701000
1%
1-
b10000100 3
#702000
0%
0-
#703000
1%
1-
b10000101 3
#704000
0%
0-
#705000
1%
1-
b10000110 3
#706000
0%
0-
#707000
1%
1-
b10000111 3
#708000
0%
0-
#709000
1%
1-
b10001000 3
#710000
0%
0-
#711000
1%
1-
b10001001 3
#712000
0%
0-
#713000
1%
1-
b10001010 3
#714000
0%
0-
#715000
1%
1-
b10001011 3
#716000
0%
0-
#717000
1%
1-
b10001100 3
#718000
0%
0-
#719000
1%
1-
b10001101 3
#720000
0%
0-
#721000
1%
1-
b10001110 3
#722000
0%
0-
#723000
1%
1-
b10001111 3
#724000
0%
0-
#725000
1%
1-
b10010000 3
#726000
0%
0-
#727000
1%
1-
b10010001 3
#728000
0%
0-
#729000
1%
1-
b10010010 3
#730000
0%
0-
#731000
1%
1-
b10010011 3
#732000
0%
0-
#733000
1%
1-
b10010100 3
#734000
0%
0-
#735000
1%
1-
b10010101 3
#736000
0%
0-
#737000
1%
1-
b10010110 3
#738000
0%
0-
#739000
1%
1-
b10010111 3
#740000
0%
0-
#741000
1%
1-
b10011000 3
#742000
0%
0-
#743000
1%
1-
b10011001 3
#744000
0%
0-
#745000
1%
1-
b10011010 3
#746000
0%
0-
#747000
1%
1-
b10011011 3
#748000
0%
0-
#749000
1%
1-
b10011100 3
#750000
0%
0-
#751000
1%
1-
b10011101 3
#752000
0%
0-
#753000
1%
1-
b10011110 3
#754000
0%
0-
#755000
1%
1-
b10011111 3
#756000
0%
0-
#757000
1%
1-
b10100000 3
#758000
0%
0-
#759000
1%
1-
b10100001 3
#760000
0%
0-
#761000
1%
1-
b10100010 3
#762000
0%
0-
#763000
1%
1-
b10100011 3
#764000
0%
0-
#765000
1%
1-
b10100100 3
#766000
0%
0-
#767000
1%
1-
b10100101 3
#768000
0%
0-
#769000
1%
1-
b10100110 3
#770000
0%
0-
#771000
1%
1-
b10100111 3
#772000
0%
0-
#773000
1%
1-
b10101000 3
#774000
0%
0-
#775000
1%
1-
b10101001 3
#776000
0%
0-
#777000
1%
1-
b10101010 3
#778000
0%
0-
#779000
1%
1-
b10101011 3
#780000
0%
0-
#781000
1%
1-
b10101100 3
#782000
0%
0-
#783000
1%
1-
b10101101 3
#784000
0%
0-
#785000
1%
1-
b10101110 3
#786000
0%
0-
#787000
1%
1-
b10101111 3
#788000
0%
0-
#789000
1%
1-
b10110000 3
#790000
0%
0-
#791000
1%
1-
b10110001 3
#792000
0%
0-
#793000
1%
1-
b10110010 3
#794000
0%
0-
#795000
1%
1-
b10110011 3
#796000
0%
0-
#797000
1%
1-
b10110100 3
#798000
0%
0-
#799000
1%
1-
b10110101 3
#800000
0%
0-
#801000
1%
1-
b10110110 3
#802000
0%
0-
#803000
1%
1-
b10110111 3
#804000
0%
0-
#805000
1%
1-
b10111000 3
#806000
0%
0-
#807000
1%
1-
b10111001 3
#808000
0%
0-
#809000
1%
1-
b10111010 3
#810000
0%
0-
#811000
1%
1-
b10111011 3
#812000
0%
0-
#813000
1%
1-
b10111100 3
#814000
0%
0-
#815000
1%
1-
b10111101 3
#816000
0%
0-
#817000
1%
1-
b10111110 3
#818000
0%
0-
#819000
1%
1-
b10111111 3
#820000
0%
0-
#821000
1%
1-
b11000000 3
#822000
0%
0-
#823000
1%
1-
b11000001 3
#824000
0%
0-
#825000
1%
1-
b11000010 3
#826000
0%
0-
#827000
1%
1-
b11000011 3
#828000
0%
0-
#829000
1%
1-
b11000100 3
#830000
0%
0-
#831000
1%
1-
b11000101 3
#832000
0%
0-
#833000
1%
1-
b11000110 3
#834000
0%
0-
#835000
1%
1-
b11000111 3
#836000
0%
0-
#837000
1%
1-
b11001000 3
#838000
0%
0-
#839000
1%
1-
b11001001 3
#840000
0%
0-
#841000
1%
1-
b11001010 3
#842000
0%
0-
#843000
1%
1-
b11001011 3
#844000
0%
0-
#845000
1%
1-
b11001100 3
#846000
0%
0-
#847000
1%
1-
b11001101 3
#848000
0%
0-
#849000
1%
1-
b11001110 3
#850000
0%
0-
#851000
1%
1-
b11001111 3
#852000
0%
0-
#853000
1%
1-
b11010000 3
#854000
0%
0-
#855000
1%
1-
b11010001 3
#856000
0%
0-
#857000
1%
1-
b11010010 3
#858000
0%
0-
#859000
1%
1-
b11010011 3
#860000
0%
0-
#861000
1%
1-
b11010100 3
#862000
0%
0-
#863000
1%
1-
b11010101 3
#864000
0%
0-
#865000
1%
1-
b11010110 3
#866000
0%
0-
#867000
1%
1-
b11010111 3
#868000
0%
0-
#869000
1&
1%
1/
1-
b11011000 3
#870000
0%
0-
#871000
1%
1-
b11011001 3
#872000
0%
0-
#873000
1%
1-
b11011010 3
#874000
0%
0-
#875000
1%
1-
b11011011 3
#876000
0%
0-
#877000
1%
1-
b11011100 3
#878000
0%
0-
#879000
1%
1-
b11011101 3
#880000
0%
0-
#881000
1%
1-
b11011110 3
#882000
0%
0-
#883000
1%
1-
b11011111 3
#884000
0%
0-
#885000
1%
1-
b11100000 3
#886000
0%
0-
#887000
1%
1-
b11100001 3
#888000
0%
0-
#889000
1%
1-
b11100010 3
#890000
0%
0-
#891000
1%
1-
b11100011 3
#892000
0%
0-
#893000
1%
1-
b11100100 3
#894000
0%
0-
#895000
1%
1-
b11100101 3
#896000
0%
0-
#897000
1%
1-
b11100110 3
#898000
0%
0-
#899000
1%
1-
b11100111 3
#900000
0%
0-
#901000
1%
1-
b11101000 3
#902000
0%
0-
#903000
1%
1-
b11101001 3
#904000
0%
0-
#905000
1%
1-
b11101010 3
#906000
0%
0-
#907000
1%
1-
b11101011 3
#908000
0%
0-
#909000
1%
1-
b11101100 3
#910000
0%
0-
#911000
1%
1-
b11101101 3
#912000
0%
0-
#913000
1%
1-
b11101110 3
#914000
0%
0-
#915000
1%
1-
b11101111 3
#916000
0%
0-
#917000
1%
1-
b11110000 3
#918000
0%
0-
#919000
1%
1-
b11110001 3
#920000
0%
0-
#921000
1%
1-
b11110010 3
#922000
0%
0-
#923000
1%
1-
b11110011 3
#924000
0%
0-
#925000
1%
1-
b11110100 3
#926000
0%
0-
#927000
1%
1-
b11110101 3
#928000
0%
0-
#929000
1%
1-
b11110110 3
#930000
0%
0-
#931000
1%
1-
b11110111 3
#932000
0%
0-
#933000
1%
1-
b11111000 3
#934000
0%
0-
#935000
1%
1-
b11111001 3
#936000
0%
0-
#937000
1%
1-
b11111010 3
#938000
0%
0-
#939000
1%
1-
b11111011 3
#940000
0%
0-
#941000
1%
1-
b11111100 3
#942000
0%
0-
#943000
1%
1-
b11111101 3
#944000
0%
0-
#945000
1%
1-
b11111110 3
#946000
0%
0-
#947000
1%
1-
b11111111 3
#948000
0%
0-
#949000
1%
1-
b100000000 3
#950000
0%
0-
#951000
1%
1-
b100000001 3
#952000
0%
0-
#953000
1%
1-
b100000010 3
#954000
0%
0-
#955000
1%
1-
b100000011 3
#956000
0%
0-
#957000
1%
1-
b100000100 3
#958000
0%
0-
#959000
1%
1-
b100000101 3
#960000
0%
0-
#961000
1%
1-
b100000110 3
#962000
0%
0-
#963000
1%
1-
b100000111 3
#964000
0%
0-
#965000
1%
1-
b100001000 3
#966000
0%
0-
#967000
1%
1-
b100001001 3
#968000
0%
0-
#969000
1%
1-
b100001010 3
#970000
0%
0-
#971000
1%
1-
b100001011 3
#972000
0%
0-
#973000
1%
1-
b100001100 3
#974000
0%
0-
#975000
1%
1-
b100001101 3
#976000
0%
0-
#977000
1%
1-
b100001110 3
#978000
0%
0-
#979000
1%
1-
b100001111 3
#980000
0%
0-
#981000
1%
1-
b100010000 3
#982000
0%
0-
#983000
1%
1-
b100010001 3
#984000
0%
0-
#985000
1%
1-
b100010010 3
#986000
0%
0-
#987000
1%
1-
b100010011 3
#988000
0%
0-
#989000
1%
1-
b100010100 3
#990000
0%
0-
#991000
1%
1-
b100010101 3
#992000
0%
0-
#993000
1%
1-
b100010110 3
#994000
0%
0-
#995000
1%
1-
b100010111 3
#996000
0%
0-
#997000
1%
1-
b100011000 3
#998000
0%
0-
#999000
1%
1-
b100011001 3
#1000000
0%
0-
#1001000
1%
1-
b100011010 3
#1002000
0%
0-
#1003000
1%
1-
b100011011 3
#1004000
0%
0-
#1005000
1%
1-
b100011100 3
#1006000
0%
0-
#1007000
1%
1-
b100011101 3
#1008000
0%
0-
#1009000
1%
1-
b100011110 3
#1010000
0%
0-
#1011000
1%
1-
b100011111 3
#1012000
0%
0-
#1013000
1%
1-
b100100000 3
#1014000
0%
0-
#1015000
1%
1-
b100100001 3
#1016000
0%
0-
#1017000
1%
1-
b100100010 3
#1018000
0%
0-
#1019000
1%
1-
b100100011 3
#1020000
0%
0-
#1021000
1%
1-
b100100100 3
#1022000
0%
0-
#1023000
1%
1-
b100100101 3
#1024000
0%
0-
#1025000
1%
1-
b100100110 3
#1026000
0%
0-
#1027000
1%
1-
b100100111 3
#1028000
0%
0-
#1029000
1%
1-
b100101000 3
#1030000
0%
0-
#1031000
1%
1-
b100101001 3
#1032000
0%
0-
#1033000
1%
1-
b100101010 3
#1034000
0%
0-
#1035000
1%
1-
b100101011 3
#1036000
0%
0-
#1037000
1%
1-
b100101100 3
#1038000
0%
0-
#1039000
1%
1-
b100101101 3
#1040000
0%
0-
#1041000
1%
1-
b100101110 3
#1042000
0%
0-
#1043000
1%
1-
b100101111 3
#1044000
0%
0-
#1045000
1%
1-
b100110000 3
#1046000
0%
0-
#1047000
1%
1-
b100110001 3
#1048000
0%
0-
#1049000
1%
1-
b100110010 3
#1050000
0%
0-
#1051000
1%
1-
b100110011 3
#1052000
0%
0-
#1053000
1%
1-
b100110100 3
#1054000
0%
0-
#1055000
1%
1-
b100110101 3
#1056000
0%
0-
#1057000
1%
1-
b100110110 3
#1058000
0%
0-
#1059000
1%
1-
b100110111 3
#1060000
0%
0-
