UART/UART_modelsim_proj/dump.vcd
$date
	Tue Feb 04 21:23:45 2025
$end
$version
	ModelSim Version 2020.1
$end
$timescale
	1ps
$end

$scope module UART_Rx_tb $end
$var parameter 32 ! c_CLOCK_PERIOD_NS $end
$var parameter 32 " c_CLKS_PER_BIT $end
$var parameter 32 # c_BIT_PERIOD $end
$var reg 1 $ r_Clock $end
$var reg 1 % r_RX_Serial $end
$var reg 8 & w_RX_Byte [7:0] $end

$scope task UART_WRITE_BYTE $end
$var reg 8 ' i_Data [7:0] $end
$upscope $end

$scope module UART_RX_INST_l $end
$var parameter 32 ( CLKS_PER_BIT $end
$var wire 1 ) clk $end
$var wire 1 * i_RX_Serial $end
$var reg 1 + o_RX_DV $end
$var reg 8 , o_RX_Byte [7:0] $end
$var reg 3 - state_r [2:0] $end
$var reg 8 . Clock_Count_r [7:0] $end
$var reg 3 / Bit_Index_r [2:0] $end
$var reg 8 0 RX_Byte_r [7:0] $end
$var reg 1 1 RX_DV_r $end
$upscope $end
$upscope $end
$enddefinitions $end
#0
$dumpvars
0$
1%
b0 &
bx '
0+
b0 ,
b0 -
b0 .
b0 /
b0 0
01
b10100 !
b110110010 "
b10000111101000 #
b110110010 (
0)
1*
$end
#10
1$
1)
b110111 '
0%
0*
#20
0$
0)
#30
1$
1)
b1 -
#40
0$
0)
#50
1$
1)
b1 .
#60
0$
0)
#70
1$
1)
b10 .
#80
0$
0)
#90
1$
1)
b11 .
#100
0$
0)
#110
1$
1)
b100 .
#120
0$
0)
#130
1$
1)
b101 .
#140
0$
0)
#150
1$
1)
b110 .
#160
0$
0)
#170
1$
1)
b111 .
#180
0$
0)
#190
1$
1)
b1000 .
#200
0$
0)
#210
1$
1)
b1001 .
#220
0$
0)
#230
1$
1)
b1010 .
#240
0$
0)
#250
1$
1)
b1011 .
#260
0$
0)
#270
1$
1)
b1100 .
#280
0$
0)
#290
1$
1)
b1101 .
#300
0$
0)
#310
1$
1)
b1110 .
#320
0$
0)
#330
1$
1)
b1111 .
#340
0$
0)
#350
1$
1)
b10000 .
#360
0$
0)
#370
1$
1)
b10001 .
#380
0$
0)
#390
1$
1)
b10010 .
#400
0$
0)
#410
1$
1)
b10011 .
#420
0$
0)
#430
1$
1)
b10100 .
#440
0$
0)
#450
1$
1)
b10101 .
#460
0$
0)
#470
1$
1)
b10110 .
#480
0$
0)
#490
1$
1)
b10111 .
#500
0$
0)
#510
1$
1)
b11000 .
#520
0$
0)
#530
1$
1)
b11001 .
#540
0$
0)
#550
1$
1)
b11010 .
#560
0$
0)
#570
1$
1)
b11011 .
#580
0$
0)
#590
1$
1)
b11100 .
#600
0$
0)
#610
1$
1)
b11101 .
#620
0$
0)
#630
1$
1)
b11110 .
#640
0$
0)
#650
1$
1)
b11111 .
#660
0$
0)
#670
1$
1)
b100000 .
#680
0$
0)
#690
1$
1)
b100001 .
#700
0$
0)
#710
1$
1)
b100010 .
#720
0$
0)
#730
1$
1)
b100011 .
#740
0$
0)
#750
1$
1)
b100100 .
#760
0$
0)
#770
1$
1)
b100101 .
#780
0$
0)
#790
1$
1)
b100110 .
#800
0$
0)
#810
1$
1)
b100111 .
#820
0$
0)
#830
1$
1)
b101000 .
#840
0$
0)
#850
1$
1)
b101001 .
#860
0$
0)
#870
1$
1)
b101010 .
#880
0$
0)
#890
1$
1)
b101011 .
#900
0$
0)
#910
1$
1)
b101100 .
#920
0$
0)
#930
1$
1)
b101101 .
#940
0$
0)
#950
1$
1)
b101110 .
#960
0$
0)
#970
1$
1)
b101111 .
#980
0$
0)
#990
1$
1)
b110000 .
#1000
0$
0)
#1010
1$
1)
b110001 .
#1020
0$
0)
#1030
1$
1)
b110010 .
#1040
0$
0)
#1050
1$
1)
b110011 .
#1060
0$
0)
#1070
1$
1)
b110100 .
#1080
0$
0)
#1090
1$
1)
b110101 .
#1100
0$
0)
#1110
1$
1)
b110110 .
#1120
0$
0)
#1130
1$
1)
b110111 .
#1140
0$
0)
#1150
1$
1)
b111000 .
#1160
0$
0)
#1170
1$
1)
b111001 .
#1180
0$
0)
#1190
1$
1)
b111010 .
#1200
0$
0)
#1210
1$
1)
b111011 .
#1220
0$
0)
#1230
1$
1)
b111100 .
#1240
0$
0)
#1250
1$
1)
b111101 .
#1260
0$
0)
#1270
1$
1)
b111110 .
#1280
0$
0)
#1290
1$
1)
b111111 .
#1300
0$
0)
#1310
1$
1)
b1000000 .
#1320
0$
0)
#1330
1$
1)
b1000001 .
#1340
0$
0)
#1350
1$
1)
b1000010 .
#1360
0$
0)
#1370
1$
1)
b1000011 .
#1380
0$
0)
#1390
1$
1)
b1000100 .
#1400
0$
0)
#1410
1$
1)
b1000101 .
#1420
0$
0)
#1430
1$
1)
b1000110 .
#1440
0$
0)
#1450
1$
1)
b1000111 .
#1460
0$
0)
#1470
1$
1)
b1001000 .
#1480
0$
0)
#1490
1$
1)
b1001001 .
#1500
0$
0)
#1510
1$
1)
b1001010 .
#1520
0$
0)
#1530
1$
1)
b1001011 .
#1540
0$
0)
#1550
1$
1)
b1001100 .
#1560
0$
0)
#1570
1$
1)
b1001101 .
#1580
0$
0)
#1590
1$
1)
b1001110 .
#1600
0$
0)
#1610
1$
1)
b1001111 .
#1620
0$
0)
#1630
1$
1)
b1010000 .
#1640
0$
0)
#1650
1$
1)
b1010001 .
#1660
0$
0)
#1670
1$
1)
b1010010 .
#1680
0$
0)
#1690
1$
1)
b1010011 .
#1700
0$
0)
#1710
1$
1)
b1010100 .
#1720
0$
0)
#1730
1$
1)
b1010101 .
#1740
0$
0)
#1750
1$
1)
b1010110 .
#1760
0$
0)
#1770
1$
1)
b1010111 .
#1780
0$
0)
#1790
1$
1)
b1011000 .
#1800
0$
0)
#1810
1$
1)
b1011001 .
#1820
0$
0)
#1830
1$
1)
b1011010 .
#1840
0$
0)
#1850
1$
1)
b1011011 .
#1860
0$
0)
#1870
1$
1)
b1011100 .
#1880
0$
0)
#1890
1$
1)
b1011101 .
#1900
0$
0)
#1910
1$
1)
b1011110 .
#1920
0$
0)
#1930
1$
1)
b1011111 .
#1940
0$
0)
#1950
1$
1)
b1100000 .
#1960
0$
0)
#1970
1$
1)
b1100001 .
#1980
0$
0)
#1990
1$
1)
b1100010 .
#2000
0$
0)
#2010
1$
1)
b1100011 .
#2020
0$
0)
#2030
1$
1)
b1100100 .
#2040
0$
0)
#2050
1$
1)
b1100101 .
#2060
0$
0)
#2070
1$
1)
b1100110 .
#2080
0$
0)
#2090
1$
1)
b1100111 .
#2100
0$
0)
#2110
1$
1)
b1101000 .
#2120
0$
0)
#2130
1$
1)
b1101001 .
#2140
0$
0)
#2150
1$
1)
b1101010 .
#2160
0$
0)
#2170
1$
1)
b1101011 .
#2180
0$
0)
#2190
1$
1)
b1101100 .
#2200
0$
0)
#2210
1$
1)
b1101101 .
#2220
0$
0)
#2230
1$
1)
b1101110 .
#2240
0$
0)
#2250
1$
1)
b1101111 .
#2260
0$
0)
#2270
1$
1)
b1110000 .
#2280
0$
0)
#2290
1$
1)
b1110001 .
#2300
0$
0)
#2310
1$
1)
b1110010 .
#2320
0$
0)
#2330
1$
1)
b1110011 .
#2340
0$
0)
#2350
1$
1)
b1110100 .
#2360
0$
0)
#2370
1$
1)
b1110101 .
#2380
0$
0)
#2390
1$
1)
b1110110 .
#2400
0$
0)
#2410
1$
1)
b1110111 .
#2420
0$
0)
#2430
1$
1)
b1111000 .
#2440
0$
0)
#2450
1$
1)
b1111001 .
#2460
0$
0)
#2470
1$
1)
b1111010 .
#2480
0$
0)
#2490
1$
1)
b1111011 .
#2500
0$
0)
#2510
1$
1)
b1111100 .
#2520
0$
0)
#2530
1$
1)
b1111101 .
#2540
0$
0)
#2550
1$
1)
b1111110 .
#2560
0$
0)
#2570
1$
1)
b1111111 .
#2580
0$
0)
#2590
1$
1)
b10000000 .
#2600
0$
0)
#2610
1$
1)
b10000001 .
#2620
0$
0)
#2630
1$
1)
b10000010 .
#2640
0$
0)
#2650
1$
1)
b10000011 .
#2660
0$
0)
#2670
1$
1)
b10000100 .
#2680
0$
0)
#2690
1$
1)
b10000101 .
#2700
0$
0)
#2710
1$
1)
b10000110 .
#2720
0$
0)
#2730
1$
1)
b10000111 .
#2740
0$
0)
#2750
1$
1)
b10001000 .
#2760
0$
0)
#2770
1$
1)
b10001001 .
#2780
0$
0)
#2790
1$
1)
b10001010 .
#2800
0$
0)
#2810
1$
1)
b10001011 .
#2820
0$
0)
#2830
1$
1)
b10001100 .
#2840
0$
0)
#2850
1$
1)
b10001101 .
#2860
0$
0)
#2870
1$
1)
b10001110 .
#2880
0$
0)
#2890
1$
1)
b10001111 .
#2900
0$
0)
#2910
1$
1)
b10010000 .
#2920
0$
0)
#2930
1$
1)
b10010001 .
#2940
0$
0)
#2950
1$
1)
b10010010 .
#2960
0$
0)
#2970
1$
1)
b10010011 .
#2980
0$
0)
#2990
1$
1)
b10010100 .
#3000
0$
0)
#3010
1$
1)
b10010101 .
#3020
0$
0)
#3030
1$
1)
b10010110 .
#3040
0$
0)
#3050
1$
1)
b10010111 .
#3060
0$
0)
#3070
1$
1)
b10011000 .
#3080
0$
0)
#3090
1$
1)
b10011001 .
#3100
0$
0)
#3110
1$
1)
b10011010 .
#3120
0$
0)
#3130
1$
1)
b10011011 .
#3140
0$
0)
#3150
1$
1)
b10011100 .
#3160
0$
0)
#3170
1$
1)
b10011101 .
#3180
0$
0)
#3190
1$
1)
b10011110 .
#3200
0$
0)
#3210
1$
1)
b10011111 .
#3220
0$
0)
#3230
1$
1)
b10100000 .
#3240
0$
0)
#3250
1$
1)
b10100001 .
#3260
0$
0)
#3270
1$
1)
b10100010 .
#3280
0$
0)
#3290
1$
1)
b10100011 .
#3300
0$
0)
#3310
1$
1)
b10100100 .
#3320
0$
0)
#3330
1$
1)
b10100101 .
#3340
0$
0)
#3350
1$
1)
b10100110 .
#3360
0$
0)
#3370
1$
1)
b10100111 .
#3380
0$
0)
#3390
1$
1)
b10101000 .
#3400
0$
0)
#3410
1$
1)
b10101001 .
#3420
0$
0)
#3430
1$
1)
b10101010 .
#3440
0$
0)
#3450
1$
1)
b10101011 .
#3460
0$
0)
#3470
1$
1)
b10101100 .
#3480
0$
0)
#3490
1$
1)
b10101101 .
#3500
0$
0)
#3510
1$
1)
b10101110 .
#3520
0$
0)
#3530
1$
1)
b10101111 .
#3540
0$
0)
#3550
1$
1)
b10110000 .
#3560
0$
0)
#3570
1$
1)
b10110001 .
#3580
0$
0)
#3590
1$
1)
b10110010 .
#3600
0$
0)
#3610
1$
1)
b10110011 .
#3620
0$
0)
#3630
1$
1)
b10110100 .
#3640
0$
0)
#3650
1$
1)
b10110101 .
#3660
0$
0)
#3670
1$
1)
b10110110 .
#3680
0$
0)
#3690
1$
1)
b10110111 .
#3700
0$
0)
#3710
1$
1)
b10111000 .
#3720
0$
0)
#3730
1$
1)
b10111001 .
#3740
0$
0)
#3750
1$
1)
b10111010 .
#3760
0$
0)
#3770
1$
1)
b10111011 .
#3780
0$
0)
#3790
1$
1)
b10111100 .
#3800
0$
0)
#3810
1$
1)
b10111101 .
#3820
0$
0)
#3830
1$
1)
b10111110 .
#3840
0$
0)
#3850
1$
1)
b10111111 .
#3860
0$
0)
#3870
1$
1)
b11000000 .
#3880
0$
0)
#3890
1$
1)
b11000001 .
#3900
0$
0)
#3910
1$
1)
b11000010 .
#3920
0$
0)
#3930
1$
1)
b11000011 .
#3940
0$
0)
#3950
1$
1)
b11000100 .
#3960
0$
0)
#3970
1$
1)
b11000101 .
#3980
0$
0)
#3990
1$
1)
b11000110 .
#4000
0$
0)
#4010
1$
1)
b11000111 .
#4020
0$
0)
#4030
1$
1)
b11001000 .
#4040
0$
0)
#4050
1$
1)
b11001001 .
#4060
0$
0)
#4070
1$
1)
b11001010 .
#4080
0$
0)
#4090
1$
1)
b11001011 .
#4100
0$
0)
#4110
1$
1)
b11001100 .
#4120
0$
0)
#4130
1$
1)
b11001101 .
#4140
0$
0)
#4150
1$
1)
b11001110 .
#4160
0$
0)
#4170
1$
1)
b11001111 .
#4180
0$
0)
#4190
1$
1)
b11010000 .
#4200
0$
0)
#4210
1$
1)
b11010001 .
#4220
0$
0)
#4230
1$
1)
b11010010 .
#4240
0$
0)
#4250
1$
1)
b11010011 .
#4260
0$
0)
#4270
1$
1)
b11010100 .
#4280
0$
0)
#4290
1$
1)
b11010101 .
#4300
0$
0)
#4310
1$
1)
b11010110 .
#4320
0$
0)
#4330
1$
1)
b11010111 .
#4340
0$
0)
#4350
1$
1)
b11011000 .
#4360
0$
0)
#4370
1$
1)
b0 .
b10 -
#4380
0$
0)
#4390
1$
1)
b1 .
#4400
0$
0)
#4410
1$
1)
b10 .
#4420
0$
0)
#4430
1$
1)
b11 .
#4440
0$
0)
#4450
1$
1)
b100 .
#4460
0$
0)
#4470
1$
1)
b101 .
#4480
0$
0)
#4490
1$
1)
b110 .
#4500
0$
0)
#4510
1$
1)
b111 .
#4520
0$
0)
#4530
1$
1)
b1000 .
#4540
0$
0)
#4550
1$
1)
b1001 .
#4560
0$
0)
#4570
1$
1)
b1010 .
#4580
0$
0)
#4590
1$
1)
b1011 .
#4600
0$
0)
#4610
1$
1)
b1100 .
#4620
0$
0)
#4630
1$
1)
b1101 .
#4640
0$
0)
#4650
1$
1)
b1110 .
#4660
0$
0)
#4670
1$
1)
b1111 .
#4680
0$
0)
#4690
1$
1)
b10000 .
#4700
0$
0)
#4710
1$
1)
b10001 .
#4720
0$
0)
#4730
1$
1)
b10010 .
#4740
0$
0)
#4750
1$
1)
b10011 .
#4760
0$
0)
#4770
1$
1)
b10100 .
#4780
0$
0)
#4790
1$
1)
b10101 .
#4800
0$
0)
#4810
1$
1)
b10110 .
#4820
0$
0)
#4830
1$
1)
b10111 .
#4840
0$
0)
#4850
1$
1)
b11000 .
#4860
0$
0)
#4870
1$
1)
b11001 .
#4880
0$
0)
#4890
1$
1)
b11010 .
#4900
0$
0)
#4910
1$
1)
b11011 .
#4920
0$
0)
#4930
1$
1)
b11100 .
#4940
0$
0)
#4950
1$
1)
b11101 .
#4960
0$
0)
#4970
1$
1)
b11110 .
#4980
0$
0)
#4990
1$
1)
b11111 .
#5000
0$
0)
#5010
1$
1)
b100000 .
#5020
0$
0)
#5030
1$
1)
b100001 .
#5040
0$
0)
#5050
1$
1)
b100010 .
#5060
0$
0)
#5070
1$
1)
b100011 .
#5080
0$
0)
#5090
1$
1)
b100100 .
#5100
0$
0)
#5110
1$
1)
b100101 .
#5120
0$
0)
#5130
1$
1)
b100110 .
#5140
0$
0)
#5150
1$
1)
b100111 .
#5160
0$
0)
#5170
1$
1)
b101000 .
#5180
0$
0)
#5190
1$
1)
b101001 .
#5200
0$
0)
#5210
1$
1)
b101010 .
#5220
0$
0)
#5230
1$
1)
b101011 .
#5240
0$
0)
#5250
1$
1)
b101100 .
#5260
0$
0)
#5270
1$
1)
b101101 .
#5280
0$
0)
#5290
1$
1)
b101110 .
#5300
0$
0)
#5310
1$
1)
b101111 .
#5320
0$
0)
#5330
1$
1)
b110000 .
#5340
0$
0)
#5350
1$
1)
b110001 .
#5360
0$
0)
#5370
1$
1)
b110010 .
#5380
0$
0)
#5390
1$
1)
b110011 .
#5400
0$
0)
#5410
1$
1)
b110100 .
#5420
0$
0)
#5430
1$
1)
b110101 .
#5440
0$
0)
#5450
1$
1)
b110110 .
#5460
0$
0)
#5470
1$
1)
b110111 .
#5480
0$
0)
#5490
1$
1)
b111000 .
#5500
0$
0)
#5510
1$
1)
b111001 .
#5520
0$
0)
#5530
1$
1)
b111010 .
#5540
0$
0)
#5550
1$
1)
b111011 .
#5560
0$
0)
#5570
1$
1)
b111100 .
#5580
0$
0)
#5590
1$
1)
b111101 .
#5600
0$
0)
#5610
1$
1)
b111110 .
#5620
0$
0)
#5630
1$
1)
b111111 .
#5640
0$
0)
#5650
1$
1)
b1000000 .
#5660
0$
0)
#5670
1$
1)
b1000001 .
#5680
0$
0)
#5690
1$
1)
b1000010 .
#5700
0$
0)
#5710
1$
1)
b1000011 .
#5720
0$
0)
#5730
1$
1)
b1000100 .
#5740
0$
0)
#5750
1$
1)
b1000101 .
#5760
0$
0)
#5770
1$
1)
b1000110 .
#5780
0$
0)
#5790
1$
1)
b1000111 .
#5800
0$
0)
#5810
1$
1)
b1001000 .
#5820
0$
0)
#5830
1$
1)
b1001001 .
#5840
0$
0)
#5850
1$
1)
b1001010 .
#5860
0$
0)
#5870
1$
1)
b1001011 .
#5880
0$
0)
#5890
1$
1)
b1001100 .
#5900
0$
0)
#5910
1$
1)
b1001101 .
#5920
0$
0)
#5930
1$
1)
b1001110 .
#5940
0$
0)
#5950
1$
1)
b1001111 .
#5960
0$
0)
#5970
1$
1)
b1010000 .
#5980
0$
0)
#5990
1$
1)
b1010001 .
#6000
0$
0)
#6010
1$
1)
b1010010 .
#6020
0$
0)
#6030
1$
1)
b1010011 .
#6040
0$
0)
#6050
1$
1)
b1010100 .
#6060
0$
0)
#6070
1$
1)
b1010101 .
#6080
0$
0)
#6090
1$
1)
b1010110 .
#6100
0$
0)
#6110
1$
1)
b1010111 .
#6120
0$
0)
#6130
1$
1)
b1011000 .
#6140
0$
0)
#6150
1$
1)
b1011001 .
#6160
0$
0)
#6170
1$
1)
b1011010 .
#6180
0$
0)
#6190
1$
1)
b1011011 .
#6200
0$
0)
#6210
1$
1)
b1011100 .
#6220
0$
0)
#6230
1$
1)
b1011101 .
#6240
0$
0)
#6250
1$
1)
b1011110 .
#6260
0$
0)
#6270
1$
1)
b1011111 .
#6280
0$
0)
#6290
1$
1)
b1100000 .
#6300
0$
0)
#6310
1$
1)
b1100001 .
#6320
0$
0)
#6330
1$
1)
b1100010 .
#6340
0$
0)
#6350
1$
1)
b1100011 .
#6360
0$
0)
#6370
1$
1)
b1100100 .
#6380
0$
0)
#6390
1$
1)
b1100101 .
#6400
0$
0)
#6410
1$
1)
b1100110 .
#6420
0$
0)
#6430
1$
1)
b1100111 .
#6440
0$
0)
#6450
1$
1)
b1101000 .
#6460
0$
0)
#6470
1$
1)
b1101001 .
#6480
0$
0)
#6490
1$
1)
b1101010 .
#6500
0$
0)
#6510
1$
1)
b1101011 .
#6520
0$
0)
#6530
1$
1)
b1101100 .
#6540
0$
0)
#6550
1$
1)
b1101101 .
#6560
0$
0)
#6570
1$
1)
b1101110 .
#6580
0$
0)
#6590
1$
1)
b1101111 .
#6600
0$
0)
#6610
1$
1)
b1110000 .
#6620
0$
0)
#6630
1$
1)
b1110001 .
#6640
0$
0)
#6650
1$
1)
b1110010 .
#6660
0$
0)
#6670
1$
1)
b1110011 .
#6680
0$
0)
#6690
1$
1)
b1110100 .
#6700
0$
0)
#6710
1$
1)
b1110101 .
#6720
0$
0)
#6730
1$
1)
b1110110 .
#6740
0$
0)
#6750
1$
1)
b1110111 .
#6760
0$
0)
#6770
1$
1)
b1111000 .
#6780
0$
0)
#6790
1$
1)
b1111001 .
#6800
0$
0)
#6810
1$
1)
b1111010 .
#6820
0$
0)
#6830
1$
1)
b1111011 .
#6840
0$
0)
#6850
1$
1)
b1111100 .
#6860
0$
0)
#6870
1$
1)
b1111101 .
#6880
0$
0)
#6890
1$
1)
b1111110 .
#6900
0$
0)
#6910
1$
1)
b1111111 .
#6920
0$
0)
#6930
1$
1)
b10000000 .
#6940
0$
0)
#6950
1$
1)
b10000001 .
#6960
0$
0)
#6970
1$
1)
b10000010 .
#6980
0$
0)
#6990
1$
1)
b10000011 .
#7000
0$
0)
#7010
1$
1)
b10000100 .
#7020
0$
0)
#7030
1$
1)
b10000101 .
#7040
0$
0)
#7050
1$
1)
b10000110 .
#7060
0$
0)
#7070
1$
1)
b10000111 .
#7080
0$
0)
#7090
1$
1)
b10001000 .
#7100
0$
0)
#7110
1$
1)
b10001001 .
#7120
0$
0)
#7130
1$
1)
b10001010 .
#7140
0$
0)
#7150
1$
1)
b10001011 .
#7160
0$
0)
#7170
1$
1)
b10001100 .
#7180
0$
0)
#7190
1$
1)
b10001101 .
#7200
0$
0)
#7210
1$
1)
b10001110 .
#7220
0$
0)
#7230
1$
1)
b10001111 .
#7240
0$
0)
#7250
1$
1)
b10010000 .
#7260
0$
0)
#7270
1$
1)
b10010001 .
#7280
0$
0)
#7290
1$
1)
b10010010 .
#7300
0$
0)
#7310
1$
1)
b10010011 .
#7320
0$
0)
#7330
1$
1)
b10010100 .
#7340
0$
0)
#7350
1$
1)
b10010101 .
#7360
0$
0)
#7370
1$
1)
b10010110 .
#7380
0$
0)
#7390
1$
1)
b10010111 .
#7400
0$
0)
#7410
1$
1)
b10011000 .
#7420
0$
0)
#7430
1$
1)
b10011001 .
#7440
0$
0)
#7450
1$
1)
b10011010 .
#7460
0$
0)
#7470
1$
1)
b10011011 .
#7480
0$
0)
#7490
1$
1)
b10011100 .
#7500
0$
0)
#7510
1$
1)
b10011101 .
#7520
0$
0)
#7530
1$
1)
b10011110 .
#7540
0$
0)
#7550
1$
1)
b10011111 .
#7560
0$
0)
#7570
1$
1)
b10100000 .
#7580
0$
0)
#7590
1$
1)
b10100001 .
#7600
0$
0)
#7610
1$
1)
b10100010 .
#7620
0$
0)
#7630
1$
1)
b10100011 .
#7640
0$
0)
#7650
1$
1)
b10100100 .
#7660
0$
0)
#7670
1$
1)
b10100101 .
#7680
0$
0)
#7690
1$
1)
b10100110 .
#7700
0$
0)
#7710
1$
1)
b10100111 .
#7720
0$
0)
#7730
1$
1)
b10101000 .
#7740
0$
0)
#7750
1$
1)
b10101001 .
#7760
0$
0)
#7770
1$
1)
b10101010 .
#7780
0$
0)
#7790
1$
1)
b10101011 .
#7800
0$
0)
#7810
1$
1)
b10101100 .
#7820
0$
0)
#7830
1$
1)
b10101101 .
#7840
0$
0)
#7850
1$
1)
b10101110 .
#7860
0$
0)
#7870
1$
1)
b10101111 .
#7880
0$
0)
#7890
1$
1)
b10110000 .
#7900
0$
0)
#7910
1$
1)
b10110001 .
#7920
0$
0)
#7930
1$
1)
b10110010 .
#7940
0$
0)
#7950
1$
1)
b10110011 .
#7960
0$
0)
#7970
1$
1)
b10110100 .
#7980
0$
0)
#7990
1$
1)
b10110101 .
#8000
0$
0)
#8010
1$
1)
b10110110 .
#8020
0$
0)
#8030
1$
1)
b10110111 .
#8040
0$
0)
#8050
1$
1)
b10111000 .
#8060
0$
0)
#8070
1$
1)
b10111001 .
#8080
0$
0)
#8090
1$
1)
b10111010 .
#8100
0$
0)
#8110
1$
1)
b10111011 .
#8120
0$
0)
#8130
1$
1)
b10111100 .
#8140
0$
0)
#8150
1$
1)
b10111101 .
#8160
0$
0)
#8170
1$
1)
b10111110 .
#8180
0$
0)
#8190
1$
1)
b10111111 .
#8200
0$
0)
#8210
1$
1)
b11000000 .
#8220
0$
0)
#8230
1$
1)
b11000001 .
#8240
0$
0)
#8250
1$
1)
b11000010 .
#8260
0$
0)
#8270
1$
1)
b11000011 .
#8280
0$
0)
#8290
1$
1)
b11000100 .
#8300
0$
0)
#8310
1$
1)
b11000101 .
#8320
0$
0)
#8330
1$
1)
b11000110 .
#8340
0$
0)
#8350
1$
1)
b11000111 .
#8360
0$
0)
#8370
1$
1)
b11001000 .
#8380
0$
0)
#8390
1$
1)
b11001001 .
#8400
0$
0)
#8410
1$
1)
b11001010 .
#8420
0$
0)
#8430
1$
1)
b11001011 .
#8440
0$
0)
#8450
1$
1)
b11001100 .
#8460
0$
0)
#8470
1$
1)
b11001101 .
#8480
0$
0)
#8490
1$
1)
b11001110 .
#8500
0$
0)
#8510
1$
1)
b11001111 .
#8520
0$
0)
#8530
1$
1)
b11010000 .
#8540
0$
0)
#8550
1$
1)
b11010001 .
#8560
0$
0)
#8570
1$
1)
b11010010 .
#8580
0$
0)
#8590
1$
1)
b11010011 .
#8600
0$
0)
#8610
1$
1)
b11010100 .
#8620
0$
0)
#8630
1$
1)
b11010101 .
#8640
0$
0)
#8650
1$
1)
b11010110 .
#8660
0$
0)
#8670
1$
1)
b11010111 .
#8680
0$
0)
#8690
1$
1)
b11011000 .
#8700
0$
0)
#8710
1$
1)
b11011001 .
#8720
0$
0)
#8730
1$
1)
b11011010 .
#8740
0$
0)
#8750
1$
1)
b11011011 .
#8760
0$
0)
#8770
1$
1)
b11011100 .
#8780
0$
0)
#8790
1$
1)
b11011101 .
#8800
0$
0)
#8810
1$
1)
b11011110 .
#8820
0$
0)
#8830
1$
1)
b11011111 .
#8840
0$
0)
#8850
1$
1)
b11100000 .
#8860
0$
0)
#8870
1$
1)
b11100001 .
#8880
0$
0)
#8890
1$
1)
b11100010 .
#8900
0$
0)
#8910
1$
1)
b11100011 .
#8920
0$
0)
#8930
1$
1)
b11100100 .
#8940
0$
0)
#8950
1$
1)
b11100101 .
#8960
0$
0)
#8970
1$
1)
b11100110 .
#8980
0$
0)
#8990
1$
1)
b11100111 .
#9000
0$
0)
#9010
1$
1)
b11101000 .
#9020
0$
0)
#9030
1$
1)
b11101001 .
#9040
0$
0)
#9050
1$
1)
b11101010 .
#9060
0$
0)
#9070
1$
1)
b11101011 .
#9080
0$
0)
#9090
1$
1)
b11101100 .
#9100
0$
0)
#9110
1$
1)
b11101101 .
#9120
0$
0)
#9130
1$
1)
b11101110 .
#9140
0$
0)
#9150
1$
1)
b11101111 .
#9160
0$
0)
#9170
1$
1)
b11110000 .
#9180
0$
0)
#9190
1$
1)
b11110001 .
#9200
0$
0)
#9210
1$
1)
b11110010 .
#9220
0$
0)
#9230
1$
1)
b11110011 .
#9240
0$
0)
#9250
1$
1)
b11110100 .
#9260
0$
0)
#9270
1$
1)
b11110101 .
#9280
0$
0)
#9290
1$
1)
b11110110 .
#9300
0$
0)
#9310
1$
1)
b11110111 .
#9320
0$
0)
#9330
1$
1)
b11111000 .
#9340
0$
0)
#9350
1$
1)
b11111001 .
#9360
0$
0)
#9370
1$
1)
b11111010 .
#9380
0$
0)
#9390
1$
1)
b11111011 .
#9400
0$
0)
#9410
1$
1)
b11111100 .
#9420
0$
0)
#9430
1$
1)
b11111101 .
#9440
0$
0)
#9450
1$
1)
b11111110 .
#9460
0$
0)
#9470
1$
1)
b11111111 .
#9480
0$
0)
#9490
1$
1)
b0 .
#9500
0$
0)
#9510
1$
1)
b1 .
#9520
0$
0)
#9530
1$
1)
b10 .
#9540
0$
0)
#9550
1$
1)
b11 .
#9560
0$
0)
#9570
1$
1)
b100 .
#9580
0$
0)
#9590
1$
1)
b101 .
#9600
0$
0)
#9610
1$
1)
b110 .
#9620
0$
0)
#9630
1$
1)
b111 .
#9640
0$
0)
#9650
1$
1)
b1000 .
#9660
0$
0)
#9670
1$
1)
b1001 .
#9680
0$
0)
#9690
1%
1$
1*
1)
b1010 .
#9700
0$
0)
#9710
1$
1)
b1011 .
#9720
0$
0)
#9730
1$
1)
b1100 .
#9740
0$
0)
#9750
1$
1)
b1101 .
#9760
0$
0)
#9770
1$
1)
b1110 .
#9780
0$
0)
#9790
1$
1)
b1111 .
#9800
0$
0)
#9810
1$
1)
b10000 .
#9820
0$
0)
#9830
1$
1)
b10001 .
#9840
0$
0)
#9850
1$
1)
b10010 .
#9860
0$
0)
#9870
1$
1)
b10011 .
#9880
0$
0)
#9890
1$
1)
b10100 .
#9900
0$
0)
#9910
1$
1)
b10101 .
#9920
0$
0)
#9930
1$
1)
b10110 .
#9940
0$
0)
#9950
1$
1)
b10111 .
#9960
0$
0)
#9970
1$
1)
b11000 .
#9980
0$
0)
#9990
1$
1)
b11001 .
#10000
0$
0)
#10010
1$
1)
b11010 .
#10020
0$
0)
#10030
1$
1)
b11011 .
#10040
0$
0)
#10050
1$
1)
b11100 .
#10060
0$
0)
#10070
1$
1)
b11101 .
#10080
0$
0)
#10090
1$
1)
b11110 .
#10100
0$
0)
#10110
1$
1)
b11111 .
#10120
0$
0)
#10130
1$
1)
b100000 .
#10140
0$
0)
#10150
1$
1)
b100001 .
#10160
0$
0)
#10170
1$
1)
b100010 .
#10180
0$
0)
#10190
1$
1)
b100011 .
#10200
0$
0)
#10210
1$
1)
b100100 .
#10220
0$
0)
#10230
1$
1)
b100101 .
#10240
0$
0)
#10250
1$
1)
b100110 .
#10260
0$
0)
#10270
1$
1)
b100111 .
#10280
0$
0)
#10290
1$
1)
b101000 .
#10300
0$
0)
#10310
1$
1)
b101001 .
#10320
0$
0)
#10330
1$
1)
b101010 .
#10340
0$
0)
#10350
1$
1)
b101011 .
#10360
0$
0)
#10370
1$
1)
b101100 .
#10380
0$
0)
#10390
1$
1)
b101101 .
#10400
0$
0)
#10410
1$
1)
b101110 .
#10420
0$
0)
#10430
1$
1)
b101111 .
#10440
0$
0)
#10450
1$
1)
b110000 .
#10460
0$
0)
#10470
1$
1)
b110001 .
#10480
0$
0)
#10490
1$
1)
b110010 .
#10500
0$
0)
#10510
1$
1)
b110011 .
#10520
0$
0)
#10530
1$
1)
b110100 .
#10540
0$
0)
#10550
1$
1)
b110101 .
#10560
0$
0)
#10570
1$
1)
b110110 .
#10580
0$
0)
#10590
1$
1)
b110111 .
#10600
0$
0)
#10610
1$
1)
b111000 .
#10620
0$
0)
#10630
1$
1)
b111001 .
#10640
0$
0)
#10650
1$
1)
b111010 .
#10660
0$
0)
#10670
1$
1)
b111011 .
#10680
0$
0)
#10690
1$
1)
b111100 .
#10700
0$
0)
#10710
1$
1)
b111101 .
#10720
0$
0)
#10730
1$
1)
b111110 .
#10740
0$
0)
#10750
1$
1)
b111111 .
#10760
0$
0)
#10770
1$
1)
b1000000 .
#10780
0$
0)
#10790
1$
1)
b1000001 .
#10800
0$
0)
#10810
1$
1)
b1000010 .
#10820
0$
0)
#10830
1$
1)
b1000011 .
#10840
0$
0)
#10850
1$
1)
b1000100 .
#10860
0$
0)
