UART/UART_modelsim_proj/dump.vcd
$date
	Tue Apr 15 14:06:06 2025
$end
$version
	ModelSim Version 2020.1
$end
$timescale
	1ps
$end

$scope module UART_Tx_tb $end
$var parameter 32 ! c_FPGA_clk_freq $end
$var parameter 32 " c_baudrate $end
$var parameter 32 # c_CLOCK_PERIOD_NS $end
$var parameter 32 $ c_BIT_PERIOD $end
$var reg 1 % clk $end
$var reg 1 & rst $end
$var reg 1 ' TX_DV $end
$var reg 1 ( RX_DV $end
$var reg 1 ) TX_Active $end
$var reg 1 * UART_Line $end
$var reg 1 + TX_Serial $end
$var reg 8 , TX_Byte [7:0] $end
$var reg 8 - RX_Byte [7:0] $end

$scope module UART_RX_INST_l $end
$var parameter 32 . FPGA_clk_freq $end
$var parameter 32 / baudrate $end
$var parameter 32 0 CLKS_PER_BIT $end
$var wire 1 1 clk $end
$var wire 1 2 rst $end
$var wire 1 3 i_RX_Serial $end
$var reg 1 4 o_RX_DV $end
$var reg 8 5 o_RX_Byte [7:0] $end
$var reg 3 6 state_r [2:0] $end
$var reg 10 7 Clock_Count_r [9:0] $end
$var reg 3 8 Bit_Index_r [2:0] $end
$var reg 8 9 RX_Byte_r [7:0] $end
$var reg 1 : RX_DV_r $end
$var reg 14 ; timeout_counter [13:0] $end
$var reg 1 < timeout $end
$upscope $end

$scope module UART_TX_INST_l $end
$var parameter 32 = FPGA_clk_freq $end
$var parameter 32 > baudrate $end
$var parameter 32 ? CLKS_PER_BIT $end
$var wire 1 @ clk $end
$var wire 1 A rst $end
$var wire 1 B i_TX_DV $end
$var wire 1 C i_TX_Byte [7] $end
$var wire 1 D i_TX_Byte [6] $end
$var wire 1 E i_TX_Byte [5] $end
$var wire 1 F i_TX_Byte [4] $end
$var wire 1 G i_TX_Byte [3] $end
$var wire 1 H i_TX_Byte [2] $end
$var wire 1 I i_TX_Byte [1] $end
$var wire 1 J i_TX_Byte [0] $end
$var reg 1 K o_TX_Active $end
$var reg 1 L o_TX_Serial $end
$var reg 1 M o_TX_Done $end
$var reg 3 N state_r [2:0] $end
$var reg 10 O Clock_Count_r [9:0] $end
$var reg 3 P Bit_Index_r [2:0] $end
$var reg 8 Q TX_Data_r [7:0] $end
$var reg 1 R TX_Active_r $end
$var reg 1 S TX_Done_r $end
$upscope $end
$upscope $end
$enddefinitions $end
#0
$dumpvars
0%
0&
0'
0(
0)
1*
x+
b0 ,
b0 -
04
b0 5
b0 6
b0 7
b0 8
b0 9
0:
b0 ;
x<
0K
xL
0M
b0 N
b0 O
b0 P
b0 Q
0R
0S
b10111110101111000010000000 !
b11100001000000000 "
b10100 #
b10000111101000 $
b10111110101111000010000000 .
b11100001000000000 /
b110110010 0
b10111110101111000010000000 =
b11100001000000000 >
b110110010 ?
01
02
13
0@
0A
0B
0J
0I
0H
0G
0F
0E
0D
0C
$end
#10000
1%
1@
11
0<
1L
1+
#20000
0%
0@
01
#30000
1%
1@
11
1'
b110111 ,
1B
1J
1I
1H
1F
1E
#40000
0%
0@
01
#50000
1%
1@
11
1R
b110111 Q
b1 N
0'
1K
0B
1)
#60000
0%
0@
01
#70000
1%
1@
11
0L
b1 O
0+
0*
03
#80000
0%
0@
01
#90000
1%
1@
11
b1 6
b10 O
#100000
0%
0@
01
#110000
1%
1@
11
b1 ;
b1 7
b11 O
#120000
0%
0@
01
#130000
1%
1@
11
b10 ;
b10 7
b100 O
#140000
0%
0@
01
#150000
1%
1@
11
b11 ;
b11 7
b101 O
#160000
0%
0@
01
#170000
1%
1@
11
b100 ;
b100 7
b110 O
#180000
0%
0@
01
#190000
1%
1@
11
b101 ;
b101 7
b111 O
#200000
0%
0@
01
#210000
1%
1@
11
b110 ;
b110 7
b1000 O
#220000
0%
0@
01
#230000
1%
1@
11
b111 ;
b111 7
b1001 O
#240000
0%
0@
01
#250000
1%
1@
11
b1000 ;
b1000 7
b1010 O
#260000
0%
0@
01
#270000
1%
1@
11
b1001 ;
b1001 7
b1011 O
#280000
0%
0@
01
#290000
1%
1@
11
b1010 ;
b1010 7
b1100 O
#300000
0%
0@
01
#310000
1%
1@
11
b1011 ;
b1011 7
b1101 O
#320000
0%
0@
01
#330000
1%
1@
11
b1100 ;
b1100 7
b1110 O
#340000
0%
0@
01
#350000
1%
1@
11
b1101 ;
b1101 7
b1111 O
#360000
0%
0@
01
#370000
1%
1@
11
b1110 ;
b1110 7
b10000 O
#380000
0%
0@
01
#390000
1%
1@
11
b1111 ;
b1111 7
b10001 O
#400000
0%
0@
01
#410000
1%
1@
11
b10000 ;
b10000 7
b10010 O
#420000
0%
0@
01
#430000
1%
1@
11
b10001 ;
b10001 7
b10011 O
#440000
0%
0@
01
#450000
1%
1@
11
b10010 ;
b10010 7
b10100 O
#460000
0%
0@
01
#470000
1%
1@
11
b10011 ;
b10011 7
b10101 O
#480000
0%
0@
01
#490000
1%
1@
11
b10100 ;
b10100 7
b10110 O
#500000
0%
0@
01
#510000
1%
1@
11
b10101 ;
b10101 7
b10111 O
#520000
0%
0@
01
#530000
1%
1@
11
b10110 ;
b10110 7
b11000 O
#540000
0%
0@
01
#550000
1%
1@
11
b10111 ;
b10111 7
b11001 O
#560000
0%
0@
01
#570000
1%
1@
11
b11000 ;
b11000 7
b11010 O
#580000
0%
0@
01
#590000
1%
1@
11
b11001 ;
b11001 7
b11011 O
#600000
0%
0@
01
#610000
1%
1@
11
b11010 ;
b11010 7
b11100 O
#620000
0%
0@
01
#630000
1%
1@
11
b11011 ;
b11011 7
b11101 O
#640000
0%
0@
01
#650000
1%
1@
11
b11100 ;
b11100 7
b11110 O
#660000
0%
0@
01
#670000
1%
1@
11
b11101 ;
b11101 7
b11111 O
#680000
0%
0@
01
#690000
1%
1@
11
b11110 ;
b11110 7
b100000 O
#700000
0%
0@
01
#710000
1%
1@
11
b11111 ;
b11111 7
b100001 O
#720000
0%
0@
01
#730000
1%
1@
11
b100000 ;
b100000 7
b100010 O
#740000
0%
0@
01
#750000
1%
1@
11
b100001 ;
b100001 7
b100011 O
#760000
0%
0@
01
#770000
1%
1@
11
b100010 ;
b100010 7
b100100 O
#780000
0%
0@
01
#790000
1%
1@
11
b100011 ;
b100011 7
b100101 O
#800000
0%
0@
01
#810000
1%
1@
11
b100100 ;
b100100 7
b100110 O
#820000
0%
0@
01
#830000
1%
1@
11
b100101 ;
b100101 7
b100111 O
#840000
0%
0@
01
#850000
1%
1@
11
b100110 ;
b100110 7
b101000 O
#860000
0%
0@
01
#870000
1%
1@
11
b100111 ;
b100111 7
b101001 O
#880000
0%
0@
01
#890000
1%
1@
11
b101000 ;
b101000 7
b101010 O
#900000
0%
0@
01
#910000
1%
1@
11
b101001 ;
b101001 7
b101011 O
#920000
0%
0@
01
#930000
1%
1@
11
b101010 ;
b101010 7
b101100 O
#940000
0%
0@
01
#950000
1%
1@
11
b101011 ;
b101011 7
b101101 O
#960000
0%
0@
01
#970000
1%
1@
11
b101100 ;
b101100 7
b101110 O
#980000
0%
0@
01
#990000
1%
1@
11
b101101 ;
b101101 7
b101111 O
#1000000
0%
0@
01
#1010000
1%
1@
11
b101110 ;
b101110 7
b110000 O
#1020000
0%
0@
01
#1030000
1%
1@
11
b101111 ;
b101111 7
b110001 O
#1040000
0%
0@
01
#1050000
1%
1@
11
b110000 ;
b110000 7
b110010 O
#1060000
0%
0@
01
#1070000
1%
1@
11
b110001 ;
b110001 7
b110011 O
#1080000
0%
0@
01
#1090000
1%
1@
11
b110010 ;
b110010 7
b110100 O
#1100000
0%
0@
01
#1110000
1%
1@
11
b110011 ;
b110011 7
b110101 O
#1120000
0%
0@
01
#1130000
1%
1@
11
b110100 ;
b110100 7
b110110 O
#1140000
0%
0@
01
#1150000
1%
1@
11
b110101 ;
b110101 7
b110111 O
#1160000
0%
0@
01
#1170000
1%
1@
11
b110110 ;
b110110 7
b111000 O
#1180000
0%
0@
01
#1190000
1%
1@
11
b110111 ;
b110111 7
b111001 O
#1200000
0%
0@
01
#1210000
1%
1@
11
b111000 ;
b111000 7
b111010 O
#1220000
0%
0@
01
#1230000
1%
1@
11
b111001 ;
b111001 7
b111011 O
#1240000
0%
0@
01
#1250000
1%
1@
11
b111010 ;
b111010 7
b111100 O
#1260000
0%
0@
01
#1270000
1%
1@
11
b111011 ;
b111011 7
b111101 O
#1280000
0%
0@
01
#1290000
1%
1@
11
b111100 ;
b111100 7
b111110 O
#1300000
0%
0@
01
#1310000
1%
1@
11
b111101 ;
b111101 7
b111111 O
#1320000
0%
0@
01
#1330000
1%
1@
11
b111110 ;
b111110 7
b1000000 O
#1340000
0%
0@
01
#1350000
1%
1@
11
b111111 ;
b111111 7
b1000001 O
#1360000
0%
0@
01
#1370000
1%
1@
11
b1000000 ;
b1000000 7
b1000010 O
#1380000
0%
0@
01
#1390000
1%
1@
11
b1000001 ;
b1000001 7
b1000011 O
#1400000
0%
0@
01
#1410000
1%
1@
11
b1000010 ;
b1000010 7
b1000100 O
#1420000
0%
0@
01
#1430000
1%
1@
11
b1000011 ;
b1000011 7
b1000101 O
#1440000
0%
0@
01
#1450000
1%
1@
11
b1000100 ;
b1000100 7
b1000110 O
#1460000
0%
0@
01
#1470000
1%
1@
11
b1000101 ;
b1000101 7
b1000111 O
#1480000
0%
0@
01
#1490000
1%
1@
11
b1000110 ;
b1000110 7
b1001000 O
#1500000
0%
0@
01
#1510000
1%
1@
11
b1000111 ;
b1000111 7
b1001001 O
#1520000
0%
0@
01
#1530000
1%
1@
11
b1001000 ;
b1001000 7
b1001010 O
#1540000
0%
0@
01
#1550000
1%
1@
11
b1001001 ;
b1001001 7
b1001011 O
#1560000
0%
0@
01
#1570000
1%
1@
11
b1001010 ;
b1001010 7
b1001100 O
#1580000
0%
0@
01
#1590000
1%
1@
11
b1001011 ;
b1001011 7
b1001101 O
#1600000
0%
0@
01
#1610000
1%
1@
11
b1001100 ;
b1001100 7
b1001110 O
#1620000
0%
0@
01
#1630000
1%
1@
11
b1001101 ;
b1001101 7
b1001111 O
#1640000
0%
0@
01
#1650000
1%
1@
11
b1001110 ;
b1001110 7
b1010000 O
#1660000
0%
0@
01
#1670000
1%
1@
11
b1001111 ;
b1001111 7
b1010001 O
#1680000
0%
0@
01
#1690000
1%
1@
11
b1010000 ;
b1010000 7
b1010010 O
#1700000
0%
0@
01
#1710000
1%
1@
11
b1010001 ;
b1010001 7
b1010011 O
#1720000
0%
0@
01
#1730000
1%
1@
11
b1010010 ;
b1010010 7
b1010100 O
#1740000
0%
0@
01
#1750000
1%
1@
11
b1010011 ;
b1010011 7
b1010101 O
#1760000
0%
0@
01
#1770000
1%
1@
11
b1010100 ;
b1010100 7
b1010110 O
#1780000
0%
0@
01
#1790000
1%
1@
11
b1010101 ;
b1010101 7
b1010111 O
#1800000
0%
0@
01
#1810000
1%
1@
11
b1010110 ;
b1010110 7
b1011000 O
#1820000
0%
0@
01
#1830000
1%
1@
11
b1010111 ;
b1010111 7
b1011001 O
#1840000
0%
0@
01
#1850000
1%
1@
11
b1011000 ;
b1011000 7
b1011010 O
#1860000
0%
0@
01
#1870000
1%
1@
11
b1011001 ;
b1011001 7
b1011011 O
#1880000
0%
0@
01
#1890000
1%
1@
11
b1011010 ;
b1011010 7
b1011100 O
#1900000
0%
0@
01
#1910000
1%
1@
11
b1011011 ;
b1011011 7
b1011101 O
#1920000
0%
0@
01
#1930000
1%
1@
11
b1011100 ;
b1011100 7
b1011110 O
#1940000
0%
0@
01
#1950000
1%
1@
11
b1011101 ;
b1011101 7
b1011111 O
#1960000
0%
0@
01
#1970000
1%
1@
11
b1011110 ;
b1011110 7
b1100000 O
#1980000
0%
0@
01
#1990000
1%
1@
11
b1011111 ;
b1011111 7
b1100001 O
#2000000
0%
0@
01
#2010000
1%
1@
11
b1100000 ;
b1100000 7
b1100010 O
#2020000
0%
0@
01
#2030000
1%
1@
11
b1100001 ;
b1100001 7
b1100011 O
#2040000
0%
0@
01
#2050000
1%
1@
11
b1100010 ;
b1100010 7
b1100100 O
#2060000
0%
0@
01
#2070000
1%
1@
11
b1100011 ;
b1100011 7
b1100101 O
#2080000
0%
0@
01
#2090000
1%
1@
11
b1100100 ;
b1100100 7
b1100110 O
#2100000
0%
0@
01
#2110000
1%
1@
11
b1100101 ;
b1100101 7
b1100111 O
#2120000
0%
0@
01
#2130000
1%
1@
11
b1100110 ;
b1100110 7
b1101000 O
#2140000
0%
0@
01
#2150000
1%
1@
11
b1100111 ;
b1100111 7
b1101001 O
#2160000
0%
0@
01
#2170000
1%
1@
11
b1101000 ;
b1101000 7
b1101010 O
#2180000
0%
0@
01
#2190000
1%
1@
11
b1101001 ;
b1101001 7
b1101011 O
#2200000
0%
0@
01
#2210000
1%
1@
11
b1101010 ;
b1101010 7
b1101100 O
#2220000
0%
0@
01
#2230000
1%
1@
11
b1101011 ;
b1101011 7
b1101101 O
#2240000
0%
0@
01
#2250000
1%
1@
11
b1101100 ;
b1101100 7
b1101110 O
#2260000
0%
0@
01
#2270000
1%
1@
11
b1101101 ;
b1101101 7
b1101111 O
#2280000
0%
0@
01
#2290000
1%
1@
11
b1101110 ;
b1101110 7
b1110000 O
#2300000
0%
0@
01
#2310000
1%
1@
11
b1101111 ;
b1101111 7
b1110001 O
#2320000
0%
0@
01
#2330000
1%
1@
11
b1110000 ;
b1110000 7
b1110010 O
#2340000
0%
0@
01
#2350000
1%
1@
11
b1110001 ;
b1110001 7
b1110011 O
#2360000
0%
0@
01
#2370000
1%
1@
11
b1110010 ;
b1110010 7
b1110100 O
#2380000
0%
0@
01
#2390000
1%
1@
11
b1110011 ;
b1110011 7
b1110101 O
#2400000
0%
0@
01
#2410000
1%
1@
11
b1110100 ;
b1110100 7
b1110110 O
#2420000
0%
0@
01
#2430000
1%
1@
11
b1110101 ;
b1110101 7
b1110111 O
#2440000
0%
0@
01
#2450000
1%
1@
11
b1110110 ;
b1110110 7
b1111000 O
#2460000
0%
0@
01
#2470000
1%
1@
11
b1110111 ;
b1110111 7
b1111001 O
#2480000
0%
0@
01
#2490000
1%
1@
11
b1111000 ;
b1111000 7
b1111010 O
#2500000
0%
0@
01
#2510000
1%
1@
11
b1111001 ;
b1111001 7
b1111011 O
#2520000
0%
0@
01
#2530000
1%
1@
11
b1111010 ;
b1111010 7
b1111100 O
#2540000
0%
0@
01
#2550000
1%
1@
11
b1111011 ;
b1111011 7
b1111101 O
#2560000
0%
0@
01
#2570000
1%
1@
11
b1111100 ;
b1111100 7
b1111110 O
#2580000
0%
0@
01
#2590000
1%
1@
11
b1111101 ;
b1111101 7
b1111111 O
#2600000
0%
0@
01
#2610000
1%
1@
11
b1111110 ;
b1111110 7
b10000000 O
#2620000
0%
0@
01
#2630000
1%
1@
11
b1111111 ;
b1111111 7
b10000001 O
#2640000
0%
0@
01
#2650000
1%
1@
11
b10000000 ;
b10000000 7
b10000010 O
#2660000
0%
0@
01
#2670000
1%
1@
11
b10000001 ;
b10000001 7
b10000011 O
#2680000
0%
0@
01
#2690000
1%
1@
11
b10000010 ;
b10000010 7
b10000100 O
#2700000
0%
0@
01
#2710000
1%
1@
11
b10000011 ;
b10000011 7
b10000101 O
#2720000
0%
0@
01
#2730000
1%
1@
11
b10000100 ;
b10000100 7
b10000110 O
#2740000
0%
0@
01
#2750000
1%
1@
11
b10000101 ;
b10000101 7
b10000111 O
#2760000
0%
0@
01
#2770000
1%
1@
11
b10000110 ;
b10000110 7
b10001000 O
#2780000
0%
0@
01
#2790000
1%
1@
11
b10000111 ;
b10000111 7
b10001001 O
#2800000
0%
0@
01
#2810000
1%
1@
11
b10001000 ;
b10001000 7
b10001010 O
#2820000
0%
0@
01
#2830000
1%
1@
11
b10001001 ;
b10001001 7
b10001011 O
#2840000
0%
0@
01
#2850000
1%
1@
11
b10001010 ;
b10001010 7
b10001100 O
#2860000
0%
0@
01
#2870000
1%
1@
11
b10001011 ;
b10001011 7
b10001101 O
#2880000
0%
0@
01
#2890000
1%
1@
11
b10001100 ;
b10001100 7
b10001110 O
#2900000
0%
0@
01
#2910000
1%
1@
11
b10001101 ;
b10001101 7
b10001111 O
#2920000
0%
0@
01
#2930000
1%
1@
11
b10001110 ;
b10001110 7
b10010000 O
#2940000
0%
0@
01
#2950000
1%
1@
11
b10001111 ;
b10001111 7
b10010001 O
#2960000
0%
0@
01
#2970000
1%
1@
11
b10010000 ;
b10010000 7
b10010010 O
#2980000
0%
0@
01
#2990000
1%
1@
11
b10010001 ;
b10010001 7
b10010011 O
#3000000
0%
0@
01
#3010000
1%
1@
11
b10010010 ;
b10010010 7
b10010100 O
#3020000
0%
0@
01
#3030000
1%
1@
11
b10010011 ;
b10010011 7
b10010101 O
#3040000
0%
0@
01
#3050000
1%
1@
11
b10010100 ;
b10010100 7
b10010110 O
#3060000
0%
0@
01
#3070000
1%
1@
11
b10010101 ;
b10010101 7
b10010111 O
#3080000
0%
0@
01
#3090000
1%
1@
11
b10010110 ;
b10010110 7
b10011000 O
#3100000
0%
0@
01
#3110000
1%
1@
11
b10010111 ;
b10010111 7
b10011001 O
#3120000
0%
0@
01
#3130000
1%
1@
11
b10011000 ;
b10011000 7
b10011010 O
#3140000
0%
0@
01
#3150000
1%
1@
11
b10011001 ;
b10011001 7
b10011011 O
#3160000
0%
0@
01
#3170000
1%
1@
11
b10011010 ;
b10011010 7
b10011100 O
#3180000
0%
0@
01
#3190000
1%
1@
11
b10011011 ;
b10011011 7
b10011101 O
#3200000
0%
0@
01
#3210000
1%
1@
11
b10011100 ;
b10011100 7
b10011110 O
#3220000
0%
0@
01
#3230000
1%
1@
11
b10011101 ;
b10011101 7
b10011111 O
#3240000
0%
0@
01
#3250000
1%
1@
11
b10011110 ;
b10011110 7
b10100000 O
#3260000
0%
0@
01
#3270000
1%
1@
11
b10011111 ;
b10011111 7
b10100001 O
#3280000
0%
0@
01
#3290000
1%
1@
11
b10100000 ;
b10100000 7
b10100010 O
#3300000
0%
0@
01
#3310000
1%
1@
11
b10100001 ;
b10100001 7
b10100011 O
#3320000
0%
0@
01
#3330000
1%
1@
11
b10100010 ;
b10100010 7
b10100100 O
#3340000
0%
0@
01
#3350000
1%
1@
11
b10100011 ;
b10100011 7
b10100101 O
#3360000
0%
0@
01
#3370000
1%
1@
11
b10100100 ;
b10100100 7
b10100110 O
#3380000
0%
0@
01
#3390000
1%
1@
11
b10100101 ;
b10100101 7
b10100111 O
#3400000
0%
0@
01
#3410000
1%
1@
11
b10100110 ;
b10100110 7
b10101000 O
#3420000
0%
0@
01
#3430000
1%
1@
11
b10100111 ;
b10100111 7
b10101001 O
#3440000
0%
0@
01
#3450000
1%
1@
11
b10101000 ;
b10101000 7
b10101010 O
#3460000
0%
0@
01
#3470000
1%
1@
11
b10101001 ;
b10101001 7
b10101011 O
#3480000
0%
0@
01
#3490000
1%
1@
11
b10101010 ;
b10101010 7
b10101100 O
#3500000
0%
0@
01
#3510000
1%
1@
11
b10101011 ;
b10101011 7
b10101101 O
#3520000
0%
0@
01
#3530000
1%
1@
11
b10101100 ;
b10101100 7
b10101110 O
#3540000
0%
0@
01
#3550000
1%
1@
11
b10101101 ;
b10101101 7
b10101111 O
#3560000
0%
0@
01
#3570000
1%
1@
11
b10101110 ;
b10101110 7
b10110000 O
#3580000
0%
0@
01
#3590000
1%
1@
11
b10101111 ;
b10101111 7
b10110001 O
#3600000
0%
0@
01
#3610000
1%
1@
11
b10110000 ;
b10110000 7
b10110010 O
#3620000
0%
0@
01
#3630000
1%
1@
11
b10110001 ;
b10110001 7
b10110011 O
#3640000
0%
0@
01
#3650000
1%
1@
11
b10110010 ;
b10110010 7
b10110100 O
#3660000
0%
0@
01
#3670000
1%
1@
11
b10110011 ;
b10110011 7
b10110101 O
#3680000
0%
0@
01
#3690000
1%
1@
11
b10110100 ;
b10110100 7
b10110110 O
#3700000
0%
0@
01
#3710000
1%
1@
11
b10110101 ;
b10110101 7
b10110111 O
#3720000
0%
0@
01
#3730000
1%
1@
11
b10110110 ;
b10110110 7
b10111000 O
#3740000
0%
0@
01
#3750000
1%
1@
11
b10110111 ;
b10110111 7
b10111001 O
#3760000
0%
0@
01
#3770000
1%
1@
11
b10111000 ;
b10111000 7
b10111010 O
#3780000
0%
0@
01
#3790000
1%
1@
11
b10111001 ;
b10111001 7
b10111011 O
#3800000
0%
0@
01
#3810000
1%
1@
11
b10111010 ;
b10111010 7
b10111100 O
#3820000
0%
0@
01
#3830000
1%
1@
11
b10111011 ;
b10111011 7
b10111101 O
#3840000
0%
0@
01
#3850000
1%
1@
11
b10111100 ;
b10111100 7
b10111110 O
#3860000
0%
0@
01
#3870000
1%
1@
11
b10111101 ;
b10111101 7
b10111111 O
#3880000
0%
0@
01
#3890000
1%
1@
11
b10111110 ;
b10111110 7
b11000000 O
#3900000
0%
0@
01
#3910000
1%
1@
11
b10111111 ;
b10111111 7
b11000001 O
#3920000
0%
0@
01
#3930000
1%
1@
11
b11000000 ;
b11000000 7
b11000010 O
#3940000
0%
0@
01
#3950000
1%
1@
11
b11000001 ;
b11000001 7
b11000011 O
#3960000
0%
0@
01
#3970000
1%
1@
11
b11000010 ;
b11000010 7
b11000100 O
#3980000
0%
0@
01
#3990000
1%
1@
11
b11000011 ;
b11000011 7
b11000101 O
#4000000
0%
0@
01
#4010000
1%
1@
11
b11000100 ;
b11000100 7
b11000110 O
#4020000
0%
0@
01
#4030000
1%
1@
11
b11000101 ;
b11000101 7
b11000111 O
#4040000
0%
0@
01
#4050000
1%
1@
11
b11000110 ;
b11000110 7
b11001000 O
#4060000
0%
0@
01
#4070000
1%
1@
11
b11000111 ;
b11000111 7
b11001001 O
#4080000
0%
0@
01
#4090000
1%
1@
11
b11001000 ;
b11001000 7
b11001010 O
#4100000
0%
0@
01
#4110000
1%
1@
11
b11001001 ;
b11001001 7
b11001011 O
#4120000
0%
0@
01
#4130000
1%
1@
11
b11001010 ;
b11001010 7
b11001100 O
#4140000
0%
0@
01
#4150000
1%
1@
11
b11001011 ;
b11001011 7
b11001101 O
#4160000
0%
0@
01
#4170000
1%
1@
11
b11001100 ;
b11001100 7
b11001110 O
#4180000
0%
0@
01
#4190000
1%
1@
11
b11001101 ;
b11001101 7
b11001111 O
#4200000
0%
0@
01
#4210000
1%
1@
11
b11001110 ;
b11001110 7
b11010000 O
#4220000
0%
0@
01
#4230000
1%
1@
11
b11001111 ;
b11001111 7
b11010001 O
#4240000
0%
0@
01
#4250000
1%
1@
11
b11010000 ;
b11010000 7
b11010010 O
#4260000
0%
0@
01
#4270000
1%
1@
11
b11010001 ;
b11010001 7
b11010011 O
#4280000
0%
0@
01
#4290000
1%
1@
11
b11010010 ;
b11010010 7
b11010100 O
#4300000
0%
0@
01
#4310000
1%
1@
11
b11010011 ;
b11010011 7
b11010101 O
#4320000
0%
0@
01
#4330000
1%
1@
11
b11010100 ;
b11010100 7
b11010110 O
#4340000
0%
0@
01
#4350000
1%
1@
11
b11010101 ;
b11010101 7
b11010111 O
#4360000
0%
0@
01
#4370000
1%
1@
11
b11010110 ;
b11010110 7
b11011000 O
#4380000
0%
0@
01
#4390000
1%
1@
11
b11010111 ;
b11010111 7
b11011001 O
#4400000
0%
0@
01
#4410000
1%
1@
11
b11011000 ;
b11011000 7
b11011010 O
#4420000
0%
0@
01
#4430000
1%
1@
11
b11011001 ;
b0 7
b10 6
b11011011 O
#4440000
0%
0@
01
#4450000
1%
1@
11
b11011010 ;
b1 7
b11011100 O
#4460000
0%
0@
01
#4470000
1%
1@
11
b11011011 ;
b10 7
b11011101 O
#4480000
0%
0@
01
#4490000
1%
1@
11
b11011100 ;
b11 7
b11011110 O
#4500000
0%
0@
01
#4510000
1%
1@
11
b11011101 ;
b100 7
b11011111 O
#4520000
0%
0@
01
#4530000
1%
1@
11
b11011110 ;
b101 7
b11100000 O
#4540000
0%
0@
01
#4550000
1%
1@
11
b11011111 ;
b110 7
b11100001 O
#4560000
0%
0@
01
#4570000
1%
1@
11
b11100000 ;
b111 7
b11100010 O
#4580000
0%
0@
01
#4590000
1%
1@
11
b11100001 ;
b1000 7
b11100011 O
#4600000
0%
0@
01
#4610000
1%
1@
11
b11100010 ;
b1001 7
b11100100 O
#4620000
0%
0@
01
#4630000
1%
1@
11
b11100011 ;
b1010 7
b11100101 O
#4640000
0%
0@
01
#4650000
1%
1@
11
b11100100 ;
b1011 7
b11100110 O
#4660000
0%
0@
01
#4670000
1%
1@
11
b11100101 ;
b1100 7
b11100111 O
#4680000
0%
0@
01
#4690000
1%
1@
11
b11100110 ;
b1101 7
b11101000 O
#4700000
0%
0@
01
#4710000
1%
1@
11
b11100111 ;
b1110 7
b11101001 O
#4720000
0%
0@
01
#4730000
1%
1@
11
b11101000 ;
b1111 7
b11101010 O
#4740000
0%
0@
01
#4750000
1%
1@
11
b11101001 ;
b10000 7
b11101011 O
#4760000
0%
0@
01
#4770000
1%
1@
11
b11101010 ;
b10001 7
b11101100 O
#4780000
0%
0@
01
#4790000
1%
1@
11
b11101011 ;
b10010 7
b11101101 O
#4800000
0%
0@
01
#4810000
1%
1@
11
b11101100 ;
b10011 7
b11101110 O
#4820000
0%
0@
01
#4830000
1%
1@
11
b11101101 ;
b10100 7
b11101111 O
#4840000
0%
0@
01
#4850000
1%
1@
11
b11101110 ;
b10101 7
b11110000 O
#4860000
0%
0@
01
#4870000
1%
1@
11
b11101111 ;
b10110 7
b11110001 O
#4880000
0%
0@
01
#4890000
1%
1@
11
b11110000 ;
b10111 7
b11110010 O
#4900000
0%
0@
01
#4910000
1%
1@
11
b11110001 ;
b11000 7
b11110011 O
#4920000
0%
0@
01
#4930000
1%
1@
11
b11110010 ;
b11001 7
b11110100 O
#4940000
0%
0@
01
#4950000
1%
1@
11
b11110011 ;
b11010 7
b11110101 O
#4960000
0%
0@
01
#4970000
1%
1@
11
b11110100 ;
b11011 7
b11110110 O
#4980000
0%
0@
01
#4990000
1%
1@
11
b11110101 ;
b11100 7
b11110111 O
#5000000
0%
0@
01
#5010000
1%
1@
11
b11110110 ;
b11101 7
b11111000 O
#5020000
0%
0@
01
#5030000
1%
1@
11
b11110111 ;
b11110 7
b11111001 O
#5040000
0%
0@
01
#5050000
1%
1@
11
b11111000 ;
b11111 7
b11111010 O
#5060000
0%
0@
01
#5070000
1%
1@
11
b11111001 ;
b100000 7
b11111011 O
#5080000
0%
0@
01
#5090000
1%
1@
11
b11111010 ;
b100001 7
b11111100 O
#5100000
0%
0@
01
#5110000
1%
1@
11
b11111011 ;
b100010 7
b11111101 O
#5120000
0%
0@
01
#5130000
1%
1@
11
b11111100 ;
b100011 7
b11111110 O
#5140000
0%
0@
01
#5150000
1%
1@
11
b11111101 ;
b100100 7
b11111111 O
#5160000
0%
0@
01
#5170000
1%
1@
11
b11111110 ;
b100101 7
b100000000 O
#5180000
0%
0@
01
#5190000
1%
1@
11
b11111111 ;
b100110 7
b100000001 O
#5200000
0%
0@
01
#5210000
1%
1@
11
b100000000 ;
b100111 7
b100000010 O
#5220000
0%
0@
01
#5230000
1%
1@
11
b100000001 ;
b101000 7
b100000011 O
#5240000
0%
0@
01
#5250000
1%
1@
11
b100000010 ;
b101001 7
b100000100 O
#5260000
0%
0@
01
#5270000
1%
1@
11
b100000011 ;
b101010 7
b100000101 O
#5280000
0%
0@
01
#5290000
1%
1@
11
b100000100 ;
b101011 7
b100000110 O
#5300000
0%
0@
01
#5310000
1%
1@
11
b100000101 ;
b101100 7
b100000111 O
#5320000
0%
0@
01
#5330000
1%
1@
11
b100000110 ;
b101101 7
b100001000 O
#5340000
0%
0@
01
#5350000
1%
1@
11
b100000111 ;
b101110 7
b100001001 O
#5360000
0%
0@
01
#5370000
1%
1@
11
b100001000 ;
b101111 7
b100001010 O
#5380000
0%
0@
01
#5390000
1%
1@
11
b100001001 ;
b110000 7
b100001011 O
#5400000
0%
0@
01
#5410000
1%
1@
11
b100001010 ;
b110001 7
b100001100 O
#5420000
0%
0@
01
#5430000
1%
1@
11
b100001011 ;
b110010 7
b100001101 O
#5440000
0%
0@
01
#5450000
1%
1@
11
b100001100 ;
b110011 7
b100001110 O
#5460000
0%
0@
01
#5470000
1%
1@
11
b100001101 ;
b110100 7
b100001111 O
#5480000
0%
0@
01
#5490000
1%
1@
11
b100001110 ;
b110101 7
b100010000 O
#5500000
0%
0@
01
#5510000
1%
1@
11
b100001111 ;
b110110 7
b100010001 O
#5520000
0%
0@
01
#5530000
1%
1@
11
b100010000 ;
b110111 7
b100010010 O
#5540000
0%
0@
01
#5550000
1%
1@
11
b100010001 ;
b111000 7
b100010011 O
#5560000
0%
0@
01
#5570000
1%
1@
11
b100010010 ;
b111001 7
b100010100 O
#5580000
0%
0@
01
#5590000
1%
1@
11
b100010011 ;
b111010 7
b100010101 O
#5600000
0%
0@
01
#5610000
1%
1@
11
b100010100 ;
b111011 7
b100010110 O
#5620000
0%
0@
01
#5630000
1%
1@
11
b100010101 ;
b111100 7
b100010111 O
#5640000
0%
0@
01
#5650000
1%
1@
11
b100010110 ;
b111101 7
b100011000 O
#5660000
0%
0@
01
#5670000
1%
1@
11
b100010111 ;
b111110 7
b100011001 O
#5680000
0%
0@
01
#5690000
1%
1@
11
b100011000 ;
b111111 7
b100011010 O
#5700000
0%
0@
01
#5710000
1%
1@
11
b100011001 ;
b1000000 7
b100011011 O
#5720000
0%
0@
01
#5730000
1%
1@
11
b100011010 ;
b1000001 7
b100011100 O
#5740000
0%
0@
01
#5750000
1%
1@
11
b100011011 ;
b1000010 7
b100011101 O
#5760000
0%
0@
01
#5770000
1%
1@
11
b100011100 ;
b1000011 7
b100011110 O
#5780000
0%
0@
01
#5790000
1%
1@
11
b100011101 ;
b1000100 7
b100011111 O
#5800000
0%
0@
01
#5810000
1%
1@
11
b100011110 ;
b1000101 7
b100100000 O
