UART/UART_modelsim_proj/dump.vcd
$date
	Tue Apr 15 17:22:49 2025
$end
$version
	ModelSim Version 2020.1
$end
$timescale
	1ps
$end

$scope module UART_Tx_tb $end
$var parameter 32 ! c_FPGA_clk_freq $end
$var parameter 32 " c_baudrate $end
$var parameter 32 # c_CLOCK_PERIOD_NS $end
$var parameter 32 $ c_BIT_PERIOD $end
$var reg 1 % clk $end
$var reg 1 & rst $end
$var reg 1 ' TX_DV $end
$var reg 1 ( RX_DV $end
$var reg 1 ) TX_Active $end
$var reg 1 * UART_Line $end
$var reg 1 + TX_Serial $end
$var reg 1 , TX_Done $end
$var reg 8 - TX_Byte [7:0] $end
$var reg 8 . RX_Byte [7:0] $end

$scope module UART_RX_INST_l $end
$var parameter 32 / FPGA_clk_freq $end
$var parameter 32 0 baudrate $end
$var parameter 32 1 CLKS_PER_BIT $end
$var wire 1 2 clk $end
$var wire 1 3 rst $end
$var wire 1 4 i_RX_Serial $end
$var reg 1 5 o_RX_DV $end
$var reg 8 6 o_RX_Byte [7:0] $end
$var reg 3 7 state_r [2:0] $end
$var reg 10 8 Clock_Count_r [9:0] $end
$var reg 3 9 Bit_Index_r [2:0] $end
$var reg 8 : RX_Byte_r [7:0] $end
$var reg 1 ; RX_DV_r $end
$var reg 14 < timeout_counter [13:0] $end
$var reg 1 = timeout $end
$upscope $end

$scope module UART_TX_INST_l $end
$var parameter 32 > FPGA_clk_freq $end
$var parameter 32 ? baudrate $end
$var parameter 32 @ CLKS_PER_BIT $end
$var wire 1 A clk $end
$var wire 1 B rst $end
$var wire 1 C i_TX_DV $end
$var wire 1 D i_TX_Byte [7] $end
$var wire 1 E i_TX_Byte [6] $end
$var wire 1 F i_TX_Byte [5] $end
$var wire 1 G i_TX_Byte [4] $end
$var wire 1 H i_TX_Byte [3] $end
$var wire 1 I i_TX_Byte [2] $end
$var wire 1 J i_TX_Byte [1] $end
$var wire 1 K i_TX_Byte [0] $end
$var reg 1 L o_TX_Active $end
$var reg 1 M o_TX_Serial $end
$var reg 1 N o_TX_Done $end
$var reg 3 O state_r [2:0] $end
$var reg 10 P Clock_Count_r [9:0] $end
$var reg 3 Q Bit_Index_r [2:0] $end
$var reg 8 R TX_Data_r [7:0] $end
$var reg 1 S TX_Active_r $end
$var reg 1 T TX_Done_r $end
$upscope $end
$upscope $end
$enddefinitions $end
#0
$dumpvars
0%
0&
0'
0(
0)
1*
x+
0,
b0 -
b0 .
05
b0 6
b0 7
b0 8
b0 9
b0 :
0;
b0 <
x=
0L
xM
0N
b0 O
b0 P
b0 Q
b0 R
0S
0T
b10111110101111000010000000 !
b11100001000000000 "
b10100 #
b10000111101000 $
b10111110101111000010000000 /
b11100001000000000 0
b110110010 1
b10111110101111000010000000 >
b11100001000000000 ?
b110110010 @
02
03
14
0A
0B
0C
0K
0J
0I
0H
0G
0F
0E
0D
$end
#10000
1%
1A
12
0=
1M
1+
#20000
0%
0A
02
#30000
1%
1A
12
1'
b110111 -
1C
1K
1J
1I
1G
1F
#40000
0%
0A
02
#50000
1%
1A
12
1S
b110111 R
b1 O
0'
1L
0C
1)
#60000
0%
0A
02
#70000
1%
1A
12
0M
b1 P
0+
0*
04
#80000
0%
0A
02
#90000
1%
1A
12
b1 7
b10 P
#100000
0%
0A
02
#110000
1%
1A
12
b1 <
b1 8
b11 P
#120000
0%
0A
02
#130000
1%
1A
12
b10 <
b10 8
b100 P
#140000
0%
0A
02
#150000
1%
1A
12
b11 <
b11 8
b101 P
#160000
0%
0A
02
#170000
1%
1A
12
b100 <
b100 8
b110 P
#180000
0%
0A
02
#190000
1%
1A
12
b101 <
b101 8
b111 P
#200000
0%
0A
02
#210000
1%
1A
12
b110 <
b110 8
b1000 P
#220000
0%
0A
02
#230000
1%
1A
12
b111 <
b111 8
b1001 P
#240000
0%
0A
02
#250000
1%
1A
12
b1000 <
b1000 8
b1010 P
#260000
0%
0A
02
#270000
1%
1A
12
b1001 <
b1001 8
b1011 P
#280000
0%
0A
02
#290000
1%
1A
12
b1010 <
b1010 8
b1100 P
#300000
0%
0A
02
#310000
1%
1A
12
b1011 <
b1011 8
b1101 P
#320000
0%
0A
02
#330000
1%
1A
12
b1100 <
b1100 8
b1110 P
#340000
0%
0A
02
#350000
1%
1A
12
b1101 <
b1101 8
b1111 P
#360000
0%
0A
02
#370000
1%
1A
12
b1110 <
b1110 8
b10000 P
#380000
0%
0A
02
#390000
1%
1A
12
b1111 <
b1111 8
b10001 P
#400000
0%
0A
02
#410000
1%
1A
12
b10000 <
b10000 8
b10010 P
#420000
0%
0A
02
#430000
1%
1A
12
b10001 <
b10001 8
b10011 P
#440000
0%
0A
02
#450000
1%
1A
12
b10010 <
b10010 8
b10100 P
#460000
0%
0A
02
#470000
1%
1A
12
b10011 <
b10011 8
b10101 P
#480000
0%
0A
02
#490000
1%
1A
12
b10100 <
b10100 8
b10110 P
#500000
0%
0A
02
#510000
1%
1A
12
b10101 <
b10101 8
b10111 P
#520000
0%
0A
02
#530000
1%
1A
12
b10110 <
b10110 8
b11000 P
#540000
0%
0A
02
#550000
1%
1A
12
b10111 <
b10111 8
b11001 P
#560000
0%
0A
02
#570000
1%
1A
12
b11000 <
b11000 8
b11010 P
#580000
0%
0A
02
#590000
1%
1A
12
b11001 <
b11001 8
b11011 P
#600000
0%
0A
02
#610000
1%
1A
12
b11010 <
b11010 8
b11100 P
#620000
0%
0A
02
#630000
1%
1A
12
b11011 <
b11011 8
b11101 P
#640000
0%
0A
02
#650000
1%
1A
12
b11100 <
b11100 8
b11110 P
#660000
0%
0A
02
#670000
1%
1A
12
b11101 <
b11101 8
b11111 P
#680000
0%
0A
02
#690000
1%
1A
12
b11110 <
b11110 8
b100000 P
#700000
0%
0A
02
#710000
1%
1A
12
b11111 <
b11111 8
b100001 P
#720000
0%
0A
02
#730000
1%
1A
12
b100000 <
b100000 8
b100010 P
#740000
0%
0A
02
#750000
1%
1A
12
b100001 <
b100001 8
b100011 P
#760000
0%
0A
02
#770000
1%
1A
12
b100010 <
b100010 8
b100100 P
#780000
0%
0A
02
#790000
1%
1A
12
b100011 <
b100011 8
b100101 P
#800000
0%
0A
02
#810000
1%
1A
12
b100100 <
b100100 8
b100110 P
#820000
0%
0A
02
#830000
1%
1A
12
b100101 <
b100101 8
b100111 P
#840000
0%
0A
02
#850000
1%
1A
12
b100110 <
b100110 8
b101000 P
#860000
0%
0A
02
#870000
1%
1A
12
b100111 <
b100111 8
b101001 P
#880000
0%
0A
02
#890000
1%
1A
12
b101000 <
b101000 8
b101010 P
#900000
0%
0A
02
#910000
1%
1A
12
b101001 <
b101001 8
b101011 P
#920000
0%
0A
02
#930000
1%
1A
12
b101010 <
b101010 8
b101100 P
#940000
0%
0A
02
#950000
1%
1A
12
b101011 <
b101011 8
b101101 P
#960000
0%
0A
02
#970000
1%
1A
12
b101100 <
b101100 8
b101110 P
#980000
0%
0A
02
#990000
1%
1A
12
b101101 <
b101101 8
b101111 P
#1000000
0%
0A
02
#1010000
1%
1A
12
b101110 <
b101110 8
b110000 P
#1020000
0%
0A
02
#1030000
1%
1A
12
b101111 <
b101111 8
b110001 P
#1040000
0%
0A
02
#1050000
1%
1A
12
b110000 <
b110000 8
b110010 P
#1060000
0%
0A
02
#1070000
1%
1A
12
b110001 <
b110001 8
b110011 P
#1080000
0%
0A
02
#1090000
1%
1A
12
b110010 <
b110010 8
b110100 P
#1100000
0%
0A
02
#1110000
1%
1A
12
b110011 <
b110011 8
b110101 P
#1120000
0%
0A
02
#1130000
1%
1A
12
b110100 <
b110100 8
b110110 P
#1140000
0%
0A
02
#1150000
1%
1A
12
b110101 <
b110101 8
b110111 P
#1160000
0%
0A
02
#1170000
1%
1A
12
b110110 <
b110110 8
b111000 P
#1180000
0%
0A
02
#1190000
1%
1A
12
b110111 <
b110111 8
b111001 P
#1200000
0%
0A
02
#1210000
1%
1A
12
b111000 <
b111000 8
b111010 P
#1220000
0%
0A
02
#1230000
1%
1A
12
b111001 <
b111001 8
b111011 P
#1240000
0%
0A
02
#1250000
1%
1A
12
b111010 <
b111010 8
b111100 P
#1260000
0%
0A
02
#1270000
1%
1A
12
b111011 <
b111011 8
b111101 P
#1280000
0%
0A
02
#1290000
1%
1A
12
b111100 <
b111100 8
b111110 P
#1300000
0%
0A
02
#1310000
1%
1A
12
b111101 <
b111101 8
b111111 P
#1320000
0%
0A
02
#1330000
1%
1A
12
b111110 <
b111110 8
b1000000 P
#1340000
0%
0A
02
#1350000
1%
1A
12
b111111 <
b111111 8
b1000001 P
#1360000
0%
0A
02
#1370000
1%
1A
12
b1000000 <
b1000000 8
b1000010 P
#1380000
0%
0A
02
#1390000
1%
1A
12
b1000001 <
b1000001 8
b1000011 P
#1400000
0%
0A
02
#1410000
1%
1A
12
b1000010 <
b1000010 8
b1000100 P
#1420000
0%
0A
02
#1430000
1%
1A
12
b1000011 <
b1000011 8
b1000101 P
#1440000
0%
0A
02
#1450000
1%
1A
12
b1000100 <
b1000100 8
b1000110 P
#1460000
0%
0A
02
#1470000
1%
1A
12
b1000101 <
b1000101 8
b1000111 P
#1480000
0%
0A
02
#1490000
1%
1A
12
b1000110 <
b1000110 8
b1001000 P
#1500000
0%
0A
02
#1510000
1%
1A
12
b1000111 <
b1000111 8
b1001001 P
#1520000
0%
0A
02
#1530000
1%
1A
12
b1001000 <
b1001000 8
b1001010 P
#1540000
0%
0A
02
#1550000
1%
1A
12
b1001001 <
b1001001 8
b1001011 P
#1560000
0%
0A
02
#1570000
1%
1A
12
b1001010 <
b1001010 8
b1001100 P
#1580000
0%
0A
02
#1590000
1%
1A
12
b1001011 <
b1001011 8
b1001101 P
#1600000
0%
0A
02
#1610000
1%
1A
12
b1001100 <
b1001100 8
b1001110 P
#1620000
0%
0A
02
#1630000
1%
1A
12
b1001101 <
b1001101 8
b1001111 P
#1640000
0%
0A
02
#1650000
1%
1A
12
b1001110 <
b1001110 8
b1010000 P
#1660000
0%
0A
02
#1670000
1%
1A
12
b1001111 <
b1001111 8
b1010001 P
#1680000
0%
0A
02
#1690000
1%
1A
12
b1010000 <
b1010000 8
b1010010 P
#1700000
0%
0A
02
#1710000
1%
1A
12
b1010001 <
b1010001 8
b1010011 P
#1720000
0%
0A
02
#1730000
1%
1A
12
b1010010 <
b1010010 8
b1010100 P
#1740000
0%
0A
02
#1750000
1%
1A
12
b1010011 <
b1010011 8
b1010101 P
#1760000
0%
0A
02
#1770000
1%
1A
12
b1010100 <
b1010100 8
b1010110 P
#1780000
0%
0A
02
#1790000
1%
1A
12
b1010101 <
b1010101 8
b1010111 P
#1800000
0%
0A
02
#1810000
1%
1A
12
b1010110 <
b1010110 8
b1011000 P
#1820000
0%
0A
02
#1830000
1%
1A
12
b1010111 <
b1010111 8
b1011001 P
#1840000
0%
0A
02
#1850000
1%
1A
12
b1011000 <
b1011000 8
b1011010 P
#1860000
0%
0A
02
#1870000
1%
1A
12
b1011001 <
b1011001 8
b1011011 P
#1880000
0%
0A
02
#1890000
1%
1A
12
b1011010 <
b1011010 8
b1011100 P
#1900000
0%
0A
02
#1910000
1%
1A
12
b1011011 <
b1011011 8
b1011101 P
#1920000
0%
0A
02
#1930000
1%
1A
12
b1011100 <
b1011100 8
b1011110 P
#1940000
0%
0A
02
#1950000
1%
1A
12
b1011101 <
b1011101 8
b1011111 P
#1960000
0%
0A
02
#1970000
1%
1A
12
b1011110 <
b1011110 8
b1100000 P
#1980000
0%
0A
02
#1990000
1%
1A
12
b1011111 <
b1011111 8
b1100001 P
#2000000
0%
0A
02
#2010000
1%
1A
12
b1100000 <
b1100000 8
b1100010 P
#2020000
0%
0A
02
#2030000
1%
1A
12
b1100001 <
b1100001 8
b1100011 P
#2040000
0%
0A
02
#2050000
1%
1A
12
b1100010 <
b1100010 8
b1100100 P
#2060000
0%
0A
02
#2070000
1%
1A
12
b1100011 <
b1100011 8
b1100101 P
#2080000
0%
0A
02
#2090000
1%
1A
12
b1100100 <
b1100100 8
b1100110 P
#2100000
0%
0A
02
#2110000
1%
1A
12
b1100101 <
b1100101 8
b1100111 P
#2120000
0%
0A
02
#2130000
1%
1A
12
b1100110 <
b1100110 8
b1101000 P
#2140000
0%
0A
02
#2150000
1%
1A
12
b1100111 <
b1100111 8
b1101001 P
#2160000
0%
0A
02
#2170000
1%
1A
12
b1101000 <
b1101000 8
b1101010 P
#2180000
0%
0A
02
#2190000
1%
1A
12
b1101001 <
b1101001 8
b1101011 P
#2200000
0%
0A
02
#2210000
1%
1A
12
b1101010 <
b1101010 8
b1101100 P
#2220000
0%
0A
02
#2230000
1%
1A
12
b1101011 <
b1101011 8
b1101101 P
#2240000
0%
0A
02
#2250000
1%
1A
12
b1101100 <
b1101100 8
b1101110 P
#2260000
0%
0A
02
#2270000
1%
1A
12
b1101101 <
b1101101 8
b1101111 P
#2280000
0%
0A
02
#2290000
1%
1A
12
b1101110 <
b1101110 8
b1110000 P
#2300000
0%
0A
02
#2310000
1%
1A
12
b1101111 <
b1101111 8
b1110001 P
#2320000
0%
0A
02
#2330000
1%
1A
12
b1110000 <
b1110000 8
b1110010 P
#2340000
0%
0A
02
#2350000
1%
1A
12
b1110001 <
b1110001 8
b1110011 P
#2360000
0%
0A
02
#2370000
1%
1A
12
b1110010 <
b1110010 8
b1110100 P
#2380000
0%
0A
02
#2390000
1%
1A
12
b1110011 <
b1110011 8
b1110101 P
#2400000
0%
0A
02
#2410000
1%
1A
12
b1110100 <
b1110100 8
b1110110 P
#2420000
0%
0A
02
#2430000
1%
1A
12
b1110101 <
b1110101 8
b1110111 P
#2440000
0%
0A
02
#2450000
1%
1A
12
b1110110 <
b1110110 8
b1111000 P
#2460000
0%
0A
02
#2470000
1%
1A
12
b1110111 <
b1110111 8
b1111001 P
#2480000
0%
0A
02
#2490000
1%
1A
12
b1111000 <
b1111000 8
b1111010 P
#2500000
0%
0A
02
#2510000
1%
1A
12
b1111001 <
b1111001 8
b1111011 P
#2520000
0%
0A
02
#2530000
1%
1A
12
b1111010 <
b1111010 8
b1111100 P
#2540000
0%
0A
02
#2550000
1%
1A
12
b1111011 <
b1111011 8
b1111101 P
#2560000
0%
0A
02
#2570000
1%
1A
12
b1111100 <
b1111100 8
b1111110 P
#2580000
0%
0A
02
#2590000
1%
1A
12
b1111101 <
b1111101 8
b1111111 P
#2600000
0%
0A
02
#2610000
1%
1A
12
b1111110 <
b1111110 8
b10000000 P
#2620000
0%
0A
02
#2630000
1%
1A
12
b1111111 <
b1111111 8
b10000001 P
#2640000
0%
0A
02
#2650000
1%
1A
12
b10000000 <
b10000000 8
b10000010 P
#2660000
0%
0A
02
#2670000
1%
1A
12
b10000001 <
b10000001 8
b10000011 P
#2680000
0%
0A
02
#2690000
1%
1A
12
b10000010 <
b10000010 8
b10000100 P
#2700000
0%
0A
02
#2710000
1%
1A
12
b10000011 <
b10000011 8
b10000101 P
#2720000
0%
0A
02
#2730000
1%
1A
12
b10000100 <
b10000100 8
b10000110 P
#2740000
0%
0A
02
#2750000
1%
1A
12
b10000101 <
b10000101 8
b10000111 P
#2760000
0%
0A
02
#2770000
1%
1A
12
b10000110 <
b10000110 8
b10001000 P
#2780000
0%
0A
02
#2790000
1%
1A
12
b10000111 <
b10000111 8
b10001001 P
#2800000
0%
0A
02
#2810000
1%
1A
12
b10001000 <
b10001000 8
b10001010 P
#2820000
0%
0A
02
#2830000
1%
1A
12
b10001001 <
b10001001 8
b10001011 P
#2840000
0%
0A
02
#2850000
1%
1A
12
b10001010 <
b10001010 8
b10001100 P
#2860000
0%
0A
02
#2870000
1%
1A
12
b10001011 <
b10001011 8
b10001101 P
#2880000
0%
0A
02
#2890000
1%
1A
12
b10001100 <
b10001100 8
b10001110 P
#2900000
0%
0A
02
#2910000
1%
1A
12
b10001101 <
b10001101 8
b10001111 P
#2920000
0%
0A
02
#2930000
1%
1A
12
b10001110 <
b10001110 8
b10010000 P
#2940000
0%
0A
02
#2950000
1%
1A
12
b10001111 <
b10001111 8
b10010001 P
#2960000
0%
0A
02
#2970000
1%
1A
12
b10010000 <
b10010000 8
b10010010 P
#2980000
0%
0A
02
#2990000
1%
1A
12
b10010001 <
b10010001 8
b10010011 P
#3000000
0%
0A
02
#3010000
1%
1A
12
b10010010 <
b10010010 8
b10010100 P
#3020000
0%
0A
02
#3030000
1%
1A
12
b10010011 <
b10010011 8
b10010101 P
#3040000
0%
0A
02
#3050000
1%
1A
12
b10010100 <
b10010100 8
b10010110 P
#3060000
0%
0A
02
#3070000
1%
1A
12
b10010101 <
b10010101 8
b10010111 P
#3080000
0%
0A
02
#3090000
1%
1A
12
b10010110 <
b10010110 8
b10011000 P
#3100000
0%
0A
02
#3110000
1%
1A
12
b10010111 <
b10010111 8
b10011001 P
#3120000
0%
0A
02
#3130000
1%
1A
12
b10011000 <
b10011000 8
b10011010 P
#3140000
0%
0A
02
#3150000
1%
1A
12
b10011001 <
b10011001 8
b10011011 P
#3160000
0%
0A
02
#3170000
1%
1A
12
b10011010 <
b10011010 8
b10011100 P
#3180000
0%
0A
02
#3190000
1%
1A
12
b10011011 <
b10011011 8
b10011101 P
#3200000
0%
0A
02
#3210000
1%
1A
12
b10011100 <
b10011100 8
b10011110 P
#3220000
0%
0A
02
#3230000
1%
1A
12
b10011101 <
b10011101 8
b10011111 P
#3240000
0%
0A
02
#3250000
1%
1A
12
b10011110 <
b10011110 8
b10100000 P
#3260000
0%
0A
02
#3270000
1%
1A
12
b10011111 <
b10011111 8
b10100001 P
#3280000
0%
0A
02
#3290000
1%
1A
12
b10100000 <
b10100000 8
b10100010 P
#3300000
0%
0A
02
#3310000
1%
1A
12
b10100001 <
b10100001 8
b10100011 P
#3320000
0%
0A
02
#3330000
1%
1A
12
b10100010 <
b10100010 8
b10100100 P
#3340000
0%
0A
02
#3350000
1%
1A
12
b10100011 <
b10100011 8
b10100101 P
#3360000
0%
0A
02
#3370000
1%
1A
12
b10100100 <
b10100100 8
b10100110 P
#3380000
0%
0A
02
#3390000
1%
1A
12
b10100101 <
b10100101 8
b10100111 P
#3400000
0%
0A
02
#3410000
1%
1A
12
b10100110 <
b10100110 8
b10101000 P
#3420000
0%
0A
02
#3430000
1%
1A
12
b10100111 <
b10100111 8
b10101001 P
#3440000
0%
0A
02
#3450000
1%
1A
12
b10101000 <
b10101000 8
b10101010 P
#3460000
0%
0A
02
#3470000
1%
1A
12
b10101001 <
b10101001 8
b10101011 P
#3480000
0%
0A
02
#3490000
1%
1A
12
b10101010 <
b10101010 8
b10101100 P
#3500000
0%
0A
02
#3510000
1%
1A
12
b10101011 <
b10101011 8
b10101101 P
#3520000
0%
0A
02
#3530000
1%
1A
12
b10101100 <
b10101100 8
b10101110 P
#3540000
0%
0A
02
#3550000
1%
1A
12
b10101101 <
b10101101 8
b10101111 P
#3560000
0%
0A
02
#3570000
1%
1A
12
b10101110 <
b10101110 8
b10110000 P
#3580000
0%
0A
02
#3590000
1%
1A
12
b10101111 <
b10101111 8
b10110001 P
#3600000
0%
0A
02
#3610000
1%
1A
12
b10110000 <
b10110000 8
b10110010 P
#3620000
0%
0A
02
#3630000
1%
1A
12
b10110001 <
b10110001 8
b10110011 P
#3640000
0%
0A
02
#3650000
1%
1A
12
b10110010 <
b10110010 8
b10110100 P
#3660000
0%
0A
02
#3670000
1%
1A
12
b10110011 <
b10110011 8
b10110101 P
#3680000
0%
0A
02
#3690000
1%
1A
12
b10110100 <
b10110100 8
b10110110 P
#3700000
0%
0A
02
#3710000
1%
1A
12
b10110101 <
b10110101 8
b10110111 P
#3720000
0%
0A
02
#3730000
1%
1A
12
b10110110 <
b10110110 8
b10111000 P
#3740000
0%
0A
02
#3750000
1%
1A
12
b10110111 <
b10110111 8
b10111001 P
#3760000
0%
0A
02
#3770000
1%
1A
12
b10111000 <
b10111000 8
b10111010 P
#3780000
0%
0A
02
#3790000
1%
1A
12
b10111001 <
b10111001 8
b10111011 P
#3800000
0%
0A
02
#3810000
1%
1A
12
b10111010 <
b10111010 8
b10111100 P
#3820000
0%
0A
02
#3830000
1%
1A
12
b10111011 <
b10111011 8
b10111101 P
#3840000
0%
0A
02
#3850000
1%
1A
12
b10111100 <
b10111100 8
b10111110 P
#3860000
0%
0A
02
#3870000
1%
1A
12
b10111101 <
b10111101 8
b10111111 P
#3880000
0%
0A
02
#3890000
1%
1A
12
b10111110 <
b10111110 8
b11000000 P
#3900000
0%
0A
02
#3910000
1%
1A
12
b10111111 <
b10111111 8
b11000001 P
#3920000
0%
0A
02
#3930000
1%
1A
12
b11000000 <
b11000000 8
b11000010 P
#3940000
0%
0A
02
#3950000
1%
1A
12
b11000001 <
b11000001 8
b11000011 P
#3960000
0%
0A
02
#3970000
1%
1A
12
b11000010 <
b11000010 8
b11000100 P
#3980000
0%
0A
02
#3990000
1%
1A
12
b11000011 <
b11000011 8
b11000101 P
#4000000
0%
0A
02
#4010000
1%
1A
12
b11000100 <
b11000100 8
b11000110 P
#4020000
0%
0A
02
#4030000
1%
1A
12
b11000101 <
b11000101 8
b11000111 P
#4040000
0%
0A
02
#4050000
1%
1A
12
b11000110 <
b11000110 8
b11001000 P
#4060000
0%
0A
02
#4070000
1%
1A
12
b11000111 <
b11000111 8
b11001001 P
#4080000
0%
0A
02
#4090000
1%
1A
12
b11001000 <
b11001000 8
b11001010 P
#4100000
0%
0A
02
#4110000
1%
1A
12
b11001001 <
b11001001 8
b11001011 P
#4120000
0%
0A
02
#4130000
1%
1A
12
b11001010 <
b11001010 8
b11001100 P
#4140000
0%
0A
02
#4150000
1%
1A
12
b11001011 <
b11001011 8
b11001101 P
#4160000
0%
0A
02
#4170000
1%
1A
12
b11001100 <
b11001100 8
b11001110 P
#4180000
0%
0A
02
#4190000
1%
1A
12
b11001101 <
b11001101 8
b11001111 P
#4200000
0%
0A
02
#4210000
1%
1A
12
b11001110 <
b11001110 8
b11010000 P
#4220000
0%
0A
02
#4230000
1%
1A
12
b11001111 <
b11001111 8
b11010001 P
#4240000
0%
0A
02
#4250000
1%
1A
12
b11010000 <
b11010000 8
b11010010 P
#4260000
0%
0A
02
#4270000
1%
1A
12
b11010001 <
b11010001 8
b11010011 P
#4280000
0%
0A
02
#4290000
1%
1A
12
b11010010 <
b11010010 8
b11010100 P
#4300000
0%
0A
02
#4310000
1%
1A
12
b11010011 <
b11010011 8
b11010101 P
#4320000
0%
0A
02
#4330000
1%
1A
12
b11010100 <
b11010100 8
b11010110 P
#4340000
0%
0A
02
#4350000
1%
1A
12
b11010101 <
b11010101 8
b11010111 P
#4360000
0%
0A
02
#4370000
1%
1A
12
b11010110 <
b11010110 8
b11011000 P
#4380000
0%
0A
02
#4390000
1%
1A
12
b11010111 <
b11010111 8
b11011001 P
#4400000
0%
0A
02
#4410000
1%
1A
12
b11011000 <
b11011000 8
b11011010 P
#4420000
0%
0A
02
#4430000
1%
1A
12
b11011001 <
b0 8
b10 7
b11011011 P
#4440000
0%
0A
02
#4450000
1%
1A
12
b11011010 <
b1 8
b11011100 P
#4460000
0%
0A
02
#4470000
1%
1A
12
b11011011 <
b10 8
b11011101 P
#4480000
0%
0A
02
#4490000
1%
1A
12
b11011100 <
b11 8
b11011110 P
#4500000
0%
0A
02
#4510000
1%
1A
12
b11011101 <
b100 8
b11011111 P
#4520000
0%
0A
02
#4530000
1%
1A
12
b11011110 <
b101 8
b11100000 P
#4540000
0%
0A
02
#4550000
1%
1A
12
b11011111 <
b110 8
b11100001 P
#4560000
0%
0A
02
#4570000
1%
1A
12
b11100000 <
b111 8
b11100010 P
#4580000
0%
0A
02
#4590000
1%
1A
12
b11100001 <
b1000 8
b11100011 P
#4600000
0%
0A
02
#4610000
1%
1A
12
b11100010 <
b1001 8
b11100100 P
#4620000
0%
0A
02
#4630000
1%
1A
12
b11100011 <
b1010 8
b11100101 P
#4640000
0%
0A
02
#4650000
1%
1A
12
b11100100 <
b1011 8
b11100110 P
#4660000
0%
0A
02
#4670000
1%
1A
12
b11100101 <
b1100 8
b11100111 P
#4680000
0%
0A
02
#4690000
1%
1A
12
b11100110 <
b1101 8
b11101000 P
#4700000
0%
0A
02
#4710000
1%
1A
12
b11100111 <
b1110 8
b11101001 P
#4720000
0%
0A
02
#4730000
1%
1A
12
b11101000 <
b1111 8
b11101010 P
#4740000
0%
0A
02
#4750000
1%
1A
12
b11101001 <
b10000 8
b11101011 P
#4760000
0%
0A
02
#4770000
1%
1A
12
b11101010 <
b10001 8
b11101100 P
#4780000
0%
0A
02
#4790000
1%
1A
12
b11101011 <
b10010 8
b11101101 P
#4800000
0%
0A
02
#4810000
1%
1A
12
b11101100 <
b10011 8
b11101110 P
#4820000
0%
0A
02
#4830000
1%
1A
12
b11101101 <
b10100 8
b11101111 P
#4840000
0%
0A
02
#4850000
1%
1A
12
b11101110 <
b10101 8
b11110000 P
#4860000
0%
0A
02
#4870000
1%
1A
12
b11101111 <
b10110 8
b11110001 P
#4880000
0%
0A
02
#4890000
1%
1A
12
b11110000 <
b10111 8
b11110010 P
#4900000
0%
0A
02
#4910000
1%
1A
12
b11110001 <
b11000 8
b11110011 P
#4920000
0%
0A
02
#4930000
1%
1A
12
b11110010 <
b11001 8
b11110100 P
#4940000
0%
0A
02
#4950000
1%
1A
12
b11110011 <
b11010 8
b11110101 P
#4960000
0%
0A
02
#4970000
1%
1A
12
b11110100 <
b11011 8
b11110110 P
#4980000
0%
0A
02
#4990000
1%
1A
12
b11110101 <
b11100 8
b11110111 P
#5000000
0%
0A
02
#5010000
1%
1A
12
b11110110 <
b11101 8
b11111000 P
#5020000
0%
0A
02
#5030000
1%
1A
12
b11110111 <
b11110 8
b11111001 P
#5040000
0%
0A
02
#5050000
1%
1A
12
b11111000 <
b11111 8
b11111010 P
#5060000
0%
0A
02
#5070000
1%
1A
12
b11111001 <
b100000 8
b11111011 P
#5080000
0%
0A
02
#5090000
1%
1A
12
b11111010 <
b100001 8
b11111100 P
#5100000
0%
0A
02
#5110000
1%
1A
12
b11111011 <
b100010 8
b11111101 P
#5120000
0%
0A
02
#5130000
1%
1A
12
b11111100 <
b100011 8
b11111110 P
#5140000
0%
0A
02
#5150000
1%
1A
12
b11111101 <
b100100 8
b11111111 P
#5160000
0%
0A
02
#5170000
1%
1A
12
b11111110 <
b100101 8
b100000000 P
#5180000
0%
0A
02
#5190000
1%
1A
12
b11111111 <
b100110 8
b100000001 P
#5200000
0%
0A
02
#5210000
1%
1A
12
b100000000 <
b100111 8
b100000010 P
#5220000
0%
0A
02
#5230000
1%
1A
12
b100000001 <
b101000 8
b100000011 P
#5240000
0%
0A
02
#5250000
1%
1A
12
b100000010 <
b101001 8
b100000100 P
#5260000
0%
0A
02
#5270000
1%
1A
12
b100000011 <
b101010 8
b100000101 P
#5280000
0%
0A
02
#5290000
1%
1A
12
b100000100 <
b101011 8
b100000110 P
#5300000
0%
0A
02
#5310000
1%
1A
12
b100000101 <
b101100 8
b100000111 P
#5320000
0%
0A
02
#5330000
1%
1A
12
b100000110 <
b101101 8
b100001000 P
#5340000
0%
0A
02
#5350000
1%
1A
12
b100000111 <
b101110 8
b100001001 P
#5360000
0%
0A
02
#5370000
1%
1A
12
b100001000 <
b101111 8
b100001010 P
#5380000
0%
0A
02
#5390000
1%
1A
12
b100001001 <
b110000 8
b100001011 P
#5400000
0%
0A
02
#5410000
1%
1A
12
b100001010 <
b110001 8
b100001100 P
#5420000
0%
0A
02
#5430000
1%
1A
12
b100001011 <
b110010 8
b100001101 P
#5440000
0%
0A
02
#5450000
1%
1A
12
b100001100 <
b110011 8
b100001110 P
#5460000
0%
0A
02
#5470000
1%
1A
12
b100001101 <
b110100 8
b100001111 P
#5480000
0%
0A
02
#5490000
1%
1A
12
b100001110 <
b110101 8
b100010000 P
#5500000
0%
0A
02
#5510000
1%
1A
12
b100001111 <
b110110 8
b100010001 P
#5520000
0%
0A
02
#5530000
1%
1A
12
b100010000 <
b110111 8
b100010010 P
#5540000
0%
0A
02
#5550000
1%
1A
12
b100010001 <
b111000 8
b100010011 P
#5560000
0%
0A
02
#5570000
1%
1A
12
b100010010 <
b111001 8
b100010100 P
#5580000
0%
0A
02
#5590000
1%
1A
12
b100010011 <
b111010 8
b100010101 P
#5600000
0%
0A
02
#5610000
1%
1A
12
b100010100 <
b111011 8
b100010110 P
#5620000
0%
0A
02
#5630000
1%
1A
12
b100010101 <
b111100 8
b100010111 P
#5640000
0%
0A
02
#5650000
1%
1A
12
b100010110 <
b111101 8
b100011000 P
#5660000
0%
0A
02
#5670000
1%
1A
12
b100010111 <
b111110 8
b100011001 P
#5680000
0%
0A
02
#5690000
1%
1A
12
b100011000 <
b111111 8
b100011010 P
#5700000
0%
0A
02
#5710000
1%
1A
12
b100011001 <
b1000000 8
b100011011 P
#5720000
0%
0A
02
#5730000
1%
1A
12
b100011010 <
b1000001 8
b100011100 P
#5740000
0%
0A
02
#5750000
1%
1A
12
b100011011 <
b1000010 8
b100011101 P
#5760000
0%
0A
02
#5770000
1%
1A
12
b100011100 <
b1000011 8
b100011110 P
#5780000
0%
0A
02
#5790000
1%
1A
12
b100011101 <
b1000100 8
b100011111 P
#5800000
0%
0A
02
#5810000
1%
1A
12
b100011110 <
b1000101 8
b100100000 P
#5820000
0%
0A
02
#5830000
1%
1A
12
b100011111 <
b1000110 8
b100100001 P
#5840000
0%
0A
02
#5850000
1%
1A
12
b100100000 <
b1000111 8
b100100010 P
#5860000
0%
0A
02
#5870000
1%
1A
12
b100100001 <
b1001000 8
b100100011 P
#5880000
0%
0A
02
#5890000
1%
1A
12
b100100010 <
b1001001 8
b100100100 P
#5900000
0%
0A
02
#5910000
1%
1A
12
b100100011 <
b1001010 8
b100100101 P
#5920000
0%
0A
02
