UART/UART_modelsim_proj/dump.vcd
$date
	Wed Feb 05 00:08:40 2025
$end
$version
	ModelSim Version 2020.1
$end
$timescale
	10ps
$end

$scope module UART_Rx_tb $end
$var parameter 32 ! c_CLOCK_PERIOD_NS $end
$var parameter 32 " c_CLKS_PER_BIT $end
$var parameter 32 # c_BIT_PERIOD $end
$var reg 1 $ r_Clock $end
$var reg 1 % r_RX_Serial $end
$var reg 1 & w_RX_DV $end
$var reg 8 ' w_RX_Byte [7:0] $end

$scope task UART_WRITE_BYTE $end
$var reg 8 ( i_Data [7:0] $end
$upscope $end

$scope module UART_RX_INST_l $end
$var parameter 32 ) CLKS_PER_BIT $end
$var wire 1 * clk $end
$var wire 1 + i_RX_Serial $end
$var reg 1 , o_RX_DV $end
$var reg 8 - o_RX_Byte [7:0] $end
$var reg 3 . state_r [2:0] $end
$var reg 435 / Clock_Count_r [434:0] $end
$var reg 3 0 Bit_Index_r [2:0] $end
$var reg 8 1 RX_Byte_r [7:0] $end
$var reg 1 2 RX_DV_r $end
$upscope $end
$upscope $end
$enddefinitions $end
#0
$dumpvars
0$
1%
0&
b0 '
bx (
0,
b0 -
b0 .
b0 /
b0 0
b0 1
02
b10100 !
b110110010 "
b10000111101000 #
b110110010 )
0*
1+
$end
#1000
1$
1*
b110111 (
#2000
0$
0*
#3000
1$
1*
0%
0+
#4000
0$
0*
#5000
1$
1*
b1 .
#6000
0$
0*
#7000
1$
1*
b1 /
#8000
0$
0*
#9000
1$
1*
b10 /
#10000
0$
0*
#11000
1$
1*
b11 /
#12000
0$
0*
#13000
1$
1*
b100 /
#14000
0$
0*
#15000
1$
1*
b101 /
#16000
0$
0*
#17000
1$
1*
b110 /
#18000
0$
0*
#19000
1$
1*
b111 /
#20000
0$
0*
#21000
1$
1*
b1000 /
#22000
0$
0*
#23000
1$
1*
b1001 /
#24000
0$
0*
#25000
1$
1*
b1010 /
#26000
0$
0*
#27000
1$
1*
b1011 /
#28000
0$
0*
#29000
1$
1*
b1100 /
#30000
0$
0*
#31000
1$
1*
b1101 /
#32000
0$
0*
#33000
1$
1*
b1110 /
#34000
0$
0*
#35000
1$
1*
b1111 /
#36000
0$
0*
#37000
1$
1*
b10000 /
#38000
0$
0*
#39000
1$
1*
b10001 /
#40000
0$
0*
#41000
1$
1*
b10010 /
#42000
0$
0*
#43000
1$
1*
b10011 /
#44000
0$
0*
#45000
1$
1*
b10100 /
#46000
0$
0*
#47000
1$
1*
b10101 /
#48000
0$
0*
#49000
1$
1*
b10110 /
#50000
0$
0*
#51000
1$
1*
b10111 /
#52000
0$
0*
#53000
1$
1*
b11000 /
#54000
0$
0*
#55000
1$
1*
b11001 /
#56000
0$
0*
#57000
1$
1*
b11010 /
#58000
0$
0*
#59000
1$
1*
b11011 /
#60000
0$
0*
#61000
1$
1*
b11100 /
#62000
0$
0*
#63000
1$
1*
b11101 /
#64000
0$
0*
#65000
1$
1*
b11110 /
#66000
0$
0*
#67000
1$
1*
b11111 /
#68000
0$
0*
#69000
1$
1*
b100000 /
#70000
0$
0*
#71000
1$
1*
b100001 /
#72000
0$
0*
#73000
1$
1*
b100010 /
#74000
0$
0*
#75000
1$
1*
b100011 /
#76000
0$
0*
#77000
1$
1*
b100100 /
#78000
0$
0*
#79000
1$
1*
b100101 /
#80000
0$
0*
#81000
1$
1*
b100110 /
#82000
0$
0*
#83000
1$
1*
b100111 /
#84000
0$
0*
#85000
1$
1*
b101000 /
#86000
0$
0*
#87000
1$
1*
b101001 /
#88000
0$
0*
#89000
1$
1*
b101010 /
#90000
0$
0*
#91000
1$
1*
b101011 /
#92000
0$
0*
#93000
1$
1*
b101100 /
#94000
0$
0*
#95000
1$
1*
b101101 /
#96000
0$
0*
#97000
1$
1*
b101110 /
#98000
0$
0*
#99000
1$
1*
b101111 /
#100000
0$
0*
#101000
1$
1*
b110000 /
#102000
0$
0*
#103000
1$
1*
b110001 /
#104000
0$
0*
#105000
1$
1*
b110010 /
#106000
0$
0*
#107000
1$
1*
b110011 /
#108000
0$
0*
#109000
1$
1*
b110100 /
#110000
0$
0*
#111000
1$
1*
b110101 /
#112000
0$
0*
#113000
1$
1*
b110110 /
#114000
0$
0*
#115000
1$
1*
b110111 /
#116000
0$
0*
#117000
1$
1*
b111000 /
#118000
0$
0*
#119000
1$
1*
b111001 /
#120000
0$
0*
#121000
1$
1*
b111010 /
#122000
0$
0*
#123000
1$
1*
b111011 /
#124000
0$
0*
#125000
1$
1*
b111100 /
#126000
0$
0*
#127000
1$
1*
b111101 /
#128000
0$
0*
#129000
1$
1*
b111110 /
#130000
0$
0*
#131000
1$
1*
b111111 /
#132000
0$
0*
#133000
1$
1*
b1000000 /
#134000
0$
0*
#135000
1$
1*
b1000001 /
#136000
0$
0*
#137000
1$
1*
b1000010 /
#138000
0$
0*
#139000
1$
1*
b1000011 /
#140000
0$
0*
#141000
1$
1*
b1000100 /
#142000
0$
0*
#143000
1$
1*
b1000101 /
#144000
0$
0*
#145000
1$
1*
b1000110 /
#146000
0$
0*
#147000
1$
1*
b1000111 /
#148000
0$
0*
#149000
1$
1*
b1001000 /
#150000
0$
0*
#151000
1$
1*
b1001001 /
#152000
0$
0*
#153000
1$
1*
b1001010 /
#154000
0$
0*
#155000
1$
1*
b1001011 /
#156000
0$
0*
#157000
1$
1*
b1001100 /
#158000
0$
0*
#159000
1$
1*
b1001101 /
#160000
0$
0*
#161000
1$
1*
b1001110 /
#162000
0$
0*
#163000
1$
1*
b1001111 /
#164000
0$
0*
#165000
1$
1*
b1010000 /
#166000
0$
0*
#167000
1$
1*
b1010001 /
#168000
0$
0*
#169000
1$
1*
b1010010 /
#170000
0$
0*
#171000
1$
1*
b1010011 /
#172000
0$
0*
#173000
1$
1*
b1010100 /
#174000
0$
0*
#175000
1$
1*
b1010101 /
#176000
0$
0*
#177000
1$
1*
b1010110 /
#178000
0$
0*
#179000
1$
1*
b1010111 /
#180000
0$
0*
#181000
1$
1*
b1011000 /
#182000
0$
0*
#183000
1$
1*
b1011001 /
#184000
0$
0*
#185000
1$
1*
b1011010 /
#186000
0$
0*
#187000
1$
1*
b1011011 /
#188000
0$
0*
#189000
1$
1*
b1011100 /
#190000
0$
0*
#191000
1$
1*
b1011101 /
#192000
0$
0*
#193000
1$
1*
b1011110 /
#194000
0$
0*
#195000
1$
1*
b1011111 /
#196000
0$
0*
#197000
1$
1*
b1100000 /
#198000
0$
0*
#199000
1$
1*
b1100001 /
#200000
0$
0*
#201000
1$
1*
b1100010 /
#202000
0$
0*
#203000
1$
1*
b1100011 /
#204000
0$
0*
#205000
1$
1*
b1100100 /
#206000
0$
0*
#207000
1$
1*
b1100101 /
#208000
0$
0*
#209000
1$
1*
b1100110 /
#210000
0$
0*
#211000
1$
1*
b1100111 /
#212000
0$
0*
#213000
1$
1*
b1101000 /
#214000
0$
0*
#215000
1$
1*
b1101001 /
#216000
0$
0*
#217000
1$
1*
b1101010 /
#218000
0$
0*
#219000
1$
1*
b1101011 /
#220000
0$
0*
#221000
1$
1*
b1101100 /
#222000
0$
0*
#223000
1$
1*
b1101101 /
#224000
0$
0*
#225000
1$
1*
b1101110 /
#226000
0$
0*
#227000
1$
1*
b1101111 /
#228000
0$
0*
#229000
1$
1*
b1110000 /
#230000
0$
0*
#231000
1$
1*
b1110001 /
#232000
0$
0*
#233000
1$
1*
b1110010 /
#234000
0$
0*
#235000
1$
1*
b1110011 /
#236000
0$
0*
#237000
1$
1*
b1110100 /
#238000
0$
0*
#239000
1$
1*
b1110101 /
#240000
0$
0*
#241000
1$
1*
b1110110 /
#242000
0$
0*
#243000
1$
1*
b1110111 /
#244000
0$
0*
#245000
1$
1*
b1111000 /
#246000
0$
0*
#247000
1$
1*
b1111001 /
#248000
0$
0*
#249000
1$
1*
b1111010 /
#250000
0$
0*
#251000
1$
1*
b1111011 /
#252000
0$
0*
#253000
1$
1*
b1111100 /
#254000
0$
0*
#255000
1$
1*
b1111101 /
#256000
0$
0*
#257000
1$
1*
b1111110 /
#258000
0$
0*
#259000
1$
1*
b1111111 /
#260000
0$
0*
#261000
1$
1*
b10000000 /
#262000
0$
0*
#263000
1$
1*
b10000001 /
#264000
0$
0*
#265000
1$
1*
b10000010 /
#266000
0$
0*
#267000
1$
1*
b10000011 /
#268000
0$
0*
#269000
1$
1*
b10000100 /
#270000
0$
0*
#271000
1$
1*
b10000101 /
#272000
0$
0*
#273000
1$
1*
b10000110 /
#274000
0$
0*
#275000
1$
1*
b10000111 /
#276000
0$
0*
#277000
1$
1*
b10001000 /
#278000
0$
0*
#279000
1$
1*
b10001001 /
#280000
0$
0*
#281000
1$
1*
b10001010 /
#282000
0$
0*
#283000
1$
1*
b10001011 /
#284000
0$
0*
#285000
1$
1*
b10001100 /
#286000
0$
0*
#287000
1$
1*
b10001101 /
#288000
0$
0*
#289000
1$
1*
b10001110 /
#290000
0$
0*
#291000
1$
1*
b10001111 /
#292000
0$
0*
#293000
1$
1*
b10010000 /
#294000
0$
0*
#295000
1$
1*
b10010001 /
#296000
0$
0*
#297000
1$
1*
b10010010 /
#298000
0$
0*
#299000
1$
1*
b10010011 /
#300000
0$
0*
#301000
1$
1*
b10010100 /
#302000
0$
0*
#303000
1$
1*
b10010101 /
#304000
0$
0*
#305000
1$
1*
b10010110 /
#306000
0$
0*
#307000
1$
1*
b10010111 /
#308000
0$
0*
#309000
1$
1*
b10011000 /
#310000
0$
0*
#311000
1$
1*
b10011001 /
#312000
0$
0*
#313000
1$
1*
b10011010 /
#314000
0$
0*
#315000
1$
1*
b10011011 /
#316000
0$
0*
#317000
1$
1*
b10011100 /
#318000
0$
0*
#319000
1$
1*
b10011101 /
#320000
0$
0*
#321000
1$
1*
b10011110 /
#322000
0$
0*
#323000
1$
1*
b10011111 /
#324000
0$
0*
#325000
1$
1*
b10100000 /
#326000
0$
0*
#327000
1$
1*
b10100001 /
#328000
0$
0*
#329000
1$
1*
b10100010 /
#330000
0$
0*
#331000
1$
1*
b10100011 /
#332000
0$
0*
#333000
1$
1*
b10100100 /
#334000
0$
0*
#335000
1$
1*
b10100101 /
#336000
0$
0*
#337000
1$
1*
b10100110 /
#338000
0$
0*
#339000
1$
1*
b10100111 /
#340000
0$
0*
#341000
1$
1*
b10101000 /
#342000
0$
0*
#343000
1$
1*
b10101001 /
#344000
0$
0*
#345000
1$
1*
b10101010 /
#346000
0$
0*
#347000
1$
1*
b10101011 /
#348000
0$
0*
#349000
1$
1*
b10101100 /
#350000
0$
0*
#351000
1$
1*
b10101101 /
#352000
0$
0*
#353000
1$
1*
b10101110 /
#354000
0$
0*
#355000
1$
1*
b10101111 /
#356000
0$
0*
#357000
1$
1*
b10110000 /
#358000
0$
0*
#359000
1$
1*
b10110001 /
#360000
0$
0*
#361000
1$
1*
b10110010 /
#362000
0$
0*
#363000
1$
1*
b10110011 /
#364000
0$
0*
#365000
1$
1*
b10110100 /
#366000
0$
0*
#367000
1$
1*
b10110101 /
#368000
0$
0*
#369000
1$
1*
b10110110 /
#370000
0$
0*
#371000
1$
1*
b10110111 /
#372000
0$
0*
#373000
1$
1*
b10111000 /
#374000
0$
0*
#375000
1$
1*
b10111001 /
#376000
0$
0*
#377000
1$
1*
b10111010 /
#378000
0$
0*
#379000
1$
1*
b10111011 /
#380000
0$
0*
#381000
1$
1*
b10111100 /
#382000
0$
0*
#383000
1$
1*
b10111101 /
#384000
0$
0*
#385000
1$
1*
b10111110 /
#386000
0$
0*
#387000
1$
1*
b10111111 /
#388000
0$
0*
#389000
1$
1*
b11000000 /
#390000
0$
0*
#391000
1$
1*
b11000001 /
#392000
0$
0*
#393000
1$
1*
b11000010 /
#394000
0$
0*
#395000
1$
1*
b11000011 /
#396000
0$
0*
#397000
1$
1*
b11000100 /
#398000
0$
0*
#399000
1$
1*
b11000101 /
#400000
0$
0*
#401000
1$
1*
b11000110 /
#402000
0$
0*
#403000
1$
1*
b11000111 /
#404000
0$
0*
#405000
1$
1*
b11001000 /
#406000
0$
0*
#407000
1$
1*
b11001001 /
#408000
0$
0*
#409000
1$
1*
b11001010 /
#410000
0$
0*
#411000
1$
1*
b11001011 /
#412000
0$
0*
#413000
1$
1*
b11001100 /
#414000
0$
0*
#415000
1$
1*
b11001101 /
#416000
0$
0*
#417000
1$
1*
b11001110 /
#418000
0$
0*
#419000
1$
1*
b11001111 /
#420000
0$
0*
#421000
1$
1*
b11010000 /
#422000
0$
0*
#423000
1$
1*
b11010001 /
#424000
0$
0*
#425000
1$
1*
b11010010 /
#426000
0$
0*
#427000
1$
1*
b11010011 /
#428000
0$
0*
#429000
1$
1*
b11010100 /
#430000
0$
0*
#431000
1$
1*
b11010101 /
#432000
0$
0*
#433000
1$
1*
b11010110 /
#434000
0$
0*
#435000
1$
1*
b11010111 /
#436000
0$
0*
#437000
1$
1*
b11011000 /
#438000
0$
0*
#439000
1$
1*
b0 /
b10 .
#440000
0$
0*
#441000
1$
1*
b1 /
#442000
0$
0*
#443000
1$
1*
b10 /
#444000
0$
0*
#445000
1$
1*
b11 /
#446000
0$
0*
#447000
1$
1*
b100 /
#448000
0$
0*
#449000
1$
1*
b101 /
#450000
0$
0*
#451000
1$
1*
b110 /
#452000
0$
0*
#453000
1$
1*
b111 /
#454000
0$
0*
#455000
1$
1*
b1000 /
#456000
0$
0*
#457000
1$
1*
b1001 /
#458000
0$
0*
#459000
1$
1*
b1010 /
#460000
0$
0*
#461000
1$
1*
b1011 /
#462000
0$
0*
#463000
1$
1*
b1100 /
#464000
0$
0*
#465000
1$
1*
b1101 /
#466000
0$
0*
#467000
1$
1*
b1110 /
#468000
0$
0*
#469000
1$
1*
b1111 /
#470000
0$
0*
#471000
1$
1*
b10000 /
#472000
0$
0*
#473000
1$
1*
b10001 /
#474000
0$
0*
#475000
1$
1*
b10010 /
#476000
0$
0*
#477000
1$
1*
b10011 /
#478000
0$
0*
#479000
1$
1*
b10100 /
#480000
0$
0*
#481000
1$
1*
b10101 /
#482000
0$
0*
#483000
1$
1*
b10110 /
#484000
0$
0*
#485000
1$
1*
b10111 /
#486000
0$
0*
#487000
1$
1*
b11000 /
#488000
0$
0*
#489000
1$
1*
b11001 /
#490000
0$
0*
#491000
1$
1*
b11010 /
#492000
0$
0*
#493000
1$
1*
b11011 /
#494000
0$
0*
#495000
1$
1*
b11100 /
#496000
0$
0*
#497000
1$
1*
b11101 /
#498000
0$
0*
#499000
1$
1*
b11110 /
#500000
0$
0*
#501000
1$
1*
b11111 /
#502000
0$
0*
#503000
1$
1*
b100000 /
#504000
0$
0*
#505000
1$
1*
b100001 /
#506000
0$
0*
#507000
1$
1*
b100010 /
#508000
0$
0*
#509000
1$
1*
b100011 /
#510000
0$
0*
#511000
1$
1*
b100100 /
#512000
0$
0*
#513000
1$
1*
b100101 /
#514000
0$
0*
#515000
1$
1*
b100110 /
#516000
0$
0*
#517000
1$
1*
b100111 /
#518000
0$
0*
#519000
1$
1*
b101000 /
#520000
0$
0*
#521000
1$
1*
b101001 /
#522000
0$
0*
#523000
1$
1*
b101010 /
#524000
0$
0*
#525000
1$
1*
b101011 /
#526000
0$
0*
#527000
1$
1*
b101100 /
#528000
0$
0*
#529000
1$
1*
b101101 /
#530000
0$
0*
#531000
1$
1*
b101110 /
#532000
0$
0*
#533000
1$
1*
b101111 /
#534000
0$
0*
#535000
1$
1*
b110000 /
#536000
0$
0*
#537000
1$
1*
b110001 /
#538000
0$
0*
#539000
1$
1*
b110010 /
#540000
0$
0*
#541000
1$
1*
b110011 /
#542000
0$
0*
#543000
1$
1*
b110100 /
#544000
0$
0*
#545000
1$
1*
b110101 /
#546000
0$
0*
#547000
1$
1*
b110110 /
#548000
0$
0*
#549000
1$
1*
b110111 /
#550000
0$
0*
#551000
1$
1*
b111000 /
#552000
0$
0*
#553000
1$
1*
b111001 /
#554000
0$
0*
#555000
1$
1*
b111010 /
#556000
0$
0*
#557000
1$
1*
b111011 /
#558000
0$
0*
#559000
1$
1*
b111100 /
#560000
0$
0*
#561000
1$
1*
b111101 /
#562000
0$
0*
#563000
1$
1*
b111110 /
#564000
0$
0*
#565000
1$
1*
b111111 /
#566000
0$
0*
#567000
1$
1*
b1000000 /
#568000
0$
0*
#569000
1$
1*
b1000001 /
#570000
0$
0*
#571000
1$
1*
b1000010 /
#572000
0$
0*
#573000
1$
1*
b1000011 /
#574000
0$
0*
#575000
1$
1*
b1000100 /
#576000
0$
0*
#577000
1$
1*
b1000101 /
#578000
0$
0*
#579000
1$
1*
b1000110 /
#580000
0$
0*
#581000
1$
1*
b1000111 /
#582000
0$
0*
#583000
1$
1*
b1001000 /
#584000
0$
0*
#585000
1$
1*
b1001001 /
#586000
0$
0*
#587000
1$
1*
b1001010 /
#588000
0$
0*
#589000
1$
1*
b1001011 /
#590000
0$
0*
#591000
1$
1*
b1001100 /
#592000
0$
0*
#593000
1$
1*
b1001101 /
#594000
0$
0*
#595000
1$
1*
b1001110 /
#596000
0$
0*
#597000
1$
1*
b1001111 /
#598000
0$
0*
#599000
1$
1*
b1010000 /
#600000
0$
0*
#601000
1$
1*
b1010001 /
#602000
0$
0*
#603000
1$
1*
b1010010 /
#604000
0$
0*
#605000
1$
1*
b1010011 /
#606000
0$
0*
#607000
1$
1*
b1010100 /
#608000
0$
0*
#609000
1$
1*
b1010101 /
#610000
0$
0*
#611000
1$
1*
b1010110 /
#612000
0$
0*
#613000
1$
1*
b1010111 /
#614000
0$
0*
#615000
1$
1*
b1011000 /
#616000
0$
0*
#617000
1$
1*
b1011001 /
#618000
0$
0*
#619000
1$
1*
b1011010 /
#620000
0$
0*
#621000
1$
1*
b1011011 /
#622000
0$
0*
#623000
1$
1*
b1011100 /
#624000
0$
0*
#625000
1$
1*
b1011101 /
#626000
0$
0*
#627000
1$
1*
b1011110 /
#628000
0$
0*
#629000
1$
1*
b1011111 /
#630000
0$
0*
#631000
1$
1*
b1100000 /
#632000
0$
0*
#633000
1$
1*
b1100001 /
#634000
0$
0*
#635000
1$
1*
b1100010 /
#636000
0$
0*
#637000
1$
1*
b1100011 /
#638000
0$
0*
#639000
1$
1*
b1100100 /
#640000
0$
0*
#641000
1$
1*
b1100101 /
#642000
0$
0*
#643000
1$
1*
b1100110 /
#644000
0$
0*
#645000
1$
1*
b1100111 /
#646000
0$
0*
#647000
1$
1*
b1101000 /
#648000
0$
0*
#649000
1$
1*
b1101001 /
#650000
0$
0*
#651000
1$
1*
b1101010 /
#652000
0$
0*
#653000
1$
1*
b1101011 /
#654000
0$
0*
#655000
1$
1*
b1101100 /
#656000
0$
0*
#657000
1$
1*
b1101101 /
#658000
0$
0*
#659000
1$
1*
b1101110 /
#660000
0$
0*
#661000
1$
1*
b1101111 /
#662000
0$
0*
#663000
1$
1*
b1110000 /
#664000
0$
0*
#665000
1$
1*
b1110001 /
#666000
0$
0*
#667000
1$
1*
b1110010 /
#668000
0$
0*
#669000
1$
1*
b1110011 /
#670000
0$
0*
#671000
1$
1*
b1110100 /
#672000
0$
0*
#673000
1$
1*
b1110101 /
#674000
0$
0*
#675000
1$
1*
b1110110 /
#676000
0$
0*
#677000
1$
1*
b1110111 /
#678000
0$
0*
#679000
1$
1*
b1111000 /
#680000
0$
0*
#681000
1$
1*
b1111001 /
#682000
0$
0*
#683000
1$
1*
b1111010 /
#684000
0$
0*
#685000
1$
1*
b1111011 /
#686000
0$
0*
#687000
1$
1*
b1111100 /
#688000
0$
0*
#689000
1$
1*
b1111101 /
#690000
0$
0*
#691000
1$
1*
b1111110 /
#692000
0$
0*
#693000
1$
1*
b1111111 /
#694000
0$
0*
#695000
1$
1*
b10000000 /
#696000
0$
0*
#697000
1$
1*
b10000001 /
#698000
0$
0*
#699000
1$
1*
b10000010 /
#700000
0$
0*
#701000
1$
1*
b10000011 /
#702000
0$
0*
#703000
1$
1*
b10000100 /
#704000
0$
0*
#705000
1$
1*
b10000101 /
#706000
0$
0*
#707000
1$
1*
b10000110 /
#708000
0$
0*
#709000
1$
1*
b10000111 /
#710000
0$
0*
#711000
1$
1*
b10001000 /
#712000
0$
0*
#713000
1$
1*
b10001001 /
#714000
0$
0*
#715000
1$
1*
b10001010 /
#716000
0$
0*
#717000
1$
1*
b10001011 /
#718000
0$
0*
#719000
1$
1*
b10001100 /
#720000
0$
0*
#721000
1$
1*
b10001101 /
#722000
0$
0*
#723000
1$
1*
b10001110 /
#724000
0$
0*
#725000
1$
1*
b10001111 /
#726000
0$
0*
#727000
1$
1*
b10010000 /
#728000
0$
0*
#729000
1$
1*
b10010001 /
#730000
0$
0*
#731000
1$
1*
b10010010 /
#732000
0$
0*
#733000
1$
1*
b10010011 /
#734000
0$
0*
#735000
1$
1*
b10010100 /
#736000
0$
0*
#737000
1$
1*
b10010101 /
#738000
0$
0*
#739000
1$
1*
b10010110 /
#740000
0$
0*
#741000
1$
1*
b10010111 /
#742000
0$
0*
#743000
1$
1*
b10011000 /
#744000
0$
0*
#745000
1$
1*
b10011001 /
#746000
0$
0*
#747000
1$
1*
b10011010 /
#748000
0$
0*
#749000
1$
1*
b10011011 /
#750000
0$
0*
#751000
1$
1*
b10011100 /
#752000
0$
0*
#753000
1$
1*
b10011101 /
#754000
0$
0*
#755000
1$
1*
b10011110 /
#756000
0$
0*
#757000
1$
1*
b10011111 /
#758000
0$
0*
#759000
1$
1*
b10100000 /
#760000
0$
0*
#761000
1$
1*
b10100001 /
#762000
0$
0*
#763000
1$
1*
b10100010 /
#764000
0$
0*
#765000
1$
1*
b10100011 /
#766000
0$
0*
#767000
1$
1*
b10100100 /
#768000
0$
0*
#769000
1$
1*
b10100101 /
#770000
0$
0*
#771000
1$
1*
b10100110 /
#772000
0$
0*
#773000
1$
1*
b10100111 /
#774000
0$
0*
#775000
1$
1*
b10101000 /
#776000
0$
0*
#777000
1$
1*
b10101001 /
#778000
0$
0*
#779000
1$
1*
b10101010 /
#780000
0$
0*
#781000
1$
1*
b10101011 /
#782000
0$
0*
#783000
1$
1*
b10101100 /
#784000
0$
0*
#785000
1$
1*
b10101101 /
#786000
0$
0*
#787000
1$
1*
b10101110 /
#788000
0$
0*
#789000
1$
1*
b10101111 /
#790000
0$
0*
#791000
1$
1*
b10110000 /
#792000
0$
0*
#793000
1$
1*
b10110001 /
#794000
0$
0*
#795000
1$
1*
b10110010 /
#796000
0$
0*
#797000
1$
1*
b10110011 /
#798000
0$
0*
#799000
1$
1*
b10110100 /
#800000
0$
0*
#801000
1$
1*
b10110101 /
#802000
0$
0*
#803000
1$
1*
b10110110 /
#804000
0$
0*
#805000
1$
1*
b10110111 /
#806000
0$
0*
#807000
1$
1*
b10111000 /
#808000
0$
0*
#809000
1$
1*
b10111001 /
#810000
0$
0*
#811000
1$
1*
b10111010 /
#812000
0$
0*
#813000
1$
1*
b10111011 /
#814000
0$
0*
#815000
1$
1*
b10111100 /
#816000
0$
0*
#817000
1$
1*
b10111101 /
#818000
0$
0*
#819000
1$
1*
b10111110 /
#820000
0$
0*
#821000
1$
1*
b10111111 /
#822000
0$
0*
#823000
1$
1*
b11000000 /
#824000
0$
0*
#825000
1$
1*
b11000001 /
#826000
0$
0*
#827000
1$
1*
b11000010 /
#828000
0$
0*
#829000
1$
1*
b11000011 /
#830000
0$
0*
#831000
1$
1*
b11000100 /
#832000
0$
0*
#833000
1$
1*
b11000101 /
#834000
0$
0*
#835000
1$
1*
b11000110 /
#836000
0$
0*
#837000
1$
1*
b11000111 /
#838000
0$
0*
#839000
1$
1*
b11001000 /
#840000
0$
0*
#841000
1$
1*
b11001001 /
#842000
0$
0*
#843000
1$
1*
b11001010 /
#844000
0$
0*
#845000
1$
1*
b11001011 /
#846000
0$
0*
#847000
1$
1*
b11001100 /
#848000
0$
0*
#849000
1$
1*
b11001101 /
#850000
0$
0*
#851000
1$
1*
b11001110 /
#852000
0$
0*
#853000
1$
1*
b11001111 /
#854000
0$
0*
#855000
1$
1*
b11010000 /
#856000
0$
0*
#857000
1$
1*
b11010001 /
#858000
0$
0*
#859000
1$
1*
b11010010 /
#860000
0$
0*
#861000
1$
1*
b11010011 /
#862000
0$
0*
#863000
1$
1*
b11010100 /
#864000
0$
0*
#865000
1$
1*
b11010101 /
#866000
0$
0*
#867000
1$
1*
b11010110 /
#868000
0$
0*
#869000
1$
1*
b11010111 /
#870000
0$
0*
#871000
1$
1*
b11011000 /
1%
1+
#872000
0$
0*
#873000
1$
1*
b11011001 /
#874000
0$
0*
#875000
1$
1*
b11011010 /
#876000
0$
0*
#877000
1$
1*
b11011011 /
#878000
0$
0*
#879000
1$
1*
b11011100 /
#880000
0$
0*
#881000
1$
1*
b11011101 /
#882000
0$
0*
#883000
1$
1*
b11011110 /
#884000
0$
0*
#885000
1$
1*
b11011111 /
#886000
0$
0*
#887000
1$
1*
b11100000 /
#888000
0$
0*
#889000
1$
1*
b11100001 /
#890000
0$
0*
#891000
1$
1*
b11100010 /
#892000
0$
0*
#893000
1$
1*
b11100011 /
#894000
0$
0*
#895000
1$
1*
b11100100 /
#896000
0$
0*
#897000
1$
1*
b11100101 /
#898000
0$
0*
#899000
1$
1*
b11100110 /
#900000
0$
0*
#901000
1$
1*
b11100111 /
#902000
0$
0*
#903000
1$
1*
b11101000 /
#904000
0$
0*
#905000
1$
1*
b11101001 /
#906000
0$
0*
#907000
1$
1*
b11101010 /
#908000
0$
0*
#909000
1$
1*
b11101011 /
#910000
0$
0*
#911000
1$
1*
b11101100 /
#912000
0$
0*
#913000
1$
1*
b11101101 /
#914000
0$
0*
#915000
1$
1*
b11101110 /
#916000
0$
0*
#917000
1$
1*
b11101111 /
#918000
0$
0*
#919000
1$
1*
b11110000 /
#920000
0$
0*
#921000
1$
1*
b11110001 /
#922000
0$
0*
#923000
1$
1*
b11110010 /
#924000
0$
0*
#925000
1$
1*
b11110011 /
#926000
0$
0*
#927000
1$
1*
b11110100 /
#928000
0$
0*
#929000
1$
1*
b11110101 /
#930000
0$
0*
#931000
1$
1*
b11110110 /
#932000
0$
0*
#933000
1$
1*
b11110111 /
#934000
0$
0*
#935000
1$
1*
b11111000 /
#936000
0$
0*
#937000
1$
1*
b11111001 /
#938000
0$
0*
#939000
1$
1*
b11111010 /
#940000
0$
0*
#941000
1$
1*
b11111011 /
#942000
0$
0*
#943000
1$
1*
b11111100 /
#944000
0$
0*
#945000
1$
1*
b11111101 /
#946000
0$
0*
#947000
1$
1*
b11111110 /
#948000
0$
0*
#949000
1$
1*
b11111111 /
#950000
0$
0*
#951000
1$
1*
b100000000 /
#952000
0$
0*
#953000
1$
1*
b100000001 /
#954000
0$
0*
#955000
1$
1*
b100000010 /
#956000
0$
0*
#957000
1$
1*
b100000011 /
#958000
0$
0*
#959000
1$
1*
b100000100 /
#960000
0$
0*
#961000
1$
1*
b100000101 /
#962000
0$
0*
#963000
1$
1*
b100000110 /
#964000
0$
0*
#965000
1$
1*
b100000111 /
#966000
0$
0*
#967000
1$
1*
b100001000 /
#968000
0$
0*
#969000
1$
1*
b100001001 /
#970000
0$
0*
#971000
1$
1*
b100001010 /
#972000
0$
0*
#973000
1$
1*
b100001011 /
#974000
0$
0*
#975000
1$
1*
b100001100 /
#976000
0$
0*
#977000
1$
1*
b100001101 /
#978000
0$
0*
#979000
1$
1*
b100001110 /
#980000
0$
0*
#981000
1$
1*
b100001111 /
#982000
0$
0*
#983000
1$
1*
b100010000 /
#984000
0$
0*
#985000
1$
1*
b100010001 /
#986000
0$
0*
#987000
1$
1*
b100010010 /
#988000
0$
0*
#989000
1$
1*
b100010011 /
#990000
0$
0*
#991000
1$
1*
b100010100 /
#992000
0$
0*
#993000
1$
1*
b100010101 /
#994000
0$
0*
#995000
1$
1*
b100010110 /
#996000
0$
0*
#997000
1$
1*
b100010111 /
#998000
0$
0*
#999000
1$
1*
b100011000 /
#1000000
0$
0*
#1001000
1$
1*
b100011001 /
#1002000
0$
0*
#1003000
1$
1*
b100011010 /
#1004000
0$
0*
#1005000
1$
1*
b100011011 /
#1006000
0$
0*
#1007000
1$
1*
b100011100 /
#1008000
0$
0*
#1009000
1$
1*
b100011101 /
#1010000
0$
0*
#1011000
1$
1*
b100011110 /
#1012000
0$
0*
#1013000
1$
1*
b100011111 /
#1014000
0$
0*
#1015000
1$
1*
b100100000 /
#1016000
0$
0*
#1017000
1$
1*
b100100001 /
#1018000
0$
0*
#1019000
1$
1*
b100100010 /
#1020000
0$
0*
#1021000
1$
1*
b100100011 /
#1022000
0$
0*
#1023000
1$
1*
b100100100 /
#1024000
0$
0*
#1025000
1$
1*
b100100101 /
#1026000
0$
0*
#1027000
1$
1*
b100100110 /
#1028000
0$
0*
#1029000
1$
1*
b100100111 /
#1030000
0$
0*
#1031000
1$
1*
b100101000 /
#1032000
0$
0*
#1033000
1$
1*
b100101001 /
#1034000
0$
0*
#1035000
1$
1*
b100101010 /
#1036000
0$
0*
#1037000
1$
1*
b100101011 /
#1038000
0$
0*
#1039000
1$
1*
b100101100 /
#1040000
0$
0*
#1041000
1$
1*
b100101101 /
#1042000
0$
0*
#1043000
1$
1*
b100101110 /
#1044000
0$
0*
#1045000
1$
1*
b100101111 /
#1046000
0$
0*
#1047000
1$
1*
b100110000 /
#1048000
0$
0*
#1049000
1$
1*
b100110001 /
#1050000
0$
0*
#1051000
1$
1*
b100110010 /
#1052000
0$
0*
#1053000
1$
1*
b100110011 /
#1054000
0$
0*
#1055000
1$
1*
b100110100 /
#1056000
0$
0*
#1057000
1$
1*
b100110101 /
#1058000
0$
0*
#1059000
1$
1*
b100110110 /
#1060000
0$
0*
#1061000
1$
1*
b100110111 /
#1062000
0$
0*
#1063000
1$
1*
b100111000 /
#1064000
0$
0*
#1065000
1$
1*
b100111001 /
#1066000
0$
0*
#1067000
1$
1*
b100111010 /
#1068000
0$
0*
