UART/UART_modelsim_proj/dump.vcd
$date
	Wed Feb 05 14:26:08 2025
$end
$version
	ModelSim Version 2020.1
$end
$timescale
	10ps
$end

$scope module UART_Rx_tb $end
$var parameter 32 ! c_FPGA_clk_freq $end
$var parameter 32 " c_baudrate $end
$var parameter 32 # c_CLOCK_PERIOD_NS $end
$var parameter 32 $ c_BIT_PERIOD $end
$var reg 1 % Clock_r $end
$var reg 1 & RX_Serial_r $end
$var reg 1 ' RX_DV $end
$var reg 8 ( RX_Byte [7:0] $end

$scope task UART_WRITE_BYTE $end
$var reg 8 ) i_Data [7:0] $end
$upscope $end

$scope module UART_RX_INST_l $end
$var parameter 32 * FPGA_clk_freq $end
$var parameter 32 + baudrate $end
$var parameter 32 , CLKS_PER_BIT $end
$var wire 1 - clk $end
$var wire 1 . i_RX_Serial $end
$var reg 1 / o_RX_DV $end
$var reg 8 0 o_RX_Byte [7:0] $end
$var reg 3 1 state_r [2:0] $end
$var reg 10 2 Clock_Count_r [9:0] $end
$var reg 3 3 Bit_Index_r [2:0] $end
$var reg 8 4 RX_Byte_r [7:0] $end
$var reg 1 5 RX_DV_r $end
$upscope $end
$upscope $end
$enddefinitions $end
#0
$dumpvars
0%
1&
0'
b0 (
bx )
0/
b0 0
b0 1
b0 2
b0 3
b0 4
05
b10111110101111000010000000 !
b11100001000000000 "
b10100 #
b10000111101000 $
b10111110101111000010000000 *
b11100001000000000 +
b110110010 ,
0-
1.
$end
#1000
1%
1-
b110111 )
0&
0.
#2000
0%
0-
#3000
1%
1-
b1 1
#4000
0%
0-
#5000
1%
1-
b1 2
#6000
0%
0-
#7000
1%
1-
b10 2
#8000
0%
0-
#9000
1%
1-
b11 2
#10000
0%
0-
#11000
1%
1-
b100 2
#12000
0%
0-
#13000
1%
1-
b101 2
#14000
0%
0-
#15000
1%
1-
b110 2
#16000
0%
0-
#17000
1%
1-
b111 2
#18000
0%
0-
#19000
1%
1-
b1000 2
#20000
0%
0-
#21000
1%
1-
b1001 2
#22000
0%
0-
#23000
1%
1-
b1010 2
#24000
0%
0-
#25000
1%
1-
b1011 2
#26000
0%
0-
#27000
1%
1-
b1100 2
#28000
0%
0-
#29000
1%
1-
b1101 2
#30000
0%
0-
#31000
1%
1-
b1110 2
#32000
0%
0-
#33000
1%
1-
b1111 2
#34000
0%
0-
#35000
1%
1-
b10000 2
#36000
0%
0-
#37000
1%
1-
b10001 2
#38000
0%
0-
#39000
1%
1-
b10010 2
#40000
0%
0-
#41000
1%
1-
b10011 2
#42000
0%
0-
#43000
1%
1-
b10100 2
#44000
0%
0-
#45000
1%
1-
b10101 2
#46000
0%
0-
#47000
1%
1-
b10110 2
#48000
0%
0-
#49000
1%
1-
b10111 2
#50000
0%
0-
#51000
1%
1-
b11000 2
#52000
0%
0-
#53000
1%
1-
b11001 2
#54000
0%
0-
#55000
1%
1-
b11010 2
#56000
0%
0-
#57000
1%
1-
b11011 2
#58000
0%
0-
#59000
1%
1-
b11100 2
#60000
0%
0-
#61000
1%
1-
b11101 2
#62000
0%
0-
#63000
1%
1-
b11110 2
#64000
0%
0-
#65000
1%
1-
b11111 2
#66000
0%
0-
#67000
1%
1-
b100000 2
#68000
0%
0-
#69000
1%
1-
b100001 2
#70000
0%
0-
#71000
1%
1-
b100010 2
#72000
0%
0-
#73000
1%
1-
b100011 2
#74000
0%
0-
#75000
1%
1-
b100100 2
#76000
0%
0-
#77000
1%
1-
b100101 2
#78000
0%
0-
#79000
1%
1-
b100110 2
#80000
0%
0-
#81000
1%
1-
b100111 2
#82000
0%
0-
#83000
1%
1-
b101000 2
#84000
0%
0-
#85000
1%
1-
b101001 2
#86000
0%
0-
#87000
1%
1-
b101010 2
#88000
0%
0-
#89000
1%
1-
b101011 2
#90000
0%
0-
#91000
1%
1-
b101100 2
#92000
0%
0-
#93000
1%
1-
b101101 2
#94000
0%
0-
#95000
1%
1-
b101110 2
#96000
0%
0-
#97000
1%
1-
b101111 2
#98000
0%
0-
#99000
1%
1-
b110000 2
#100000
0%
0-
#101000
1%
1-
b110001 2
#102000
0%
0-
#103000
1%
1-
b110010 2
#104000
0%
0-
#105000
1%
1-
b110011 2
#106000
0%
0-
#107000
1%
1-
b110100 2
#108000
0%
0-
#109000
1%
1-
b110101 2
#110000
0%
0-
#111000
1%
1-
b110110 2
#112000
0%
0-
#113000
1%
1-
b110111 2
#114000
0%
0-
#115000
1%
1-
b111000 2
#116000
0%
0-
#117000
1%
1-
b111001 2
#118000
0%
0-
#119000
1%
1-
b111010 2
#120000
0%
0-
#121000
1%
1-
b111011 2
#122000
0%
0-
#123000
1%
1-
b111100 2
#124000
0%
0-
#125000
1%
1-
b111101 2
#126000
0%
0-
#127000
1%
1-
b111110 2
#128000
0%
0-
#129000
1%
1-
b111111 2
#130000
0%
0-
#131000
1%
1-
b1000000 2
#132000
0%
0-
#133000
1%
1-
b1000001 2
#134000
0%
0-
#135000
1%
1-
b1000010 2
#136000
0%
0-
#137000
1%
1-
b1000011 2
#138000
0%
0-
#139000
1%
1-
b1000100 2
#140000
0%
0-
#141000
1%
1-
b1000101 2
#142000
0%
0-
#143000
1%
1-
b1000110 2
#144000
0%
0-
#145000
1%
1-
b1000111 2
#146000
0%
0-
#147000
1%
1-
b1001000 2
#148000
0%
0-
#149000
1%
1-
b1001001 2
#150000
0%
0-
#151000
1%
1-
b1001010 2
#152000
0%
0-
#153000
1%
1-
b1001011 2
#154000
0%
0-
#155000
1%
1-
b1001100 2
#156000
0%
0-
#157000
1%
1-
b1001101 2
#158000
0%
0-
#159000
1%
1-
b1001110 2
#160000
0%
0-
#161000
1%
1-
b1001111 2
#162000
0%
0-
#163000
1%
1-
b1010000 2
#164000
0%
0-
#165000
1%
1-
b1010001 2
#166000
0%
0-
#167000
1%
1-
b1010010 2
#168000
0%
0-
#169000
1%
1-
b1010011 2
#170000
0%
0-
#171000
1%
1-
b1010100 2
#172000
0%
0-
#173000
1%
1-
b1010101 2
#174000
0%
0-
#175000
1%
1-
b1010110 2
#176000
0%
0-
#177000
1%
1-
b1010111 2
#178000
0%
0-
#179000
1%
1-
b1011000 2
#180000
0%
0-
#181000
1%
1-
b1011001 2
#182000
0%
0-
#183000
1%
1-
b1011010 2
#184000
0%
0-
#185000
1%
1-
b1011011 2
#186000
0%
0-
#187000
1%
1-
b1011100 2
#188000
0%
0-
#189000
1%
1-
b1011101 2
#190000
0%
0-
#191000
1%
1-
b1011110 2
#192000
0%
0-
#193000
1%
1-
b1011111 2
#194000
0%
0-
#195000
1%
1-
b1100000 2
#196000
0%
0-
#197000
1%
1-
b1100001 2
#198000
0%
0-
#199000
1%
1-
b1100010 2
#200000
0%
0-
#201000
1%
1-
b1100011 2
#202000
0%
0-
#203000
1%
1-
b1100100 2
#204000
0%
0-
#205000
1%
1-
b1100101 2
#206000
0%
0-
#207000
1%
1-
b1100110 2
#208000
0%
0-
#209000
1%
1-
b1100111 2
#210000
0%
0-
#211000
1%
1-
b1101000 2
#212000
0%
0-
#213000
1%
1-
b1101001 2
#214000
0%
0-
#215000
1%
1-
b1101010 2
#216000
0%
0-
#217000
1%
1-
b1101011 2
#218000
0%
0-
#219000
1%
1-
b1101100 2
#220000
0%
0-
#221000
1%
1-
b1101101 2
#222000
0%
0-
#223000
1%
1-
b1101110 2
#224000
0%
0-
#225000
1%
1-
b1101111 2
#226000
0%
0-
#227000
1%
1-
b1110000 2
#228000
0%
0-
#229000
1%
1-
b1110001 2
#230000
0%
0-
#231000
1%
1-
b1110010 2
#232000
0%
0-
#233000
1%
1-
b1110011 2
#234000
0%
0-
#235000
1%
1-
b1110100 2
#236000
0%
0-
#237000
1%
1-
b1110101 2
#238000
0%
0-
#239000
1%
1-
b1110110 2
#240000
0%
0-
#241000
1%
1-
b1110111 2
#242000
0%
0-
#243000
1%
1-
b1111000 2
#244000
0%
0-
#245000
1%
1-
b1111001 2
#246000
0%
0-
#247000
1%
1-
b1111010 2
#248000
0%
0-
#249000
1%
1-
b1111011 2
#250000
0%
0-
#251000
1%
1-
b1111100 2
#252000
0%
0-
#253000
1%
1-
b1111101 2
#254000
0%
0-
#255000
1%
1-
b1111110 2
#256000
0%
0-
#257000
1%
1-
b1111111 2
#258000
0%
0-
#259000
1%
1-
b10000000 2
#260000
0%
0-
#261000
1%
1-
b10000001 2
#262000
0%
0-
#263000
1%
1-
b10000010 2
#264000
0%
0-
#265000
1%
1-
b10000011 2
#266000
0%
0-
#267000
1%
1-
b10000100 2
#268000
0%
0-
#269000
1%
1-
b10000101 2
#270000
0%
0-
#271000
1%
1-
b10000110 2
#272000
0%
0-
#273000
1%
1-
b10000111 2
#274000
0%
0-
#275000
1%
1-
b10001000 2
#276000
0%
0-
#277000
1%
1-
b10001001 2
#278000
0%
0-
#279000
1%
1-
b10001010 2
#280000
0%
0-
#281000
1%
1-
b10001011 2
#282000
0%
0-
#283000
1%
1-
b10001100 2
#284000
0%
0-
#285000
1%
1-
b10001101 2
#286000
0%
0-
#287000
1%
1-
b10001110 2
#288000
0%
0-
#289000
1%
1-
b10001111 2
#290000
0%
0-
#291000
1%
1-
b10010000 2
#292000
0%
0-
#293000
1%
1-
b10010001 2
#294000
0%
0-
#295000
1%
1-
b10010010 2
#296000
0%
0-
#297000
1%
1-
b10010011 2
#298000
0%
0-
#299000
1%
1-
b10010100 2
#300000
0%
0-
#301000
1%
1-
b10010101 2
#302000
0%
0-
#303000
1%
1-
b10010110 2
#304000
0%
0-
#305000
1%
1-
b10010111 2
#306000
0%
0-
#307000
1%
1-
b10011000 2
#308000
0%
0-
#309000
1%
1-
b10011001 2
#310000
0%
0-
#311000
1%
1-
b10011010 2
#312000
0%
0-
#313000
1%
1-
b10011011 2
#314000
0%
0-
#315000
1%
1-
b10011100 2
#316000
0%
0-
#317000
1%
1-
b10011101 2
#318000
0%
0-
#319000
1%
1-
b10011110 2
#320000
0%
0-
#321000
1%
1-
b10011111 2
#322000
0%
0-
#323000
1%
1-
b10100000 2
#324000
0%
0-
#325000
1%
1-
b10100001 2
#326000
0%
0-
#327000
1%
1-
b10100010 2
#328000
0%
0-
#329000
1%
1-
b10100011 2
#330000
0%
0-
#331000
1%
1-
b10100100 2
#332000
0%
0-
#333000
1%
1-
b10100101 2
#334000
0%
0-
#335000
1%
1-
b10100110 2
#336000
0%
0-
#337000
1%
1-
b10100111 2
#338000
0%
0-
#339000
1%
1-
b10101000 2
#340000
0%
0-
#341000
1%
1-
b10101001 2
#342000
0%
0-
#343000
1%
1-
b10101010 2
#344000
0%
0-
#345000
1%
1-
b10101011 2
#346000
0%
0-
#347000
1%
1-
b10101100 2
#348000
0%
0-
#349000
1%
1-
b10101101 2
#350000
0%
0-
#351000
1%
1-
b10101110 2
#352000
0%
0-
#353000
1%
1-
b10101111 2
#354000
0%
0-
#355000
1%
1-
b10110000 2
#356000
0%
0-
#357000
1%
1-
b10110001 2
#358000
0%
0-
#359000
1%
1-
b10110010 2
#360000
0%
0-
#361000
1%
1-
b10110011 2
#362000
0%
0-
#363000
1%
1-
b10110100 2
#364000
0%
0-
#365000
1%
1-
b10110101 2
#366000
0%
0-
#367000
1%
1-
b10110110 2
#368000
0%
0-
#369000
1%
1-
b10110111 2
#370000
0%
0-
#371000
1%
1-
b10111000 2
#372000
0%
0-
#373000
1%
1-
b10111001 2
#374000
0%
0-
#375000
1%
1-
b10111010 2
#376000
0%
0-
#377000
1%
1-
b10111011 2
#378000
0%
0-
#379000
1%
1-
b10111100 2
#380000
0%
0-
#381000
1%
1-
b10111101 2
#382000
0%
0-
#383000
1%
1-
b10111110 2
#384000
0%
0-
#385000
1%
1-
b10111111 2
#386000
0%
0-
#387000
1%
1-
b11000000 2
#388000
0%
0-
#389000
1%
1-
b11000001 2
#390000
0%
0-
#391000
1%
1-
b11000010 2
#392000
0%
0-
#393000
1%
1-
b11000011 2
#394000
0%
0-
#395000
1%
1-
b11000100 2
#396000
0%
0-
#397000
1%
1-
b11000101 2
#398000
0%
0-
#399000
1%
1-
b11000110 2
#400000
0%
0-
#401000
1%
1-
b11000111 2
#402000
0%
0-
#403000
1%
1-
b11001000 2
#404000
0%
0-
#405000
1%
1-
b11001001 2
#406000
0%
0-
#407000
1%
1-
b11001010 2
#408000
0%
0-
#409000
1%
1-
b11001011 2
#410000
0%
0-
#411000
1%
1-
b11001100 2
#412000
0%
0-
#413000
1%
1-
b11001101 2
#414000
0%
0-
#415000
1%
1-
b11001110 2
#416000
0%
0-
#417000
1%
1-
b11001111 2
#418000
0%
0-
#419000
1%
1-
b11010000 2
#420000
0%
0-
#421000
1%
1-
b11010001 2
#422000
0%
0-
#423000
1%
1-
b11010010 2
#424000
0%
0-
#425000
1%
1-
b11010011 2
#426000
0%
0-
#427000
1%
1-
b11010100 2
#428000
0%
0-
#429000
1%
1-
b11010101 2
#430000
0%
0-
#431000
1%
1-
b11010110 2
#432000
0%
0-
#433000
1%
1-
b11010111 2
#434000
0%
0-
#435000
1%
1-
b11011000 2
#436000
0%
0-
#437000
1%
1-
b0 2
b10 1
#438000
0%
0-
#439000
1%
1-
b1 2
#440000
0%
0-
#441000
1%
1-
b10 2
#442000
0%
0-
#443000
1%
1-
b11 2
#444000
0%
0-
#445000
1%
1-
b100 2
#446000
0%
0-
#447000
1%
1-
b101 2
#448000
0%
0-
#449000
1%
1-
b110 2
#450000
0%
0-
#451000
1%
1-
b111 2
#452000
0%
0-
#453000
1%
1-
b1000 2
#454000
0%
0-
#455000
1%
1-
b1001 2
#456000
0%
0-
#457000
1%
1-
b1010 2
#458000
0%
0-
#459000
1%
1-
b1011 2
#460000
0%
0-
#461000
1%
1-
b1100 2
#462000
0%
0-
#463000
1%
1-
b1101 2
#464000
0%
0-
#465000
1%
1-
b1110 2
#466000
0%
0-
#467000
1%
1-
b1111 2
#468000
0%
0-
#469000
1%
1-
b10000 2
#470000
0%
0-
#471000
1%
1-
b10001 2
#472000
0%
0-
#473000
1%
1-
b10010 2
#474000
0%
0-
#475000
1%
1-
b10011 2
#476000
0%
0-
#477000
1%
1-
b10100 2
#478000
0%
0-
#479000
1%
1-
b10101 2
#480000
0%
0-
#481000
1%
1-
b10110 2
#482000
0%
0-
#483000
1%
1-
b10111 2
#484000
0%
0-
#485000
1%
1-
b11000 2
#486000
0%
0-
#487000
1%
1-
b11001 2
#488000
0%
0-
#489000
1%
1-
b11010 2
#490000
0%
0-
#491000
1%
1-
b11011 2
#492000
0%
0-
#493000
1%
1-
b11100 2
#494000
0%
0-
#495000
1%
1-
b11101 2
#496000
0%
0-
#497000
1%
1-
b11110 2
#498000
0%
0-
#499000
1%
1-
b11111 2
#500000
0%
0-
#501000
1%
1-
b100000 2
#502000
0%
0-
#503000
1%
1-
b100001 2
#504000
0%
0-
#505000
1%
1-
b100010 2
#506000
0%
0-
#507000
1%
1-
b100011 2
#508000
0%
0-
#509000
1%
1-
b100100 2
#510000
0%
0-
#511000
1%
1-
b100101 2
#512000
0%
0-
#513000
1%
1-
b100110 2
#514000
0%
0-
#515000
1%
1-
b100111 2
#516000
0%
0-
#517000
1%
1-
b101000 2
#518000
0%
0-
#519000
1%
1-
b101001 2
#520000
0%
0-
#521000
1%
1-
b101010 2
#522000
0%
0-
#523000
1%
1-
b101011 2
#524000
0%
0-
#525000
1%
1-
b101100 2
#526000
0%
0-
#527000
1%
1-
b101101 2
#528000
0%
0-
#529000
1%
1-
b101110 2
#530000
0%
0-
#531000
1%
1-
b101111 2
#532000
0%
0-
#533000
1%
1-
b110000 2
#534000
0%
0-
#535000
1%
1-
b110001 2
#536000
0%
0-
#537000
1%
1-
b110010 2
#538000
0%
0-
#539000
1%
1-
b110011 2
#540000
0%
0-
#541000
1%
1-
b110100 2
#542000
0%
0-
#543000
1%
1-
b110101 2
#544000
0%
0-
#545000
1%
1-
b110110 2
#546000
0%
0-
#547000
1%
1-
b110111 2
#548000
0%
0-
#549000
1%
1-
b111000 2
#550000
0%
0-
#551000
1%
1-
b111001 2
#552000
0%
0-
#553000
1%
1-
b111010 2
#554000
0%
0-
#555000
1%
1-
b111011 2
#556000
0%
0-
#557000
1%
1-
b111100 2
#558000
0%
0-
#559000
1%
1-
b111101 2
#560000
0%
0-
#561000
1%
1-
b111110 2
#562000
0%
0-
#563000
1%
1-
b111111 2
#564000
0%
0-
#565000
1%
1-
b1000000 2
#566000
0%
0-
#567000
1%
1-
b1000001 2
#568000
0%
0-
#569000
1%
1-
b1000010 2
#570000
0%
0-
#571000
1%
1-
b1000011 2
#572000
0%
0-
#573000
1%
1-
b1000100 2
#574000
0%
0-
#575000
1%
1-
b1000101 2
#576000
0%
0-
#577000
1%
1-
b1000110 2
#578000
0%
0-
#579000
1%
1-
b1000111 2
#580000
0%
0-
#581000
1%
1-
b1001000 2
#582000
0%
0-
#583000
1%
1-
b1001001 2
#584000
0%
0-
#585000
1%
1-
b1001010 2
#586000
0%
0-
#587000
1%
1-
b1001011 2
#588000
0%
0-
#589000
1%
1-
b1001100 2
#590000
0%
0-
#591000
1%
1-
b1001101 2
#592000
0%
0-
#593000
1%
1-
b1001110 2
#594000
0%
0-
#595000
1%
1-
b1001111 2
#596000
0%
0-
#597000
1%
1-
b1010000 2
#598000
0%
0-
#599000
1%
1-
b1010001 2
#600000
0%
0-
#601000
1%
1-
b1010010 2
#602000
0%
0-
#603000
1%
1-
b1010011 2
#604000
0%
0-
#605000
1%
1-
b1010100 2
#606000
0%
0-
#607000
1%
1-
b1010101 2
#608000
0%
0-
#609000
1%
1-
b1010110 2
#610000
0%
0-
#611000
1%
1-
b1010111 2
#612000
0%
0-
#613000
1%
1-
b1011000 2
#614000
0%
0-
#615000
1%
1-
b1011001 2
#616000
0%
0-
#617000
1%
1-
b1011010 2
#618000
0%
0-
#619000
1%
1-
b1011011 2
#620000
0%
0-
#621000
1%
1-
b1011100 2
#622000
0%
0-
#623000
1%
1-
b1011101 2
#624000
0%
0-
#625000
1%
1-
b1011110 2
#626000
0%
0-
#627000
1%
1-
b1011111 2
#628000
0%
0-
#629000
1%
1-
b1100000 2
#630000
0%
0-
#631000
1%
1-
b1100001 2
#632000
0%
0-
#633000
1%
1-
b1100010 2
#634000
0%
0-
#635000
1%
1-
b1100011 2
#636000
0%
0-
#637000
1%
1-
b1100100 2
#638000
0%
0-
#639000
1%
1-
b1100101 2
#640000
0%
0-
#641000
1%
1-
b1100110 2
#642000
0%
0-
#643000
1%
1-
b1100111 2
#644000
0%
0-
#645000
1%
1-
b1101000 2
#646000
0%
0-
#647000
1%
1-
b1101001 2
#648000
0%
0-
#649000
1%
1-
b1101010 2
#650000
0%
0-
#651000
1%
1-
b1101011 2
#652000
0%
0-
#653000
1%
1-
b1101100 2
#654000
0%
0-
#655000
1%
1-
b1101101 2
#656000
0%
0-
#657000
1%
1-
b1101110 2
#658000
0%
0-
#659000
1%
1-
b1101111 2
#660000
0%
0-
#661000
1%
1-
b1110000 2
#662000
0%
0-
#663000
1%
1-
b1110001 2
#664000
0%
0-
#665000
1%
1-
b1110010 2
#666000
0%
0-
#667000
1%
1-
b1110011 2
#668000
0%
0-
#669000
1%
1-
b1110100 2
#670000
0%
0-
#671000
1%
1-
b1110101 2
#672000
0%
0-
#673000
1%
1-
b1110110 2
#674000
0%
0-
#675000
1%
1-
b1110111 2
#676000
0%
0-
#677000
1%
1-
b1111000 2
#678000
0%
0-
#679000
1%
1-
b1111001 2
#680000
0%
0-
#681000
1%
1-
b1111010 2
#682000
0%
0-
#683000
1%
1-
b1111011 2
#684000
0%
0-
#685000
1%
1-
b1111100 2
#686000
0%
0-
#687000
1%
1-
b1111101 2
#688000
0%
0-
#689000
1%
1-
b1111110 2
#690000
0%
0-
#691000
1%
1-
b1111111 2
#692000
0%
0-
#693000
1%
1-
b10000000 2
#694000
0%
0-
#695000
1%
1-
b10000001 2
#696000
0%
0-
#697000
1%
1-
b10000010 2
#698000
0%
0-
#699000
1%
1-
b10000011 2
#700000
0%
0-
#701000
1%
1-
b10000100 2
#702000
0%
0-
#703000
1%
1-
b10000101 2
#704000
0%
0-
#705000
1%
1-
b10000110 2
#706000
0%
0-
#707000
1%
1-
b10000111 2
#708000
0%
0-
#709000
1%
1-
b10001000 2
#710000
0%
0-
#711000
1%
1-
b10001001 2
#712000
0%
0-
#713000
1%
1-
b10001010 2
#714000
0%
0-
#715000
1%
1-
b10001011 2
#716000
0%
0-
#717000
1%
1-
b10001100 2
#718000
0%
0-
#719000
1%
1-
b10001101 2
#720000
0%
0-
#721000
1%
1-
b10001110 2
#722000
0%
0-
#723000
1%
1-
b10001111 2
#724000
0%
0-
#725000
1%
1-
b10010000 2
#726000
0%
0-
#727000
1%
1-
b10010001 2
#728000
0%
0-
#729000
1%
1-
b10010010 2
#730000
0%
0-
#731000
1%
1-
b10010011 2
#732000
0%
0-
#733000
1%
1-
b10010100 2
#734000
0%
0-
#735000
1%
1-
b10010101 2
#736000
0%
0-
#737000
1%
1-
b10010110 2
#738000
0%
0-
#739000
1%
1-
b10010111 2
#740000
0%
0-
#741000
1%
1-
b10011000 2
#742000
0%
0-
#743000
1%
1-
b10011001 2
#744000
0%
0-
#745000
1%
1-
b10011010 2
#746000
0%
0-
#747000
1%
1-
b10011011 2
#748000
0%
0-
#749000
1%
1-
b10011100 2
#750000
0%
0-
#751000
1%
1-
b10011101 2
#752000
0%
0-
#753000
1%
1-
b10011110 2
#754000
0%
0-
#755000
1%
1-
b10011111 2
#756000
0%
0-
#757000
1%
1-
b10100000 2
#758000
0%
0-
#759000
1%
1-
b10100001 2
#760000
0%
0-
#761000
1%
1-
b10100010 2
#762000
0%
0-
#763000
1%
1-
b10100011 2
#764000
0%
0-
#765000
1%
1-
b10100100 2
#766000
0%
0-
#767000
1%
1-
b10100101 2
#768000
0%
0-
#769000
1%
1-
b10100110 2
#770000
0%
0-
#771000
1%
1-
b10100111 2
#772000
0%
0-
#773000
1%
1-
b10101000 2
#774000
0%
0-
#775000
1%
1-
b10101001 2
#776000
0%
0-
#777000
1%
1-
b10101010 2
#778000
0%
0-
#779000
1%
1-
b10101011 2
#780000
0%
0-
#781000
1%
1-
b10101100 2
#782000
0%
0-
#783000
1%
1-
b10101101 2
#784000
0%
0-
#785000
1%
1-
b10101110 2
#786000
0%
0-
#787000
1%
1-
b10101111 2
#788000
0%
0-
#789000
1%
1-
b10110000 2
#790000
0%
0-
#791000
1%
1-
b10110001 2
#792000
0%
0-
#793000
1%
1-
b10110010 2
#794000
0%
0-
#795000
1%
1-
b10110011 2
#796000
0%
0-
#797000
1%
1-
b10110100 2
#798000
0%
0-
#799000
1%
1-
b10110101 2
#800000
0%
0-
#801000
1%
1-
b10110110 2
#802000
0%
0-
#803000
1%
1-
b10110111 2
#804000
0%
0-
#805000
1%
1-
b10111000 2
#806000
0%
0-
#807000
1%
1-
b10111001 2
#808000
0%
0-
#809000
1%
1-
b10111010 2
#810000
0%
0-
#811000
1%
1-
b10111011 2
#812000
0%
0-
#813000
1%
1-
b10111100 2
#814000
0%
0-
#815000
1%
1-
b10111101 2
#816000
0%
0-
#817000
1%
1-
b10111110 2
#818000
0%
0-
#819000
1%
1-
b10111111 2
#820000
0%
0-
#821000
1%
1-
b11000000 2
#822000
0%
0-
#823000
1%
1-
b11000001 2
#824000
0%
0-
#825000
1%
1-
b11000010 2
#826000
0%
0-
#827000
1%
1-
b11000011 2
#828000
0%
0-
#829000
1%
1-
b11000100 2
#830000
0%
0-
#831000
1%
1-
b11000101 2
#832000
0%
0-
#833000
1%
1-
b11000110 2
#834000
0%
0-
#835000
1%
1-
b11000111 2
#836000
0%
0-
#837000
1%
1-
b11001000 2
#838000
0%
0-
#839000
1%
1-
b11001001 2
#840000
0%
0-
#841000
1%
1-
b11001010 2
#842000
0%
0-
#843000
1%
1-
b11001011 2
#844000
0%
0-
#845000
1%
1-
b11001100 2
#846000
0%
0-
#847000
1%
1-
b11001101 2
#848000
0%
0-
#849000
1%
1-
b11001110 2
#850000
0%
0-
#851000
1%
1-
b11001111 2
#852000
0%
0-
#853000
1%
1-
b11010000 2
#854000
0%
0-
#855000
1%
1-
b11010001 2
#856000
0%
0-
#857000
1%
1-
b11010010 2
#858000
0%
0-
#859000
1%
1-
b11010011 2
#860000
0%
0-
#861000
1%
1-
b11010100 2
#862000
0%
0-
#863000
1%
1-
b11010101 2
#864000
0%
0-
#865000
1%
1-
b11010110 2
#866000
0%
0-
#867000
1%
1-
b11010111 2
#868000
0%
0-
#869000
1&
1%
1.
1-
b11011000 2
#870000
0%
0-
#871000
1%
1-
b11011001 2
#872000
0%
0-
#873000
1%
1-
b11011010 2
#874000
0%
0-
#875000
1%
1-
b11011011 2
#876000
0%
0-
#877000
1%
1-
b11011100 2
#878000
0%
0-
#879000
1%
1-
b11011101 2
#880000
0%
0-
#881000
1%
1-
b11011110 2
#882000
0%
0-
#883000
1%
1-
b11011111 2
#884000
0%
0-
#885000
1%
1-
b11100000 2
#886000
0%
0-
#887000
1%
1-
b11100001 2
#888000
0%
0-
#889000
1%
1-
b11100010 2
#890000
0%
0-
#891000
1%
1-
b11100011 2
#892000
0%
0-
#893000
1%
1-
b11100100 2
#894000
0%
0-
#895000
1%
1-
b11100101 2
#896000
0%
0-
#897000
1%
1-
b11100110 2
#898000
0%
0-
#899000
1%
1-
b11100111 2
#900000
0%
0-
#901000
1%
1-
b11101000 2
#902000
0%
0-
#903000
1%
1-
b11101001 2
#904000
0%
0-
#905000
1%
1-
b11101010 2
#906000
0%
0-
#907000
1%
1-
b11101011 2
#908000
0%
0-
#909000
1%
1-
b11101100 2
#910000
0%
0-
#911000
1%
1-
b11101101 2
#912000
0%
0-
#913000
1%
1-
b11101110 2
#914000
0%
0-
#915000
1%
1-
b11101111 2
#916000
0%
0-
#917000
1%
1-
b11110000 2
#918000
0%
0-
#919000
1%
1-
b11110001 2
#920000
0%
0-
#921000
1%
1-
b11110010 2
#922000
0%
0-
#923000
1%
1-
b11110011 2
#924000
0%
0-
#925000
1%
1-
b11110100 2
#926000
0%
0-
#927000
1%
1-
b11110101 2
#928000
0%
0-
#929000
1%
1-
b11110110 2
#930000
0%
0-
#931000
1%
1-
b11110111 2
#932000
0%
0-
#933000
1%
1-
b11111000 2
#934000
0%
0-
#935000
1%
1-
b11111001 2
#936000
0%
0-
#937000
1%
1-
b11111010 2
#938000
0%
0-
#939000
1%
1-
b11111011 2
#940000
0%
0-
#941000
1%
1-
b11111100 2
#942000
0%
0-
#943000
1%
1-
b11111101 2
#944000
0%
0-
#945000
1%
1-
b11111110 2
#946000
0%
0-
#947000
1%
1-
b11111111 2
#948000
0%
0-
#949000
1%
1-
b100000000 2
#950000
0%
0-
#951000
1%
1-
b100000001 2
#952000
0%
0-
#953000
1%
1-
b100000010 2
#954000
0%
0-
#955000
1%
1-
b100000011 2
#956000
0%
0-
#957000
1%
1-
b100000100 2
#958000
0%
0-
#959000
1%
1-
b100000101 2
#960000
0%
0-
#961000
1%
1-
b100000110 2
#962000
0%
0-
#963000
1%
1-
b100000111 2
#964000
0%
0-
#965000
1%
1-
b100001000 2
#966000
0%
0-
#967000
1%
1-
b100001001 2
#968000
0%
0-
#969000
1%
1-
b100001010 2
#970000
0%
0-
#971000
1%
1-
b100001011 2
#972000
0%
0-
#973000
1%
1-
b100001100 2
#974000
0%
0-
#975000
1%
1-
b100001101 2
#976000
0%
0-
#977000
1%
1-
b100001110 2
#978000
0%
0-
#979000
1%
1-
b100001111 2
#980000
0%
0-
#981000
1%
1-
b100010000 2
#982000
0%
0-
#983000
1%
1-
b100010001 2
#984000
0%
0-
#985000
1%
1-
b100010010 2
#986000
0%
0-
#987000
1%
1-
b100010011 2
#988000
0%
0-
#989000
1%
1-
b100010100 2
#990000
0%
0-
#991000
1%
1-
b100010101 2
#992000
0%
0-
#993000
1%
1-
b100010110 2
#994000
0%
0-
#995000
1%
1-
b100010111 2
#996000
0%
0-
#997000
1%
1-
b100011000 2
#998000
0%
0-
#999000
1%
1-
b100011001 2
#1000000
0%
0-
#1001000
1%
1-
b100011010 2
#1002000
0%
0-
#1003000
1%
1-
b100011011 2
#1004000
0%
0-
#1005000
1%
1-
b100011100 2
#1006000
0%
0-
#1007000
1%
1-
b100011101 2
#1008000
0%
0-
#1009000
1%
1-
b100011110 2
#1010000
0%
0-
#1011000
1%
1-
b100011111 2
#1012000
0%
0-
#1013000
1%
1-
b100100000 2
#1014000
0%
0-
#1015000
1%
1-
b100100001 2
#1016000
0%
0-
#1017000
1%
1-
b100100010 2
#1018000
0%
0-
#1019000
1%
1-
b100100011 2
#1020000
0%
0-
#1021000
1%
1-
b100100100 2
#1022000
0%
0-
#1023000
1%
1-
b100100101 2
#1024000
0%
0-
#1025000
1%
1-
b100100110 2
#1026000
0%
0-
#1027000
1%
1-
b100100111 2
#1028000
0%
0-
#1029000
1%
1-
b100101000 2
#1030000
0%
0-
#1031000
1%
1-
b100101001 2
#1032000
0%
0-
#1033000
1%
1-
b100101010 2
#1034000
0%
0-
#1035000
1%
1-
b100101011 2
#1036000
0%
0-
#1037000
1%
1-
b100101100 2
#1038000
0%
0-
#1039000
1%
1-
b100101101 2
#1040000
0%
0-
#1041000
1%
1-
b100101110 2
#1042000
0%
0-
#1043000
1%
1-
b100101111 2
#1044000
0%
0-
#1045000
1%
1-
b100110000 2
#1046000
0%
0-
#1047000
1%
1-
b100110001 2
#1048000
0%
0-
#1049000
1%
1-
b100110010 2
#1050000
0%
0-
#1051000
1%
1-
b100110011 2
#1052000
0%
0-
#1053000
1%
1-
b100110100 2
#1054000
0%
0-
#1055000
1%
1-
b100110101 2
#1056000
0%
0-
#1057000
1%
1-
b100110110 2
#1058000
0%
0-
#1059000
1%
1-
b100110111 2
#1060000
0%
0-
#1061000
1%
1-
b100111000 2
