UART/UART_modelsim_proj/dump.vcd
$date
	Tue Feb 04 20:35:05 2025
$end
$version
	ModelSim Version 2020.1
$end
$timescale
	10ps
$end

$scope module UART_Rx_tb $end
$var parameter 32 ! c_CLOCK_PERIOD_NS $end
$var parameter 32 " c_CLKS_PER_BIT $end
$var parameter 32 # c_BIT_PERIOD $end
$var reg 1 $ r_Clock $end
$var reg 1 % r_RX_Serial $end
$var reg 8 & w_RX_Byte [7:0] $end

$scope task UART_WRITE_BYTE $end
$var reg 8 ' i_Data [7:0] $end
$upscope $end

$scope module UART_RX_INST_l $end
$var parameter 32 ( CLKS_PER_BIT $end
$var wire 1 ) clk $end
$var wire 1 * i_RX_Serial $end
$var reg 1 + o_RX_DV $end
$var reg 8 , o_RX_Byte [7:0] $end
$var reg 3 - state_r [2:0] $end
$var reg 8 . Clock_Count_r [7:0] $end
$var reg 3 / Bit_Index_r [2:0] $end
$var reg 8 0 RX_Byte_r [7:0] $end
$var reg 1 1 RX_DV_r $end
$upscope $end
$upscope $end
$enddefinitions $end
#0
$dumpvars
0$
1%
b0 &
bx '
0+
b0 ,
b0 -
b0 .
b0 /
b0 0
01
b101000 !
b11011001 "
b10000111101000 #
b11011001 (
0)
1*
$end
#2000
1$
1)
b110111 '
0%
0*
#4000
0$
0)
#6000
1$
1)
b1 -
#8000
0$
0)
#10000
1$
1)
b1 .
#12000
0$
0)
#14000
1$
1)
b10 .
#16000
0$
0)
#18000
1$
1)
b11 .
#20000
0$
0)
#22000
1$
1)
b100 .
#24000
0$
0)
#26000
1$
1)
b101 .
#28000
0$
0)
#30000
1$
1)
b110 .
#32000
0$
0)
#34000
1$
1)
b111 .
#36000
0$
0)
#38000
1$
1)
b1000 .
#40000
0$
0)
#42000
1$
1)
b1001 .
#44000
0$
0)
#46000
1$
1)
b1010 .
#48000
0$
0)
#50000
1$
1)
b1011 .
#52000
0$
0)
#54000
1$
1)
b1100 .
#56000
0$
0)
#58000
1$
1)
b1101 .
#60000
0$
0)
#62000
1$
1)
b1110 .
#64000
0$
0)
#66000
1$
1)
b1111 .
#68000
0$
0)
#70000
1$
1)
b10000 .
#72000
0$
0)
#74000
1$
1)
b10001 .
#76000
0$
0)
#78000
1$
1)
b10010 .
#80000
0$
0)
#82000
1$
1)
b10011 .
#84000
0$
0)
#86000
1$
1)
b10100 .
#88000
0$
0)
#90000
1$
1)
b10101 .
#92000
0$
0)
#94000
1$
1)
b10110 .
#96000
0$
0)
#98000
1$
1)
b10111 .
#100000
0$
0)
#102000
1$
1)
b11000 .
#104000
0$
0)
#106000
1$
1)
b11001 .
#108000
0$
0)
#110000
1$
1)
b11010 .
#112000
0$
0)
#114000
1$
1)
b11011 .
#116000
0$
0)
#118000
1$
1)
b11100 .
#120000
0$
0)
#122000
1$
1)
b11101 .
#124000
0$
0)
#126000
1$
1)
b11110 .
#128000
0$
0)
#130000
1$
1)
b11111 .
#132000
0$
0)
#134000
1$
1)
b100000 .
#136000
0$
0)
#138000
1$
1)
b100001 .
#140000
0$
0)
#142000
1$
1)
b100010 .
#144000
0$
0)
#146000
1$
1)
b100011 .
#148000
0$
0)
#150000
1$
1)
b100100 .
#152000
0$
0)
#154000
1$
1)
b100101 .
#156000
0$
0)
#158000
1$
1)
b100110 .
#160000
0$
0)
#162000
1$
1)
b100111 .
#164000
0$
0)
#166000
1$
1)
b101000 .
#168000
0$
0)
#170000
1$
1)
b101001 .
#172000
0$
0)
#174000
1$
1)
b101010 .
#176000
0$
0)
#178000
1$
1)
b101011 .
#180000
0$
0)
#182000
1$
1)
b101100 .
#184000
0$
0)
#186000
1$
1)
b101101 .
#188000
0$
0)
#190000
1$
1)
b101110 .
#192000
0$
0)
#194000
1$
1)
b101111 .
#196000
0$
0)
#198000
1$
1)
b110000 .
#200000
0$
0)
#202000
1$
1)
b110001 .
#204000
0$
0)
#206000
1$
1)
b110010 .
#208000
0$
0)
#210000
1$
1)
b110011 .
#212000
0$
0)
#214000
1$
1)
b110100 .
#216000
0$
0)
#218000
1$
1)
b110101 .
#220000
0$
0)
#222000
1$
1)
b110110 .
#224000
0$
0)
#226000
1$
1)
b110111 .
#228000
0$
0)
#230000
1$
1)
b111000 .
#232000
0$
0)
#234000
1$
1)
b111001 .
#236000
0$
0)
#238000
1$
1)
b111010 .
#240000
0$
0)
#242000
1$
1)
b111011 .
#244000
0$
0)
#246000
1$
1)
b111100 .
#248000
0$
0)
#250000
1$
1)
b111101 .
#252000
0$
0)
#254000
1$
1)
b111110 .
#256000
0$
0)
#258000
1$
1)
b111111 .
#260000
0$
0)
#262000
1$
1)
b1000000 .
#264000
0$
0)
#266000
1$
1)
b1000001 .
#268000
0$
0)
#270000
1$
1)
b1000010 .
#272000
0$
0)
#274000
1$
1)
b1000011 .
#276000
0$
0)
#278000
1$
1)
b1000100 .
#280000
0$
0)
#282000
1$
1)
b1000101 .
#284000
0$
0)
#286000
1$
1)
b1000110 .
#288000
0$
0)
#290000
1$
1)
b1000111 .
#292000
0$
0)
#294000
1$
1)
b1001000 .
#296000
0$
0)
#298000
1$
1)
b1001001 .
#300000
0$
0)
#302000
1$
1)
b1001010 .
#304000
0$
0)
#306000
1$
1)
b1001011 .
#308000
0$
0)
#310000
1$
1)
b1001100 .
#312000
0$
0)
#314000
1$
1)
b1001101 .
#316000
0$
0)
#318000
1$
1)
b1001110 .
#320000
0$
0)
#322000
1$
1)
b1001111 .
#324000
0$
0)
#326000
1$
1)
b1010000 .
#328000
0$
0)
#330000
1$
1)
b1010001 .
#332000
0$
0)
#334000
1$
1)
b1010010 .
#336000
0$
0)
#338000
1$
1)
b1010011 .
#340000
0$
0)
#342000
1$
1)
b1010100 .
#344000
0$
0)
#346000
1$
1)
b1010101 .
#348000
0$
0)
#350000
1$
1)
b1010110 .
#352000
0$
0)
#354000
1$
1)
b1010111 .
#356000
0$
0)
#358000
1$
1)
b1011000 .
#360000
0$
0)
#362000
1$
1)
b1011001 .
#364000
0$
0)
#366000
1$
1)
b1011010 .
#368000
0$
0)
#370000
1$
1)
b1011011 .
#372000
0$
0)
#374000
1$
1)
b1011100 .
#376000
0$
0)
#378000
1$
1)
b1011101 .
#380000
0$
0)
#382000
1$
1)
b1011110 .
#384000
0$
0)
#386000
1$
1)
b1011111 .
#388000
0$
0)
#390000
1$
1)
b1100000 .
#392000
0$
0)
#394000
1$
1)
b1100001 .
#396000
0$
0)
#398000
1$
1)
b1100010 .
#400000
0$
0)
#402000
1$
1)
b1100011 .
#404000
0$
0)
#406000
1$
1)
b1100100 .
#408000
0$
0)
#410000
1$
1)
b1100101 .
#412000
0$
0)
#414000
1$
1)
b1100110 .
#416000
0$
0)
#418000
1$
1)
b1100111 .
#420000
0$
0)
#422000
1$
1)
b1101000 .
#424000
0$
0)
#426000
1$
1)
b1101001 .
#428000
0$
0)
#430000
1$
1)
b1101010 .
#432000
0$
0)
#434000
1$
1)
b1101011 .
#436000
0$
0)
#438000
1$
1)
b1101100 .
#440000
0$
0)
#442000
1$
1)
b0 .
b10 -
#444000
0$
0)
#446000
1$
1)
b1 .
#448000
0$
0)
#450000
1$
1)
b10 .
#452000
0$
0)
#454000
1$
1)
b11 .
#456000
0$
0)
#458000
1$
1)
b100 .
#460000
0$
0)
#462000
1$
1)
b101 .
#464000
0$
0)
#466000
1$
1)
b110 .
#468000
0$
0)
#470000
1$
1)
b111 .
#472000
0$
0)
#474000
1$
1)
b1000 .
#476000
0$
0)
#478000
1$
1)
b1001 .
#480000
0$
0)
#482000
1$
1)
b1010 .
#484000
0$
0)
#486000
1$
1)
b1011 .
#488000
0$
0)
#490000
1$
1)
b1100 .
#492000
0$
0)
#494000
1$
1)
b1101 .
#496000
0$
0)
#498000
1$
1)
b1110 .
#500000
0$
0)
#502000
1$
1)
b1111 .
#504000
0$
0)
#506000
1$
1)
b10000 .
#508000
0$
0)
#510000
1$
1)
b10001 .
#512000
0$
0)
#514000
1$
1)
b10010 .
#516000
0$
0)
#518000
1$
1)
b10011 .
#520000
0$
0)
#522000
1$
1)
b10100 .
#524000
0$
0)
#526000
1$
1)
b10101 .
#528000
0$
0)
#530000
1$
1)
b10110 .
#532000
0$
0)
#534000
1$
1)
b10111 .
#536000
0$
0)
#538000
1$
1)
b11000 .
#540000
0$
0)
#542000
1$
1)
b11001 .
#544000
0$
0)
#546000
1$
1)
b11010 .
#548000
0$
0)
#550000
1$
1)
b11011 .
#552000
0$
0)
#554000
1$
1)
b11100 .
#556000
0$
0)
#558000
1$
1)
b11101 .
#560000
0$
0)
#562000
1$
1)
b11110 .
#564000
0$
0)
#566000
1$
1)
b11111 .
#568000
0$
0)
#570000
1$
1)
b100000 .
#572000
0$
0)
#574000
1$
1)
b100001 .
#576000
0$
0)
#578000
1$
1)
b100010 .
#580000
0$
0)
#582000
1$
1)
b100011 .
#584000
0$
0)
#586000
1$
1)
b100100 .
#588000
0$
0)
#590000
1$
1)
b100101 .
#592000
0$
0)
#594000
1$
1)
b100110 .
#596000
0$
0)
#598000
1$
1)
b100111 .
#600000
0$
0)
#602000
1$
1)
b101000 .
#604000
0$
0)
#606000
1$
1)
b101001 .
#608000
0$
0)
#610000
1$
1)
b101010 .
#612000
0$
0)
#614000
1$
1)
b101011 .
#616000
0$
0)
#618000
1$
1)
b101100 .
#620000
0$
0)
#622000
1$
1)
b101101 .
#624000
0$
0)
#626000
1$
1)
b101110 .
#628000
0$
0)
#630000
1$
1)
b101111 .
#632000
0$
0)
#634000
1$
1)
b110000 .
#636000
0$
0)
#638000
1$
1)
b110001 .
#640000
0$
0)
#642000
1$
1)
b110010 .
#644000
0$
0)
#646000
1$
1)
b110011 .
#648000
0$
0)
#650000
1$
1)
b110100 .
#652000
0$
0)
#654000
1$
1)
b110101 .
#656000
0$
0)
#658000
1$
1)
b110110 .
#660000
0$
0)
#662000
1$
1)
b110111 .
#664000
0$
0)
#666000
1$
1)
b111000 .
#668000
0$
0)
#670000
1$
1)
b111001 .
#672000
0$
0)
#674000
1$
1)
b111010 .
#676000
0$
0)
#678000
1$
1)
b111011 .
#680000
0$
0)
#682000
1$
1)
b111100 .
#684000
0$
0)
#686000
1$
1)
b111101 .
#688000
0$
0)
#690000
1$
1)
b111110 .
#692000
0$
0)
#694000
1$
1)
b111111 .
#696000
0$
0)
#698000
1$
1)
b1000000 .
#700000
0$
0)
#702000
1$
1)
b1000001 .
#704000
0$
0)
#706000
1$
1)
b1000010 .
#708000
0$
0)
#710000
1$
1)
b1000011 .
#712000
0$
0)
#714000
1$
1)
b1000100 .
#716000
0$
0)
#718000
1$
1)
b1000101 .
#720000
0$
0)
#722000
1$
1)
b1000110 .
#724000
0$
0)
#726000
1$
1)
b1000111 .
#728000
0$
0)
#730000
1$
1)
b1001000 .
#732000
0$
0)
#734000
1$
1)
b1001001 .
#736000
0$
0)
#738000
1$
1)
b1001010 .
#740000
0$
0)
#742000
1$
1)
b1001011 .
#744000
0$
0)
#746000
1$
1)
b1001100 .
#748000
0$
0)
#750000
1$
1)
b1001101 .
#752000
0$
0)
#754000
1$
1)
b1001110 .
#756000
0$
0)
#758000
1$
1)
b1001111 .
#760000
0$
0)
#762000
1$
1)
b1010000 .
#764000
0$
0)
#766000
1$
1)
b1010001 .
#768000
0$
0)
#770000
1$
1)
b1010010 .
#772000
0$
0)
#774000
1$
1)
b1010011 .
#776000
0$
0)
#778000
1$
1)
b1010100 .
#780000
0$
0)
#782000
1$
1)
b1010101 .
#784000
0$
0)
#786000
1$
1)
b1010110 .
#788000
0$
0)
#790000
1$
1)
b1010111 .
#792000
0$
0)
#794000
1$
1)
b1011000 .
#796000
0$
0)
#798000
1$
1)
b1011001 .
#800000
0$
0)
#802000
1$
1)
b1011010 .
#804000
0$
0)
#806000
1$
1)
b1011011 .
#808000
0$
0)
#810000
1$
1)
b1011100 .
#812000
0$
0)
#814000
1$
1)
b1011101 .
#816000
0$
0)
#818000
1$
1)
b1011110 .
#820000
0$
0)
#822000
1$
1)
b1011111 .
#824000
0$
0)
#826000
1$
1)
b1100000 .
#828000
0$
0)
#830000
1$
1)
b1100001 .
#832000
0$
0)
#834000
1$
1)
b1100010 .
#836000
0$
0)
#838000
1$
1)
b1100011 .
#840000
0$
0)
#842000
1$
1)
b1100100 .
#844000
0$
0)
#846000
1$
1)
b1100101 .
#848000
0$
0)
#850000
1$
1)
b1100110 .
#852000
0$
0)
#854000
1$
1)
b1100111 .
#856000
0$
0)
#858000
1$
1)
b1101000 .
#860000
0$
0)
#862000
1$
1)
b1101001 .
#864000
0$
0)
#866000
1$
1)
b1101010 .
#868000
0$
0)
#870000
1$
1)
b1101011 .
#872000
0$
0)
#874000
1$
1)
b1101100 .
#876000
0$
0)
#878000
1$
1)
b1101101 .
#880000
0$
0)
#882000
1$
1)
b1101110 .
#884000
0$
0)
#886000
1$
1)
b1101111 .
#888000
0$
0)
#890000
1$
1)
b1110000 .
#892000
0$
0)
#894000
1$
1)
b1110001 .
#896000
0$
0)
#898000
1$
1)
b1110010 .
#900000
0$
0)
#902000
1$
1)
b1110011 .
#904000
0$
0)
#906000
1$
1)
b1110100 .
#908000
0$
0)
#910000
1$
1)
b1110101 .
#912000
0$
0)
#914000
1$
1)
b1110110 .
#916000
0$
0)
#918000
1$
1)
b1110111 .
#920000
0$
0)
#922000
1$
1)
b1111000 .
#924000
0$
0)
#926000
1$
1)
b1111001 .
#928000
0$
0)
#930000
1$
1)
b1111010 .
#932000
0$
0)
#934000
1$
1)
b1111011 .
#936000
0$
0)
#938000
1$
1)
b1111100 .
#940000
0$
0)
#942000
1$
1)
b1111101 .
#944000
0$
0)
#946000
1$
1)
b1111110 .
#948000
0$
0)
#950000
1$
1)
b1111111 .
#952000
0$
0)
#954000
1$
1)
b10000000 .
#956000
0$
0)
#958000
1$
1)
b10000001 .
#960000
0$
0)
#962000
1$
1)
b10000010 .
#964000
0$
0)
#966000
1$
1)
b10000011 .
#968000
0$
0)
#970000
1%
1$
1*
1)
b10000100 .
#972000
0$
0)
#974000
1$
1)
b10000101 .
#976000
0$
0)
#978000
1$
1)
b10000110 .
#980000
0$
0)
#982000
1$
1)
b10000111 .
#984000
0$
0)
#986000
1$
1)
b10001000 .
#988000
0$
0)
#990000
1$
1)
b10001001 .
#992000
0$
0)
#994000
1$
1)
b10001010 .
#996000
0$
0)
#998000
1$
1)
b10001011 .
#1000000
0$
0)
#1002000
1$
1)
b10001100 .
#1004000
0$
0)
#1006000
1$
1)
b10001101 .
#1008000
0$
0)
#1010000
1$
1)
b10001110 .
#1012000
0$
0)
#1014000
1$
1)
b10001111 .
#1016000
0$
0)
#1018000
1$
1)
b10010000 .
#1020000
0$
0)
#1022000
1$
1)
b10010001 .
#1024000
0$
0)
#1026000
1$
1)
b10010010 .
#1028000
0$
0)
#1030000
1$
1)
b10010011 .
#1032000
0$
0)
#1034000
1$
1)
b10010100 .
#1036000
0$
0)
#1038000
1$
1)
b10010101 .
#1040000
0$
0)
#1042000
1$
1)
b10010110 .
#1044000
0$
0)
#1046000
1$
1)
b10010111 .
#1048000
0$
0)
#1050000
1$
1)
b10011000 .
#1052000
0$
0)
#1054000
1$
1)
b10011001 .
#1056000
0$
0)
#1058000
1$
1)
b10011010 .
#1060000
0$
0)
#1062000
1$
1)
b10011011 .
#1064000
0$
0)
#1066000
1$
1)
b10011100 .
#1068000
0$
0)
#1070000
1$
1)
b10011101 .
#1072000
0$
0)
#1074000
1$
1)
b10011110 .
#1076000
0$
0)
#1078000
1$
1)
b10011111 .
#1080000
0$
0)
#1082000
1$
1)
b10100000 .
#1084000
0$
0)
#1086000
1$
1)
b10100001 .
#1088000
0$
0)
#1090000
1$
1)
b10100010 .
#1092000
0$
0)
#1094000
1$
1)
b10100011 .
#1096000
0$
0)
#1098000
1$
1)
b10100100 .
#1100000
0$
0)
#1102000
1$
1)
b10100101 .
#1104000
0$
0)
#1106000
1$
1)
b10100110 .
#1108000
0$
0)
#1110000
1$
1)
b10100111 .
#1112000
0$
0)
#1114000
1$
1)
b10101000 .
#1116000
0$
0)
#1118000
1$
1)
b10101001 .
#1120000
0$
0)
#1122000
1$
1)
b10101010 .
#1124000
0$
0)
#1126000
1$
1)
b10101011 .
#1128000
0$
0)
#1130000
1$
1)
b10101100 .
#1132000
0$
0)
#1134000
1$
1)
b10101101 .
#1136000
0$
0)
#1138000
1$
1)
b10101110 .
#1140000
0$
0)
#1142000
1$
1)
b10101111 .
#1144000
0$
0)
#1146000
1$
1)
b10110000 .
#1148000
0$
0)
#1150000
1$
1)
b10110001 .
#1152000
0$
0)
#1154000
1$
1)
b10110010 .
#1156000
0$
0)
#1158000
1$
1)
b10110011 .
#1160000
0$
0)
#1162000
1$
1)
b10110100 .
#1164000
0$
0)
#1166000
1$
1)
b10110101 .
#1168000
0$
0)
#1170000
1$
1)
b10110110 .
#1172000
0$
0)
#1174000
1$
1)
b10110111 .
#1176000
0$
0)
#1178000
1$
1)
b10111000 .
#1180000
0$
0)
#1182000
1$
1)
b10111001 .
#1184000
0$
0)
#1186000
1$
1)
b10111010 .
#1188000
0$
0)
#1190000
1$
1)
b10111011 .
#1192000
0$
0)
#1194000
1$
1)
b10111100 .
#1196000
0$
0)
#1198000
1$
1)
b10111101 .
#1200000
0$
0)
#1202000
1$
1)
b10111110 .
#1204000
0$
0)
#1206000
1$
1)
b10111111 .
#1208000
0$
0)
#1210000
1$
1)
b11000000 .
#1212000
0$
0)
#1214000
1$
1)
b11000001 .
#1216000
0$
0)
#1218000
1$
1)
b11000010 .
#1220000
0$
0)
#1222000
1$
1)
b11000011 .
#1224000
0$
0)
#1226000
1$
1)
b11000100 .
#1228000
0$
0)
#1230000
1$
1)
b11000101 .
#1232000
0$
0)
#1234000
1$
1)
b11000110 .
#1236000
0$
0)
#1238000
1$
1)
b11000111 .
#1240000
0$
0)
#1242000
1$
1)
b11001000 .
#1244000
0$
0)
#1246000
1$
1)
b11001001 .
#1248000
0$
0)
#1250000
1$
1)
b11001010 .
#1252000
0$
0)
#1254000
1$
1)
b11001011 .
#1256000
0$
0)
#1258000
1$
1)
b11001100 .
#1260000
0$
0)
#1262000
1$
1)
b11001101 .
#1264000
0$
0)
#1266000
1$
1)
b11001110 .
#1268000
0$
0)
#1270000
1$
1)
b11001111 .
#1272000
0$
0)
#1274000
1$
1)
b11010000 .
#1276000
0$
0)
#1278000
1$
1)
b11010001 .
#1280000
0$
0)
#1282000
1$
1)
b11010010 .
#1284000
0$
0)
#1286000
1$
1)
b11010011 .
#1288000
0$
0)
#1290000
1$
1)
b11010100 .
#1292000
0$
0)
#1294000
1$
1)
b11010101 .
#1296000
0$
0)
#1298000
1$
1)
b11010110 .
#1300000
0$
0)
#1302000
1$
1)
b11010111 .
#1304000
0$
0)
#1306000
1$
1)
b11011000 .
#1308000
0$
0)
#1310000
1$
1)
b0 .
b1 0
b1 /
b1 ,
b1 &
#1312000
0$
0)
#1314000
1$
1)
b1 .
#1316000
0$
0)
#1318000
1$
1)
b10 .
#1320000
0$
0)
#1322000
1$
1)
b11 .
#1324000
0$
0)
#1326000
1$
1)
b100 .
#1328000
0$
0)
#1330000
1$
1)
b101 .
#1332000
0$
0)
#1334000
1$
1)
b110 .
#1336000
0$
0)
#1338000
1$
1)
b111 .
#1340000
0$
0)
#1342000
1$
1)
b1000 .
#1344000
0$
0)
#1346000
1$
1)
b1001 .
#1348000
0$
0)
#1350000
1$
1)
b1010 .
#1352000
0$
0)
#1354000
1$
1)
b1011 .
#1356000
0$
0)
#1358000
1$
1)
b1100 .
#1360000
0$
0)
#1362000
1$
1)
b1101 .
#1364000
0$
0)
#1366000
1$
1)
b1110 .
#1368000
0$
0)
#1370000
1$
1)
b1111 .
#1372000
0$
0)
#1374000
1$
1)
b10000 .
#1376000
0$
0)
#1378000
1$
1)
b10001 .
#1380000
0$
0)
#1382000
1$
1)
b10010 .
#1384000
0$
0)
#1386000
1$
1)
b10011 .
#1388000
0$
0)
#1390000
1$
1)
b10100 .
#1392000
0$
0)
#1394000
1$
1)
b10101 .
#1396000
0$
0)
#1398000
1$
1)
b10110 .
#1400000
0$
0)
#1402000
1$
1)
b10111 .
#1404000
0$
0)
#1406000
1$
1)
b11000 .
#1408000
0$
0)
#1410000
1$
1)
b11001 .
#1412000
0$
0)
#1414000
1$
1)
b11010 .
#1416000
0$
0)
#1418000
1$
1)
b11011 .
#1420000
0$
0)
#1422000
1$
1)
b11100 .
#1424000
0$
0)
#1426000
1$
1)
b11101 .
#1428000
0$
0)
#1430000
1$
1)
b11110 .
#1432000
0$
0)
#1434000
1$
1)
b11111 .
#1436000
0$
0)
#1438000
1$
1)
b100000 .
#1440000
0$
0)
#1442000
1$
1)
b100001 .
#1444000
0$
0)
#1446000
1$
1)
b100010 .
#1448000
0$
0)
#1450000
1$
1)
b100011 .
#1452000
0$
0)
#1454000
1$
1)
b100100 .
#1456000
0$
0)
#1458000
1$
1)
b100101 .
#1460000
0$
0)
#1462000
1$
1)
b100110 .
#1464000
0$
0)
#1466000
1$
1)
b100111 .
#1468000
0$
0)
#1470000
1$
1)
b101000 .
#1472000
0$
0)
#1474000
1$
1)
b101001 .
#1476000
0$
0)
#1478000
1$
1)
b101010 .
#1480000
0$
0)
#1482000
1$
1)
b101011 .
#1484000
0$
0)
#1486000
1$
1)
b101100 .
#1488000
0$
0)
#1490000
1$
1)
b101101 .
#1492000
0$
0)
#1494000
1$
1)
b101110 .
#1496000
0$
0)
#1498000
1$
1)
b101111 .
#1500000
0$
0)
#1502000
1$
1)
b110000 .
#1504000
0$
0)
#1506000
1$
1)
b110001 .
#1508000
0$
0)
#1510000
1$
1)
b110010 .
#1512000
0$
0)
#1514000
1$
1)
b110011 .
#1516000
0$
0)
#1518000
1$
1)
b110100 .
#1520000
0$
0)
#1522000
1$
1)
b110101 .
#1524000
0$
0)
#1526000
1$
1)
b110110 .
#1528000
0$
0)
#1530000
1$
1)
b110111 .
#1532000
0$
0)
#1534000
1$
1)
b111000 .
#1536000
0$
0)
#1538000
1$
1)
b111001 .
#1540000
0$
0)
#1542000
1$
1)
b111010 .
#1544000
0$
0)
#1546000
1$
1)
b111011 .
#1548000
0$
0)
#1550000
1$
1)
b111100 .
#1552000
0$
0)
#1554000
1$
1)
b111101 .
#1556000
0$
0)
#1558000
1$
1)
b111110 .
#1560000
0$
0)
#1562000
1$
1)
b111111 .
#1564000
0$
0)
#1566000
1$
1)
b1000000 .
#1568000
0$
0)
#1570000
1$
1)
b1000001 .
#1572000
0$
0)
#1574000
1$
1)
b1000010 .
#1576000
0$
0)
#1578000
1$
1)
b1000011 .
#1580000
0$
0)
#1582000
1$
1)
b1000100 .
#1584000
0$
0)
#1586000
1$
1)
b1000101 .
#1588000
0$
0)
#1590000
1$
1)
b1000110 .
#1592000
0$
0)
#1594000
1$
1)
b1000111 .
#1596000
0$
0)
#1598000
1$
1)
b1001000 .
#1600000
0$
0)
#1602000
1$
1)
b1001001 .
#1604000
0$
0)
#1606000
1$
1)
b1001010 .
#1608000
0$
0)
#1610000
1$
1)
b1001011 .
#1612000
0$
0)
#1614000
1$
1)
b1001100 .
#1616000
0$
0)
#1618000
1$
1)
b1001101 .
#1620000
0$
0)
#1622000
1$
1)
b1001110 .
#1624000
0$
0)
#1626000
1$
1)
b1001111 .
#1628000
0$
0)
#1630000
1$
1)
b1010000 .
#1632000
0$
0)
#1634000
1$
1)
b1010001 .
#1636000
0$
0)
#1638000
1$
1)
b1010010 .
#1640000
0$
0)
#1642000
1$
1)
b1010011 .
#1644000
0$
0)
#1646000
1$
1)
b1010100 .
#1648000
0$
0)
#1650000
1$
1)
b1010101 .
#1652000
0$
0)
#1654000
1$
1)
b1010110 .
#1656000
0$
0)
#1658000
1$
1)
b1010111 .
#1660000
0$
0)
#1662000
1$
1)
b1011000 .
#1664000
0$
0)
#1666000
1$
1)
b1011001 .
#1668000
0$
0)
#1670000
1$
1)
b1011010 .
#1672000
0$
0)
#1674000
1$
1)
b1011011 .
#1676000
0$
0)
#1678000
1$
1)
b1011100 .
#1680000
0$
0)
#1682000
1$
1)
b1011101 .
#1684000
0$
0)
#1686000
1$
1)
b1011110 .
#1688000
0$
0)
#1690000
1$
1)
b1011111 .
#1692000
0$
0)
#1694000
1$
1)
b1100000 .
#1696000
0$
0)
#1698000
1$
1)
b1100001 .
#1700000
0$
0)
#1702000
1$
1)
b1100010 .
#1704000
0$
0)
#1706000
1$
1)
b1100011 .
#1708000
0$
0)
#1710000
1$
1)
b1100100 .
#1712000
0$
0)
#1714000
1$
1)
b1100101 .
#1716000
0$
0)
#1718000
1$
1)
b1100110 .
#1720000
0$
0)
#1722000
1$
1)
b1100111 .
#1724000
0$
0)
#1726000
1$
1)
b1101000 .
#1728000
0$
0)
#1730000
1$
1)
b1101001 .
#1732000
0$
0)
#1734000
1$
1)
b1101010 .
#1736000
0$
0)
#1738000
1$
1)
b1101011 .
#1740000
0$
0)
#1742000
1$
1)
b1101100 .
#1744000
0$
0)
#1746000
1$
1)
b1101101 .
#1748000
0$
0)
#1750000
1$
1)
b1101110 .
#1752000
0$
0)
#1754000
1$
1)
b1101111 .
#1756000
0$
0)
#1758000
1$
1)
b1110000 .
#1760000
0$
0)
#1762000
1$
1)
b1110001 .
#1764000
0$
0)
#1766000
1$
1)
b1110010 .
#1768000
0$
0)
#1770000
1$
1)
b1110011 .
#1772000
0$
0)
#1774000
1$
1)
b1110100 .
#1776000
0$
0)
#1778000
1$
1)
b1110101 .
#1780000
0$
0)
#1782000
1$
1)
b1110110 .
#1784000
0$
0)
#1786000
1$
1)
b1110111 .
#1788000
0$
0)
#1790000
1$
1)
b1111000 .
#1792000
0$
0)
#1794000
1$
1)
b1111001 .
#1796000
0$
0)
#1798000
1$
1)
b1111010 .
#1800000
0$
0)
#1802000
1$
1)
b1111011 .
#1804000
0$
0)
#1806000
1$
1)
b1111100 .
#1808000
0$
0)
#1810000
1$
1)
b1111101 .
#1812000
0$
0)
#1814000
1$
1)
b1111110 .
#1816000
0$
0)
#1818000
1$
1)
b1111111 .
#1820000
0$
0)
#1822000
1$
1)
b10000000 .
#1824000
0$
0)
#1826000
1$
1)
b10000001 .
#1828000
0$
0)
#1830000
1$
1)
b10000010 .
#1832000
0$
0)
#1834000
1$
1)
b10000011 .
#1836000
0$
0)
#1838000
1$
1)
b10000100 .
#1840000
0$
0)
#1842000
1$
1)
b10000101 .
#1844000
0$
0)
#1846000
1$
1)
b10000110 .
#1848000
0$
0)
#1850000
1$
1)
b10000111 .
#1852000
0$
0)
#1854000
1$
1)
b10001000 .
#1856000
0$
0)
#1858000
1$
1)
b10001001 .
#1860000
0$
0)
#1862000
1$
1)
b10001010 .
#1864000
0$
0)
#1866000
1$
1)
b10001011 .
#1868000
0$
0)
#1870000
1$
1)
b10001100 .
#1872000
0$
0)
#1874000
1$
1)
b10001101 .
#1876000
0$
0)
#1878000
1$
1)
b10001110 .
#1880000
0$
0)
#1882000
1$
1)
b10001111 .
#1884000
0$
0)
#1886000
1$
1)
b10010000 .
#1888000
0$
0)
#1890000
1$
1)
b10010001 .
#1892000
0$
0)
#1894000
1$
1)
b10010010 .
#1896000
0$
0)
#1898000
1$
1)
b10010011 .
#1900000
0$
0)
#1902000
1$
1)
b10010100 .
#1904000
0$
0)
#1906000
1$
1)
b10010101 .
#1908000
0$
0)
#1910000
1$
1)
b10010110 .
#1912000
0$
0)
#1914000
1$
1)
b10010111 .
#1916000
0$
0)
#1918000
1$
1)
b10011000 .
#1920000
0$
0)
#1922000
1$
1)
b10011001 .
#1924000
0$
0)
#1926000
1$
1)
b10011010 .
#1928000
0$
0)
#1930000
1$
1)
b10011011 .
#1932000
0$
0)
#1934000
1$
1)
b10011100 .
#1936000
0$
0)
#1938000
1$
1)
b10011101 .
#1940000
0$
0)
#1942000
1$
1)
b10011110 .
#1944000
0$
0)
#1946000
1$
1)
b10011111 .
#1948000
0$
0)
#1950000
1$
1)
b10100000 .
#1952000
0$
0)
#1954000
1$
1)
b10100001 .
#1956000
0$
0)
#1958000
1$
1)
b10100010 .
#1960000
0$
0)
#1962000
1$
1)
b10100011 .
#1964000
0$
0)
#1966000
1$
1)
b10100100 .
#1968000
0$
0)
#1970000
1$
1)
b10100101 .
#1972000
0$
0)
#1974000
1$
1)
b10100110 .
#1976000
0$
0)
#1978000
1$
1)
b10100111 .
#1980000
0$
0)
#1982000
1$
1)
b10101000 .
#1984000
0$
0)
#1986000
1$
1)
b10101001 .
#1988000
0$
0)
#1990000
1$
1)
b10101010 .
#1992000
0$
0)
#1994000
1$
1)
b10101011 .
#1996000
0$
0)
#1998000
1$
1)
b10101100 .
#2000000
0$
0)
#2002000
1$
1)
b10101101 .
#2004000
0$
0)
#2006000
1$
1)
b10101110 .
#2008000
0$
0)
#2010000
1$
1)
b10101111 .
#2012000
0$
0)
#2014000
1$
1)
b10110000 .
#2016000
0$
0)
#2018000
1$
1)
b10110001 .
#2020000
0$
0)
#2022000
1$
1)
b10110010 .
#2024000
0$
0)
#2026000
1$
1)
b10110011 .
#2028000
0$
0)
#2030000
1$
1)
b10110100 .
#2032000
0$
0)
#2034000
1$
1)
b10110101 .
#2036000
0$
0)
#2038000
1$
1)
b10110110 .
#2040000
0$
0)
#2042000
1$
1)
b10110111 .
#2044000
0$
0)
#2046000
1$
1)
b10111000 .
#2048000
0$
0)
#2050000
1$
1)
b10111001 .
#2052000
0$
0)
#2054000
1$
1)
b10111010 .
#2056000
0$
0)
#2058000
1$
1)
b10111011 .
#2060000
0$
0)
#2062000
1$
1)
b10111100 .
#2064000
0$
0)
#2066000
1$
1)
b10111101 .
#2068000
0$
0)
#2070000
1$
1)
b10111110 .
#2072000
0$
0)
#2074000
1$
1)
b10111111 .
#2076000
0$
0)
